<?xml version="1.0" encoding="UTF-8" standalone="no"?>
<!-- Created with Inkscape (http://www.inkscape.org/) -->

<svg
   width="62.293255mm"
   height="253.34685mm"
   viewBox="0 0 62.293255 253.34685"
   version="1.1"
   id="svg4073"
   xml:space="preserve"
   inkscape:version="1.2.2 (732a01da63, 2022-12-09, custom)"
   sodipodi:docname="bookmark.svg"
   inkscape:export-filename="../37a73b2f/bookmark.png"
   inkscape:export-xdpi="96"
   inkscape:export-ydpi="96"
   xmlns:inkscape="http://www.inkscape.org/namespaces/inkscape"
   xmlns:sodipodi="http://sodipodi.sourceforge.net/DTD/sodipodi-0.dtd"
   xmlns:xlink="http://www.w3.org/1999/xlink"
   xmlns="http://www.w3.org/2000/svg"
   xmlns:svg="http://www.w3.org/2000/svg"><sodipodi:namedview
     id="namedview4075"
     pagecolor="#505050"
     bordercolor="#eeeeee"
     borderopacity="1"
     inkscape:showpageshadow="0"
     inkscape:pageopacity="0"
     inkscape:pagecheckerboard="0"
     inkscape:deskcolor="#505050"
     inkscape:document-units="mm"
     showgrid="false"
     inkscape:zoom="0.5946522"
     inkscape:cx="160.59808"
     inkscape:cy="521.31313"
     inkscape:window-width="1920"
     inkscape:window-height="1043"
     inkscape:window-x="0"
     inkscape:window-y="0"
     inkscape:window-maximized="1"
     inkscape:current-layer="layer1"
     showguides="true" /><defs
     id="defs4070"><rect
       x="184.02636"
       y="921.372"
       width="368.19207"
       height="344.98352"
       id="rect525" /><clipPath
       clipPathUnits="userSpaceOnUse"
       id="clipPath4272"><rect
         style="fill:#ffffff;stroke-width:0.4"
         id="rect4274"
         width="62.060986"
         height="261.35345"
         x="2.3471191"
         y="-8.8492584" /></clipPath></defs><g
     inkscape:label="Calque 1"
     inkscape:groupmode="layer"
     id="layer1"
     transform="translate(-0.84161942,-0.40598772)"><image
       width="77.258331"
       height="253.73541"
       preserveAspectRatio="none"
       xlink:href="data:image/png;base64,iVBORw0KGgoAAAANSUhEUgAAASQAAAO/CAYAAABmx7tFAAAABHNCSVQICAgIfAhkiAAAIABJREFU eJztnbuVHMuSbG2gAvinAvjXJOgRAHpADOgBAUCDRPNQATxkuEOck32rq8KzIiLjY+5um8Lqnjk3 l60d1pVRnpH/85///Oc/IOblz+vbv3/9v////P/hx4/yz//3fwddEQ/N2STi5c8rfv3++/iLgB60 cnjD6Mz/sBcScGHhlcopmJAqJZu3hVcqJiCcCy2wlpKLQgIuLrzgxaRSsnnIJrgLLTCWUrGQvnz+ tuNahBCJ+P7z68PPPmy4DiGEKOLmlu2WobcowTbBdftm8zSbxLdzLLdvLgsJmLTwggipUrKpziaI Cy0wlJLbQgImLrwAMqqUbJqyCeBCC7tLyXUhAQsWnmMhVUo2mm+z2VlK7gsJWLTwnBaTSslG8202 u0opRCEBixeeMyFVSjaab7PZUUphCgnYsPAcCalSshmSjSMXWlhdSqEKCdi08JzsL6iUbIZlE7CY VpZSuEICNi88ciFVSjaab7NZVUohCwkgWHjExbQ9G2I032azopTCFhJAtPAIhaTJhhDNt9nMLqXQ hQSQLTwyIamyIUPzbTYzSyl8IQGEC49of4EuGyI032Yzq5RSFBJAvPAIhKTNhgDNt9nMKKU0hQSQ L7zNMlJnsxnNt9mMLqVUhQQ4WXibhHSRzSZo5tsIi2lkKaUrJMDRwtsgpJtsNqD5NptRpZSykACH C2+hkO6yWcj2bIiLaUQppS0kgECuHhYJ6TKbRdBkQ1hOV0spdSEBRHK1skBGt9ksgCobsmK6Ukrp Cwkgk6uHiUK6z2YidNkQzre15qJC+hc6uXqYVEwhspkEbTYEn5p6SkmFdAOtXD0MFjJUNoOhzoZk vq02FxXSHdRy9TBQyHDZDMRFNpvn22pyUSEVcCFXK4P2F0JmMwg32Wycb3uWiwrJwI1cPVwUMnQ2 F3GXzYb5trNcVEgnuJOrlQsyhs/mAi6zWTzfZuWiQnqCS7l66BAyTTYduM1m4XxbKZdyIR0XRTKS vhu3cvXQKGSqbBpxn83k+bb2Qhp8EZ5xL1cPlUKmzKaSENks3GcqFtLLn1f8+v132UV4IYRcPVQI mTabCkJlM7mczD2kdyGqnN4IJVcrT2RMnc0TwmUzqZhON7UfQiQYR2cgnFw9GC4oG5uQ2Qx+fu7p t2xmiMnLKaRcPRQ8ePn08e3fqbMpENqbAZ1Q9bX/aYiJiym0XD0Y5aRs3hPemwudUD2H9DTEpMUU Xq4ekrrQQhpvGl1oGoysDjGZkGnkaoXofB5GUnlT2QnNk9pNISYqplRyNaIxEpt03tx2wohCAjpD TFBO6eRq4O1xARXTA/Lmv3Q/y9YdYvBiklw2GiOxkTf/cOnh2kshBt5fkFw2xWxUTADkDTDgaf8h IQYUUnLZNM22Ae5daCG7N0OOHxkWYrBiyi7XGRojscnszbDzkIaHGETIzHI9oyqbIB60ktWboQe0 TQkxgJBZ5apBYyQ2Gb0ZfmLktBCd7y9klKuW5mwSFVM2b6YcYTs9RKdCZpOrBY2R2GTyZtqZ2ktC dChjJrlaGT5GQu5CC1m8KRbSl8/fdlyLECIR339+ffjZhw3XIYQQRZa8Bmnbx03yj/FZPob3MDQb cg9aiezNsveybQ2RWMjIcl1FYyQ2Ub1Z+qLI7SGSyrg9F2KWjpEQuNBCRG+Wv7mWJkQyIWlyIWRq Nppvo2LLq7SpQiQqJqpcyNAYiU0kb7YUEkAaIoGQlLmQsCwbAg9aieLNtkICiEPcLCRtLgQsz8ZR OUXwZmshAeQhbtxfoM5lM1uycVJM3r3ZXkiAkxA3COkil01ojMTGszcUhQQ4CnGxjG5y2cD2bIiL aXs2ndAUEuAwxEVCustlIRTZkBYTRTaNUBUS4DPEFUK6zGURVNmQlRNVNhXQFRLgL8R3TBTSdS6T ocuGqJjosjmBspAAXyEWmSSk+1wmQpsNQTnRZnMHbSEBfkI8ZYKMIXKZBHU2mm97CnUhAT5CrGag kKFyGQx9NppvM6EvJIA/xGYGFVO4XAbiJhvNt73DRSEB3CFe4qKQYXMZgKtsNN8GwFEhAbwhDuGC kKFzuYjLbBLPt7kqJIAzxKF07i+Ez+UCbrNJON/mrpAAvhCn0Shkmlw6cJ3N5E1wpmxcFhLAFeJ0 GoopVS6NhMgm+Hyb20ICeEJcSoWQKXOpJEw2QefbXBcSwBHiFp4ImTaXCsJlE2i+zX0hAftD3MrJ /kLqXJ4QMpsA820hCgkIKlgrBSFfPn18+3faXAxCO+N0vi1MIQHBBWvhpJhS51IgvDPO5ttCFRKQ QLBWCJ40ZyeFM50erM4mXCEBSQRrRcV0SipniOfbQhYSkEywBl7+vOLX77+Pv1A55XOGcL4tbCEB CQWr5MhFxfRIWmdI5ttCFxKQWLAnvMulVExA2nJK7czm+bZyIf34EUrG1IKdUMxFe00A5Myu+Ta7 kO4uwjvpBTMwc1ExyZmDhfNt9i1bQCElWJmnuQR0oRY5c8OC+bbne0gbz/+dgQQrU5VL0mKSMwUm udC2qR1ESAlWpjqXYH+kapAzBoM7oe9btgDFJMHKNOcSwIVa5IzNqPm261/7OxZSgpXpysWxBy3I GZsR823j5pCcCinBylzKxakLtcgZm6fzbU88GD8Y6XB/QYKVuZxL4GKSMzZX5tvmTmo7ElKClRmW iyMXapEzNlXzbcsLqXQRJxezGwlWZmguTlyoRc7Y9GSz/lk2ciElWJnhuZB70IKcsWnNZt/DtcRC SrAy03IhdqEWOWPTkg3H0/6EQkqwMlNzIfSgBTljU5sNRyEdkAkpwcosyYXMhVrkjE1NNlyFdEAk owQrsywXIhdqkTM2z7IpFtKXz9/mXpUQIj3ff359+NmHDdchhBBFip+Q3p5JYf24ueljvD6Kl9mW i4PbOTnTxmkhAeQhbhDSTTaL2Z4LcTltz8YR5qa2qxAXPz/nKpuFUORCWkwU2Tjg9Fs2lyEuEtJl NgugyoWsnKiyIeXp1/5uQ1wgo9tsJkOXC1Ex0WVDRtUckvsQJwrpPptJUOZCUkyU2ZBQPRgZIsRJ QobIZgLUuWwuJ+psNtI0qR0qxMFChspmIPS5bCwm+mw20PzoSLgQBwoZLptBuMlFYyTb6XqWLWSI g2QMmc0AXOWyuJhcZTOZ7odrQ4d4UcjQ2VzAXS4L59vcZTOJS0/7hw/xQjGFz6YTt7lojGQJl48f SRNih5BpsmnEdS6Ti8l1NgMYch5SqhAbhUyVTQMhctEYyXCGHdCWLsSG/YV02VQSJpcJxRQmm0aG nhiZNcQaIdNm84RQuQzeBA+VTSXDj7DNGOIbT4opdTYnhMxFYyRdTDlTO1uIRQwhlU2ZsLkMKKaw 2RSYdsh/phBPKQj58unj279TZ3NHeGc0RvKUqW8dyRJiFcb+wsunj8rmhhTOdBZThmymvwYpQ4jN kByDwUoqZzRG8o4l72WLHmI3KiaTdM40uBA5m2Uviowc4lVe/rzi1++/j79IXk4pnakspqjZLH1z bdQQR/D26ikV0ztSO5NwjGT5q7QjhjiKh2x0SwdAzpx5EC2b5YUExAtxJMVsVExy5iD4GMmWQgIk 2BlmNsmLSc7ccFJMnrPZVkiABDvjaTZJy0nO3LH4Jamz2VpIgAQ7oyqbhMUkZwwCuLC9kAAJdkZT NgGErEXOnODYA4pCAiTYGc3ZOBayBTlj43WMhKaQAAl2Rlc2wfYXSsgZm3fZOCkmqkICJNgZl7IJ /KlJzth4GyOhKyRAgp1xORtiGa8gZ2w8jZFQFhIgwc4Ylg2hkFeQMzan2RB5QFtIgAQ7Y2g2REJe Rc7YeBgjKRfSjx80QkowmynZBCgnOWNTnc0mD+xCWngRz5BgNtOycV5McsaGeYzEvmUjE1KC2UzN hsyDFuSMzbAxksEuPN9DIhJSgtksyYbIhVrkjE13NhPn29o2tQmElGA2y7Ih8KAFOWPDNkbS9y3b ZiElmM3ybJyUk5yxGZLNIA+ufe2/UUYJZrMlGwfFJGdsWMZIxs0hbRBSgtlsy4b8+Tk5YzM8m45O GD8YubiYJJjN9mxIPzVtz4WYZbNtQNGFuZPai4SUYDYU2RAWE0UupCwbI1leSKWLOLmYK0gwG6ps iMqJKhcypmdjPA2y9lm2yfsLEsyGLhuSYqLLhYgd2RQL6cvnb0v+x4UQefn+8+vDzz5suA4hhCjC dfzIwI/x+ihuQ5/Npts5+lw2siobrkI6GCSkBLNxk43GSGhYkQ1nIR0M2ASXYDausllYTK5yWczs bLgL6ZYLQkowG5fZaIxkKzOz8VNIB50ySjAbt9lMLia3uSxgVjb+CumWRiElmI3rbCYWk+tcJjMj G9+FdNAgpASzCZHNhHIKkcskRmcTo5BuqRBSgtmEyWZwMYXJZQIjs4lXSAdPhJRgNuGy0RjJdEZl E7eQDk5GBySYTchsBhRTyFwGMSKb+IV0S0HIl08f3/4twd4TdvFdnG8Lm8sArmaTq5AOTopJgr0n /OLTGMlwrmSTs5BuITkGg5kUi6/DgxS5dNKbjQrpQMV0SqrFpzGSIfRko0K6h/yQ+p2kW3yVxZQu lwZas1EhFThC/PX77+MvkxdT2sWnMZJuWrJRIRm8C1HF9I7Ui++kmFLn8oTabFRIJxRD1F4TAC0+ y4P0uZxQk40K6QlmiComLb4DjZFU88wZFVIFTxde4nJSKd1gFFP6XO5426OtLaSXP68K8Y6qhZe0 mFRKBZK6UIvVMWYhAZLrnuqFl1BGlZJBQheucFpIgOS6pzmbRELKmzIvf17L39QCYV3oxdxDklw2 XdkkKSZ5U0ZjJHWcbmpLLptL2QQvJ3lT5iGX4B708PRbNsllczmbwELKmzIaIzmn6mt/yWUzJJug z8/JmzKnuSQvpuo5JMllMzSbYELKmzIaIynTNBgpuWyGZxNIRnlTRmMkjzRPaksum2nZBBBS3pRp yiWAB8/oenREctlMzca5kPKmjMZI/kv3s2ySy2ZJNk6FlDdlunNx6oHFpYdrJZfNsmwcCilvymiM ZMDT/pLLZmk2zmSUN2WmjZEQu3DLkONHJJfNlmycCClvygzLxeF827DzkCSXzbZsHBSTvCmTdYxk 6AFtkstmezbEQm7PhpQpuRB7AEw4MVJy2VBkQyokRTaEZBsjmXKEreSyocmGcH+BJhsypudCVEzT ztSWXDZ02RAJSZcNCdtm24ClLpQL6cePIRchuWwosyEpJspsCMgwRmIX0qCLkFw21NlsLifqbDay PJfFHjwvpAEXIrls6LPZWEz02Wwi8hjJ8z2kQRchuWxcZLNpf8FFNhvYmsvEYqrf1B5wEZLLxlU2 iz81ucpmIRS5DHah71u2CxdBESIp7rJZWEzuslkETS6DXLj2tX/nRdCESIjbbBaUk9tsJkOVy0UP xswhdewvUIVIhutsJheT62wmQplLhwvFQvry+duwaxJCiBLff359+NmHDdchhBBFpj068o4nH90o P26SECqbwbdzobIZiItcjKdB1hTS7UXc8+9FuQhxEyGz0XzbVLzmsraQbikI+fLp49u/PYW4Aq+C PUXzbdPwmMu+Qjo4KSYvIa7Co2BNaL5tON5y2V9IB0YxeQhxJd4E60LzbUPxlAtPId1CcgwGK54E u4Tm24bhJRfOQjpQMZl4EWwYDS6ky6YSD7lwFxL+G+Kv338ff5m8nDwINpzKYkqZTQXsudAXEnAX oorpHeyCTUXzbV0w5+KikIBCiATn/7LALNgSNN/WDGsubgoJOAlRe020gi1H823VMDrjqpCAJyEm LyZGwbah+bYq2JxxV0hAZYhJy4lNsO1ovu0pTM64LCSgIcSExcQkGBUJXaiFxRm3hQR0hJhISBbB KEnkQQsMzrguJKAzxCRCMgjGiubbyux2xn0hARdCTFBMuwVjRvNtZXY6E6KQgAEhBi4nlZKN5tvK 7HImTCEBg0IMWkwqJRvNt5XZ4UyoQgIGhxhMSJWSjebbyqx2JlwhARNCDCSkSslG821lVjoTspCA SSEG2V9QKdlovq3MKmfCFhIwOUTnQqqUbJqyCfJHqoYVzoQuJGBBiI6LSaVko/m2MrOdCV9IwMKF 51BIlZKN5tvKzHQmRSEBixeeMyFVSjaabyszy5k0hQRsWHiO9hdUSjaabyszw5lUhQRsXHgOhFQp 2Wi+rcxoZ9IVErB54ZHLqFKy0XxbmZG5pCwkgGThkQpJkQ0py+bbCDxoYVQuaQsJIFp4hELSZEOI 5tvKjMgldSEBhAuPSEi6bIjQfFuZq7mkLySAdOGRCEmZDQmabytzJRcV0r/QLjwCGWmzIUDzbWV6 c1Eh3UC/8DYKSZ/NRjTfVqYnFxXSHS4W3qZicpHNJjTfVqY1FxVSAVcLb7GQrrJZjObbyrTkokIy cLfwFgrpLpuFUGRDWE61uaiQTqCQq5VF+wsus1kETTZkxVSTiwrpCTRy9TBZSNfZTIYuG5JyepaL CqkCOrlamSij+2wmQpkNQTG9vaSztpBe/rzyBEgCpVw9TBAyTDYToM1mczFZHWMWEkAWIAG0cvUw WMhQ2QyGPhuCT00H5i2bSqkMvVw9DBIyZDaDcJENQTGd7iGplMq4kKuHAUKGzWYArrLZVE7lQrq5 mJdPHwE4CHAxruRq5aKMobO5iLtsFhfT00I6ePn00UeAC3EnVw+dQqbIphOX2Syab3v+tT/BfSUz LuXqocODNNl04DqbiZ1QLKQvn78N+Y8LIYTF959fH372YcN1CCFEka5J7bdv337/ffxl4ts51x/D r1Cxv5A2mwpCZXPxdq770ZF3IwHaZ3ojlFw9nLiQPpsTQmbT0QuXnmUrzimpnGLK1YrhgbKxCZtN QydcfrjWHJ5MXkxh5erBGCMBlM09ob2596DQB0Oe9j+d6HZy/u8MQsvVg+bbqkjhzY8f8woJqHzM JOGnphRy9ZDQhRayejP0PKTqZ9+SyZhVriqSudBCRm+GH9DW/EBuEiEzylXLy59XjZAYZPNmyomR XacEJCimbHK18C4bldM7Mnkz7QjbS0eXBC6nTHK18pBNYA9ayeLN1DO1L5+nFFTILHL1YGYT1IUW Mngz/ZD/IYe8BZQxg1y9nGYT0IUWonuz5K0jQ0+eDCRkdLmu8DQbzbcBiOfNstcgDT8ON0gxRZbr KtXZBHGhhajeLH0v27Qzup0LGVWuETRl49yDViJ6s/xFkVNfHOBYyIhyjaIrG8cutBDNmy1vrp3+ NhOn+wvR5BpJdzYJiimSN9tepb3sFUvOhIwk12guZeP0j1QtUbzZVkjA4ve+OSqmKHLNYEg2jlxo IYI3WwsJ2PQySgdCRpBrFsOyceBBK9692V5IwMY35JIL6V2umQzPhtyFFjx7Q1FIwObXdhPvL3iW azZTsglSTF69oSkkYHMpHRAK6VWuFUzNhtCFFjx6Q1VIAEkpAXQyepRrFdOzIXOhBW/e0BUSQFRK ByRCepNrJUuyIfGgFU/eUBYSQFhKAIWQnuRazdJsCFxowYs3tIUEkJbSwUYhvci1g+XZOComD95Q FxJAXkrANiE9yLWLbdk4KCd2b+gLCXBQSsAWGdnl2snWbMiLidkbF4UEOCmlg4VCMsu1m+3ZaL6t GTeFBDgrJWBZMbHKxQBNNoSfmmiyucFVIQEOS+lgspCMcrFAlQ1ZMVFlA4eFBDguJWCqkGxyMUGZ DUk5MWXjspAA56UETNtfYJKLDdpsCIqJJRu3hQQEKKWDwUKyyMUIfTbJ59tcFxIQqJSAoTIyyMWK i2ySzre5LyQgWCkdDBByt1zMuMkm2XxbiEICgpYScFlINwtvA+6ySTDfFqaQgMCldNAppLuFtxCX 2QSebwtVSECCUgK6hHS58BbhOptg823hCglIUkpAs4yuF95k3GcTZL4tZCEBiUrpoFJI9wtvIiGy cT7fFraQgISlBFQVU4iFN4lQ2TicbwtdSEDSUjo4ETLUwhtMuGwczbeFLyQgeSkBppDhFt5AwmZD Pt+WopAAlRIAc3/h5dNHAMmzKRC2lADa+bY0hQSolN5REPLl00dlc0foUgIubYLPyCZVIQEqpQcI njRnJ3wpHRDMtxUL6cvnb5f/w0IIccb3n18ffvZhw3UIIUSR8i1bko/xun0r85bL77/l/4OALtSS 5vbtnkXzbed7SAmKSaVU5kGuBC7UkraUDibOt9VvagcWUqVUpihXYA9aSF9KwJT5tvZv2YIKqVIq cypXUBdqUSn9izFCctCSTf/X/sQvwetFpVTm6cJLXEwqpTsuzreNmUMKJKRKqUz1wgvkQi0qpQKd HowdjAwio0qpTNPCC+JCLSqlExpcmDep7VxIlVKZ5oXn3IMWVEo2L39eH8dICh7Mf3TEsZAqpTLd C8+xC7WolGwe5tu2FNItDoVUKZW5tPAcetCCSsnmWTZ7Hq51JqRKqcyQhefMhVpUSjZn66lYSC9/ XteE6EhGlVKZYQvPkQu1qJRsrI4xCwlYHKIDIVVKZYYuvGDzbSqlNk4LCdgQInkxqZTKTHGG3IVa VEr1mHtIFCGSCqlSKjPNGVIPWqBYTw443dSmCZFQSJVSmenOELpQC816Iubpt2xUIZLtL6iUyixx xmkxUa0nQqq+9qcMkURIlVKZpc6QuFAL5XoioXoOiTZEAhlVSmWWO0PgQi2062kzTYOR9CFuFFKl VGaLM06KiX49baB5UttFiJuEVCmV0RiJjYv1tJCuR0dchbhYSJVSme3OEBfT9myI6H6WzV2IC4VU KZWhcYawnGiy2cylh2tdhrhIRpVSGSpnyIqJKptNXH7a33WIk4VUKZWhc4Zovo0um8UMOX7EfYgT i0mlVIbWGYJPTbTZLGDYeUhhQpwgpEqpDLUzm4uJOpuJDD2gLVSIg4VUKZVx4czmMRKAOJvBDD8x MlyIA/cXVEpl3DizoZjcZDOIKUfYhg1xgJAqpTLunNkwRgI4yeYC087UDh3iRRlVSmVcOrN4jARw lE0HUw/5TxFip5AqpTJunVlQTG6zaWD6W0cyhAigS0iVUhn3ziwYIwGcZvOEJa9Bih7iAw1CqpTK hHBmUjGFyMZg2XvZIodoUimkSqlMKGcmjZEAAbK5YemLIqOG+JQKGVVKZcI5M7CYwmWDDW+ujRhi EydCqpTKhHRm0HxbtGy2vEo7WohdGMWkUioT2plBYySA/2y2FBIQK8TLFIR8+fRRudwR3pkLxRQl m22FBMQJcRgET5qzk8aZC2MkgN9sthYSECPE4RCdz8NIKmcai8l7NtsLCfAf4lT0qalIOmca/kh5 zoaikADfIc7m5c8rfv3++/iL5MWU1pmGMRLAVzY0hQT4DXEF775906emN1I788QDj9lQFRLgM8RV PIwEqJgAyBkAT8dIAB/Z0BUSIMHOKM4paRNczhwYIyQH7NlQFhIgwc44HZ5M/KlJztzhcL6NtpAA CXbG04nupMUkZwo4cqFYSF8+f9txLUKIRHz/+fXhZx82XIcQQhShvmW7RR/FbboeyHX0Mb4XOWPz 5gzZfJubQgIk2BndpwQELyY5Y/OQDYELrgoJkGBnXDq6hEDGWcgZm2I2G10oF9JxQaRCSjCbIecp BSwnOWNjZrNhvu28kBZdRA8SzGbYIW8OPGhBztg8zWaRC+e3bORCSjCb4SdPkrtQi5yxqcpmsgd1 e0jEMkowmynH4RK7UIucsWnKZoIL7ZvahEJKMJtpZ3Q7f35Oztg0ZzOwE/q/ZSMrJglmM/3FAWQu 1CJnbLqzuejCmK/9SYSUYDZL3mZC4kELcsbmUjadLoydQyIQUoLZLH3FEoELtcgZm8vZNHowZzBy 8/6CBLNZ/t43J8UkZ2yGZXPvQsGD+ZPam4SUYDbbXkZJXk5yxmZoNieD1+seHdkgowSz2fqGXOJi kjM2K7LZ8yzbQiElmM3213aTFpOcsZmdzd6HaxcJKcFstpfSAVk5yRmbmdnwPO0/WUgJZkNTSgBV MckZm1nZ8BTSwUQhJZgNVSkdEJSTnLGZkQ1fIR1MklGC2VCWErC9mOSMzehseAvplsFCSjAb2lIC ts63yRmbkdn4KKSDgcUkwWyoS+lAYyRUjMrGVyHdMkBICWbjopSA5cUkZ2xGZOO3kA4uCinBbNyU 0oHGSLZzNRv/hXRwYX9Bgtm4KyVgSTHJGZsr2cQppFs6hJRgNi5LCZi+CS5nbHqziVlIB43FJMFs 3JbSgcZIltOTTexCuqVSSAlm476UgCnFJGdsWrPJU0gHFUJKMJsQpXSgMZIltGSTr5AOnuwvSDCb UKUEDCsmOWNTm03eQrrFEFKC2YQrpQONkUyjJhsV0i0FGV8+fXz7twR7T9hSAi4Vk0rJ5lk2KiQL o5wk2HtClxLQXUwqJZszZ4qF9PLnVSEeEByBwU74UjrQGMkwrI4xCwlQiA+onExSOdPggUqpjdNC AhTiPS9/XvHr99/HX6iYcpXSgcZIhmLuISlEm7eFp2J6IGUpAU+LSeupjtNNbYVo85CNbufeSFtK wOl8m9bTc55+y6YQbYrZqJgAJC+lA42RNFP1tb9KyeY0m+TlpFL6l5NiSp/NHdVzSColm6fZJC4m ldIdiV2ooWkwUqVkU5XNxkPqd6JSKqBiKtI8qa1SsmnKJpmQKqUyGiN5T9ejIyolm+ZsEhWTSqmM xkj+S/ezbColm+5sEpSTSqnMO2cSF9Olh2tVSjaXsgleTCqlMhojGfC0v0rJZkg2QYVUKZUxnQnq wT1Djh9RKdkMyyagkCqlMpnHSIadh6RSshmaTTAZVUplusdIHLsAGIX05fO3HdcihEjE959fH372 YcN1CCFEkSlH2Or2zWZ6No4/xuv2rUyXM049mHamtkrJZkk2ToVUKZXJMkYy9ZB/lZLNsmwcPj+n Uipz2RkHxTT9rSMqJZvl2TgQ8kClVCb6GMmS1yCplGy2ZEMq4z0qpTJTGKgCAAAgAElEQVSRx0iW vZdNpWSzNRsyIe9RKZUZ7gyJB0tfFKlSstmeDYmQJVRKZaY5s9GFciEdFzThIrYvPGJosiEsJ5VS manObPDgvJAmXQTNwiOEKhuyYlIplYk0RnJ+yzbxIqgWHhl02RAVk0qpzNYxkoEu1O0hTboIuoVH BG02BOWkUiqz1JlJ823tm9qDhaRdeARQZ7O5mFRKZbyPkfR/yzbwIqgX3mZcZLOpnFRKZbY5M8CD 61/7D5LRxcLbhJtsNhSTSqnMdmc6XRg7h3RRyO0hEuMqm8XPz6mUylA409gJcwYjLxQTRYikuMxm 0acmlVIZGmcqPZg/qd0hJE2IhLjNZkExqZTK0DlzMni97tGRRiHpQiTCfTYL5ttc5jIRL84sfZYN QNP+gpcQdxAim8nzbW5zmYQHZ9YX0i0VQnoIcRdhspmwCa5SKsPuzN5COnhSTOwh7iRcNhPm20Lk MhBmZzgK6RZDSOYQdxMym8HzbWFyGQSrM3yFdFAQ8uXTx7d/M4XIAKtgQxg03xYul4swOsNbSAfG /sLLp480IbLAKNhQBsy3hczlAmzO8BfSLQRPmrPDJtg0Lsy3hc6lAyZnfBXSgYrpFCbBptM53xY+ l0ZYnPFZSP/y8ucVv37/ffyFyolGsGU0FJNKqQyDM64LCbiRS8X0AINgW2iYb0uVSwW7nXFfSEAh RN3SvbFbsK1Uzrely+UJO50JUUiAEaKKCUDyUjp4Mt+WNheDXc6EKSTgJEQVk0rp4GS+LXUuBXY4 E6qQgIoQE5eTSumGxYfIeWW1M+EKCagMMWkxqZQKJHWhlpXOhCwkoDHEZEKqlAySedDCKmfCFhLQ EWIiIVVKNppvK7PCmdCFBHSGmGR/QaVko/m2MrOdCV9IwMUQg39qUinZPIwEBHehlpnOpCgkYECI gWVUKdkU55QCu1DLLGfSFBIwMMSAQqqUbMzhyYAetDDDmVSFBAwOMZiQKiWbpxPdwVyoZbQz6QoJ mLTwggipUrKpeswkiActjHQmZSEBExdeACFVSjZNz74FcKGWUc6kLSRg8sJzLqNKyab5gVznLtQy wpnUhQQsWnhOhVQp2XSdEpBgvu2qM+kLCVi48BwWk0rJ5tLRJQ5dqOWKMyqkf1m+8BwJqVKyuXye kiMPWuh1RoV0w5aF50RIlZLNsEPenLhQS48zKqQ7ti08B/sLKiWboSdPBiqmVmeKhfTl87exVyWE EHd8//n14WcfNlyHEEIU0S3bCVS3KGQf46myIWPqiwPIPGihxhkV0hPoFh6RkHTZELHkbSZELtTy zBkVUgWUC49kE5wyGxKWvWLJWTGd5VIspJc/r5LrDuqFt1lI6mw2s/y9b07KyeoYs5AAyXUP/cLb KCN9NhvZsp6cFNM9p4UESK573GSzQUg32Wxg2x95Z8Vk7iFJLhtX2SwW0lU2i9l+5+GgnE43tSWX jctsFgnpMptFbC8lgLqYnn7LJrls3GazQEi32SyAopQOyMqp6mt/yWXjOpvJMrrOZjJUpQTQFFP1 HJLksgmRzSQhQ2QzCbpSArbPt5UL6biou4uQXDZhsplQTGGymQBlKR1s+NR0XkiFi5BcNuGyGShk uGwGQl1KwNJism/ZTi5CctmEzGaQkCGzGQR9KR1MLqe6PaTCRbx8+vj2b/oQFxN24Q3YXwibzQDc lBIwrZjaHq49KSYXIS4k/MK7IGT4bC7gqpQOBpZT/9P+JF8TMpNi4XV6kCKbTlyWEjCkE64fP6Ji OiXVwmt0IVU2jbgtJeBSJ4w7D4nkfB5G0i28BiHTZdOA61I6aCynoQe0vQX4+2/TRWQg7cKrEDJt NhWEKCWgupiGnxj5Ti4V0ztSL7wnQqbO5glhSunAGLwGJh1hW5RLe00AtPA039ZHuFIymHamtimX ikkL70DzbU1kKKWph/w/XXiJy0mldIPm26qJXkrT3zpStfCSFpNKqUBSF1qIXEpLXoNUvfASyqhS MkjoQgtRS2nZe9maF14iIVVKJ2i+zSRiKS19UWTXwktSTColG8232UQrpeVvrr208IKXk0rJRvNt NpFKacurtC8vvMDFpFKy0XybTZRS2lJIwKCFF3R/QaVko/k2mwiltK2QgMELL5iQKiUbzbfZeC+l rYUETFh4gWRUKdlovs3GcyltLyRg4sILIKRKyUbzbTZeS4mikIDJC8+5kColG8232XgsJZpCAhYt PKdCqpRsNN9m462UqAoJWLjwHAqpUrLRfJuNp1KiKyRg8cJzJqNKyUbzbTZeSomykIBNC8+JkCol G8232XgoJdpCAjYuPAfFpFKy0XybDXspURcSQLDwiIXcng0xmm+zYS4l+kICSBYeqZAU2ZCi+TYb 1lJyUUgA0cIj3F+gyYYQzbfZMJaSm0ICCBcekZB02RAxPRvCP1K1sJWSq0ICSBceSTFRZkOC5tts mErJXSEB5Atvs5DU2WxG8202LKXkspAABwtvo5D02WxE8202DKXktpAAJwtv0/6Ci2w2ofk2m92l VCykL5+/7bgWIUQivv/8+vCzDxuuQwghiri+ZbvF7S3Kgo/xbrNZAE02hLdzO27fwhQSQCRXD5OF dJ3NZOiyISqn1aUUqpAAQrl6mCRkiGwmQZkNSTGtLKVwhQSQytXDBCHDZDMB6mxI5ttm5xKykABy uVoZLGOobAZDnw3BfNvMXMIWEuBArh4GCRkym0G4yGbzfNusXEIXEuBErh4GFFPYbAbgKpvFn5pm llL4QgKcydXDBSHDZ3MBd9ksLKZZpZSikACHcvXQKWSKbDpxm83C+baRuaQpJMCxXK107C+kyaYD 19ksmm8blUuqQgKcy9VDg5DpsmkgRDaT59tG5JKukIAgcrVSKWPKbCoJk83E+baruaQsJCCQXD08 ETJ1Nk8Ilc2k+bYruaQtJCCYXD2cCJk+mxNCZjN4vq03l9SFBASVq4eCkC+fPr79O3U2BcJ6M3C+ rSeXciH9+LH96IOVhJWrh5NiSp/NHeG9GTDf1pqLXUgdF+GZ8HK1YhSTsnlPCm8uzre15GLfspEc fbCSFHL1kNCFFtJ4c2G+rTaXuj2kREKmkauHRB60ks6bjvm2mlzaNrWTCJlOrgbe5Pr99/GXAV1o IaU3jfNtz3Lp+5YtQTGllKuSd9momN6R2pvK+bazXK5/7R+4nFLL9YSHbBy/33406b2pmG+zchk3 hxS0mNLLdYKZTVAXWpA3MP9InY2RFAvp5c/rtRCDCSm5bE6zCeZBK/LmhkoXzEICBoQYSEjJZVOV TSAXWpA3d9x60FpIwKAQg+wvSC6b6mwSFpO8qcfcQ5oWonMhJZdNUzZB/kjVIm/qON3Unhqi42KS XDZd2Th2oQV585yn37ItCdGhkJLLpjsbhx60Im/Oqfraf1mIzoSUXDaXs3HmQgvyxqZ6DmlpiI72 FySXzZBsghaTvCnTNBi5JUQHQkoum6HZOHChBXnzSPOk9rYQyWWUXDZLxkiIXGhB3ryn69GR7SGS Crk9F2KmZEPqQSvy5r90P8tGESKhkBS5kKIxEht58w+XHq6lCpFISKpcyJieDZEHrcibAU/704VI IiRdLkRojMQmuzdDjh+hDJFARspcSNg+RkJcTJm9GXYeEnWIG4WkzmUzy7PRfBs9Q18USR/ipmKi z2UjGiOxyejN8DfXuglxsZBuctnA1mzIiymbN1Nepe0qxIVCusplMRTZkJYTRTaLmFJIgMMQF+0v uMtlITTZEBYTTTaTmVZIgOMQJwvpNpcF0GVDVE502UxgaiEBzkOcKKPrXCZDmQ1JMVFmM5DphQQE CXGCkCFymQRtNgTFRJvNAJYUEhAoxMFChsllAvTZaL5tOMsKCQgY4iAhw+UyEBfZaL5tGMVC+vL5 245rEUIk4vvPrw8/+7DhOoQQosjSW7ZbIn7cfEfnx/jwuVzAZTaab2tiWyEBcUI8paOYUuTSiets NN/2lK2FBMQIsZoGIVPl0oj7bDTfZrK9kAD/ITZTKWS6XBoIk43m295BUUiA7xC7qdhfSJlLJaGy 0XwbAKJCAvyGOIQTIVPn8oSQ2SSeb6MqJMBniEMxZEyfywlhsxlQTN6yoSskwF+I0ygI+fLpI4Dk uRQI7czFYvKUDWUhAb5CnI5RTOlzuSOFM8Hn22gLCfAT4lIInjZnJo0zQefbqAsJ8BHiFlRMJumc CTTfRl9IAH+Iu3j584pfv/8+/kLFlNOZAPNtLgoJ4A5xJ+9yUTm9I60zjufb3BQSwBvibh5y0e3c G+mdcTbf5qqQAM4QGTBzUTnJGcDNfJu7QgIkmMVpLsmLSc7cQDzf5rKQAAlm8TQXR++3H42cuYNw vs1tIQESzKI6l4SfmuRMAaI/Uq4LCZBgFk25JCsmOXPCZhfKhfTjhyshJViZrlySlJOcsdk532YX 0uILuYoEK9OdS4JikjM2u+bb7Fs2h0JKsDKXciHaX5iBnLHZMd/2fA/JWTFJsDJDcnHmQi1yxmb1 fFvbprYTISVYmWG5OPGgBTljs3K+re9bNgdCSrAyw3Nx4EItcsama76tw4NrX/uT7y9IsDJTcglS THLGZsV827g5JFIhJViZqbmQulCLnLGZPd82fjCSUEYJVmZ6LoQu1CJnbGbOt82d1CYSUoKVWZIL kQctyBmbIfNtywupdBEnFzMbCVZmaS4kLtQiZ2wuz7dtK6T7C7lnoZASrMzyXBwVk5yxGZ3Nvodr Nwopwcpsy8VBOckZm5HZ7H/af5OMEqzM1lzIi0nO2IzKZn8h3bJYSAlWZnsuxPNt27MhZkQ2XIV0 sLCYJFgZmlwIPzXRZEPI1Ww4C+mWBUJKsDJUuZAVE1U2ZFzJhr+QDiYLKcHKUOZCUk6U2ZDQm42f QjqYuL8gwcrQ5kJQTLTZENCTjb9CumWCkBKsDH0uGiOhpDUb34V0MFhGCVbGRS4aI6GjJZsYhXTL ICElWBk3uWwoJjfZbKA2m3iFdDBASAlWxl0uGiOhoCabuIV0ywUhJVgZl7ksKiaX2SziWTY5Cumg U0gJVsZ1Lhoj2caRTXUhvfx5jR1ih4wSrIz7XCYWk/tsJmJ1jFlIQJIQG4SUYGVC5DJpvi1ENgs5 LSQgUYiVxZQymwpC5aIxkm2Ye0ipQ3wiZOpsTgiXy8BiCpfNJIqF9OXztx3XIoRIxPefXx9+9mHD dQghRJGqr/31cfOGwsf4l08fASibW8I7c2ETPHw2F6ieQ1KIdxjFpGz+SxpnNEYyjKbBSIVoQHAM BiupnGn0IFU2lTRPaivEE1RMRVI6ozGSLroeHVGINi9/XvHr99/yLxOXU1pnKoopbTYFup9lU4g2 77IplVPSYkrvzEk5pc/mXy49XKsQbR6y0e0cADkDwHRB2Qx42l8h2pjZJC8nOfMvJyMkQM5shhw/ IsFsTrNJXExy5g6NkQAYeB6SBLOpyiZhOcmZAgk9uGXoAW0SzKY6m2RCypkTkrkATDgxUoLZNGWT SEY5Y2OOkQR1YcoRthLMpiubBOUkZ2zeDkxMMN827UxtCWbTnU3wYpIzNlnGSKYe8i/BbC5nE1RI OWNTzCaYB9PfOiLBbIZkE0xIQM6cEX2MZMlrkCSYzbBsJh1Svws5Y/M0G8fFtOy9bBLMZng2joW8 Rc7YRB0jWfqiSAlmMyUbZzKWkDM2EcdIlr+5VoLZTM3GiZAl5IxNczbkHmx5lbYEs5meDbmQFnLG JtIYyZZCAiTYGcuyIRTyDDljcykbIg+2FRIgwc5Ymg2RkM+QMzYRxkjKhfTjx7KLkGA2y7NxUkxy xmbqGMkCF+xCWngREsxmWzbk5SRnbIZms3i+zb5lWyykBLPZmg1xMckZG69jJM/3kBYKKcFsKLIh LCeKXEiZls1ED+o3tRfJKMFsaLIhKyaaXAjxNkbS9y3bZCElmA1VNkTPz1HlQsaSbAZ1wrWv/ScW kwSzocyG4FMTZS4kbJ1tA6pdGDeHNEFICWZDm83mYqLNhQAPYyTjByMHCynBbOiz2VRO9LlsZEs2 DR7Mm9QeuL8gwWxcZLOhmFzksgmaMZKCA2seHRkgpASzcZWNxkgo2J6N8TTI2mfZLsq4PURi3GWj MZLtMGaz7+HaTiEZQ2TBZTYLisllLotgy2br0/4AuoRkC5EJ19lojGQLTNnsL6RbGoRkCpEN99lM Kib3uUyEJRuuQjqoFJIlREbCZKMxkmUwZMNZSAcVMjKEyEqobAYWU6hcBrM7G+5CuuVEyN0hMhMu m0HzbeFyGcjObPwU0oFRTBLMJmw2GiOZxq5s/BXSLQUhXz59BCDB7gm9+C4UU+hcLrIjG9+FdGAU kwR7T4rFpzGSoazOJkYhHRCdz8NKmsXXWExpculgZTaxCukWgvN5WEm1+Br+SKXKpZFV2cQtJPwT 4q/ffx9/oWLKufg0RnKJFdmELiTgLkSV0zvSLr4nxZQ2lwpmZ1MspC+fvw3/HxJCiFu+//z68LMP G65DCCGKhL9lu+X042byTXDdptygMZIqZjiTqpCAihATF5NK6Y7ELtQy2pl0hQQ0hJhQSJVSgYQe tDDSmZSFBDSGmExIlVIZjZHYjHImbSEBnSEmKSeVUpkjFxXTIyOcSV1IwIUQExSTSqnMQy4JXKjl qjPpCwm4GGJwGVVKZYq5BHehlivOqJD+ZcjCCyqkSqmMmYse8u52RoV0w7CFF7CYVEplNEZi0+OM CumO4QsvkJAqpTJVuQTyoIVWZ1RIBaYsvCBCqpTKaIzEpiUbFZLBtIUXYH9BpVSmOZdExVSbjQrp hOkLz7GQKqUyGiOxqclGhfSEJQvPqYwqpTIaI7F5lo0KqYKlC8+ZkCqlMpdzceZBC2/T7rWF9PLn VXLdsXzhORJSpVRGYyQ2VseYhQRIrnu2LTwHQqqUygzNxYEHVzktJEBy3bM1G3Ih5U0ZjZHUY+4h SS6b7dkQy7g9G1KWjpGQuNDD6aa25LKhyYZQSJpsyJiaS4D5NqDiWzbJZUOVDVkxUWVDhMZIzqn6 2l9y2VBmQyIkZTYELMuFxIMWqueQJJcNbTYEQtJmsxmNkZRpGoyUXDbU2WzeX6DOZiNbciEvpuZJ bcll4yKbTUK6yGYDVLNtwPZy6np0RHLZuMlmQzG5yWYx23Mh+tTU/Szb9hCJcZfNQiHdZbMIilwI iqlcSD9+VF0IRYikuMxmkZAus1kAVS6byskupMqLoAqRDLfZLNhfcJvNZOhyWVxMzwup4iLoQiTC fTYThXSfzSRoc1lQTs/3kCovgjZEAkJkM0nGENlMgDqXicVUv6ldcRHUIW4mVDaDhQyVzUDoc5lQ TO3fsj3ZX6APcSPhshkoZLhsBuEml0EuXDvC1rgINyFuIGw2A4QMm81FXOVy0YMxZ2oXLuLl08e3 f9OHuBhXgrVyUcjQ2VzAZS4dLow/5N8oJzchLsKlYC1cKKbw2XTiNpcGF+a9dYRg6pMdt4K10uFC mmwacZ3LvQcFB9a8BknlZOJasFY03zaEELkYT4Msey/by59X/Pr99/EXKqYYgrWi+bZLRM1l6Ysi 316vpGJ6IKpgT9F8WzcRc1n+5tqHEHU790ZEwarRfFsX0XLZ8irtYogqJgDxBOtC821NRMplSyEB T0JMXk6RBLuE5tuqieLMtkICKkJMXExRBBuG5tueEsGZrYUEVIZIev7vbCIINpzEf6Rq8O7M9kIC GkNMJqR3waaSzIVaPDtDUUhAR4iJZPQs2Gw031bGqzM0hQRcCDFBOXkVbAWabyvj0ZliIX35/G3H tQghEvH959eHn33YcB1CCFGE6pbtlmEfNwPeznn8KL4KzbeV8eIMbSEBg0MMJqMXwXag+bYyHpyh LiRgUohBhPQg2C4031aG3Rn6QgImhhigmNgF24nm28owO+OikIAFIToWklmw3Wi+rQyrM24KCVgU olMhWQVjQPNtZRidcVVIwMIQHe4vMArGwqVsAhcTmzPuCgnYEKIjIdkEY+JyNg7/SNXA5IzLQgI2 heikmJgEY0PzbWVYnHFbSMDmEMmFZBGMEc23lWFwxnUhAQQhEgu5PRtiNN9WZrcz7gsJ2B/iG4RC 0mRDiObbyux0JkQhAWQLj0xIqmzI0HxbmV3OhCkkgHDhEclIlw0Rmm8rs8OZUIUEEC88AiFpsyFA 821lVjsTrpAA8oW3uZios9mM5tvKrMwlZCEBThbeJiFdZLMJzbeVWZVL2EICHC28DUK6yWYDmm8r syKX0IUEOFt4i/cXXGWzmO3ZkBbT7FzCFxJAIFcPi4R0mc0iKLIh3ASfmUuKQgJI5OphQTG5zWYB VNkQfWqalUuaQgLI5OphopDus5kIXTYkxTQjl1SFBBDK1cMkIUNkMwnabIKNkaQrJIBYrlYm7C+E yWYC1NlsLKaRuaQsJIBcrh4GChkum4G4yMbxGEnaQgKcyNXKIBlDZjMIN9ksLqYRuaQuJMCRXD1c FDJ0Nhdxlc3CYrqaS/pCApzJ1cMFIcNncwGX2ZCPkaiQ/sWlXD10CJkmmw7cZjO5mHpzUSHd4Fau HhqFTJVNI+6zIRojUSHd4V6uVhpkTJdNAyGymVBMrbmokAqEkKuHCiHTZlNBmGwGz7e15FIupNsL InjCeAdh5OrhSTGlzuYJ4bJZPEbyvJAuXIR3wsnVg+GCsrEJmc2ATqjJ5fyWTcUUU64eCi68fPr4 9u/U2RQI7c3EMZL6PaTE5RRarlaM/YWXTx+VzR3hvenshCOX6kJ6+fNqB5i0mMLL1UNSF1pI403H GElTIQEVASYTMo1crSTzoJVU3lx0wbxlqy6lARfhiVRyNfLy5xW/fv99/EVQF1pI501nJ5zuITWV knURlRfiiXRyNfDmjIrpgbTeNJTT003t5lLquAiPpJWrgodsgrvQQmpv7j0oOFD1LVt3KZUuwrgQ j6SW6wnFbAK70IK8wT8u9BYScLGUbi/iHudCSi4bM5uAHrQib8o0Pcs2pJSAcEJKLpun2QRzoQV5 80jzw7XDSukgiJCSy6YqmyAetCJv3tP1tP/wUgJCCCm5bJqyCeBCC/Lmv3QfPzKllAD3Mkoum+Zs nLvQgrz5h0vnIU0rpQOnQkoum65sNN+WhmIhffn8bce1CCES8f3n14effdhwHUIIUWTYEbbTb9/u cXI7p4/hNsOyceJCC1m9GXqm9vJSAlzsL2SVq4ah2QQrpozeDD/kf0spHRALmVGuWoZn4+CPVC3Z vJny1pGtpQTQFlM2uVqYlg2pCy1k8mbaa5C2l9IBmZCZ5GplajZkHrSSxZup72WjKSWASsgscvWw JBsiF1rI4M30F0VSlRJAs7+QQa5elmXjsJiie7PkzbV0pXSwWcjocl1heTaOyimyN8tepU1bSsBW GSPLdZUt2TgppqjeLCskgLyUDjYIGVWuEWzLxkExRfRmaSEBTkoJWC5kRLlGsT0b4nLans1glhcS 4KiUDhYJGU2ukVBkQ1pMFNkMYkshAQ5LCVgiZCS5RkOVDVk5UWVzgW2FBDgtJWC6jFHkmgFdNkTF RJdNB1sLCXBcSgeThIwg1ywos9F82xC2FxIQoJSAKcXkXa6ZUGej+bZuKAoJCFJKBwOF9CzXbOiz 0XxbMzSFBAQrJWCYkF7lWoGbbDTfVgVVIQEBSwkYsr/gUa5VuMpG822n0BUSELSUDi4I6U2ulbjM RvNtD1AWEhC8lIBuGT3JtRq32Wi+7Q3aQgISlNJBo5Be5NqB62w038ZdSECiUgKahPQg1y5CZJN0 vo2+kIBkpXRQISS7XDsJk02y+TYXhQQkLSXgqZDMcu0mXDYJ5tvcFBKQuJSAUxlZ5WIgZDaB59tc FRKQvJQOCkK+fPr49u/U2RRgXHhDCDjf5q6QAJXSGyfFlD6bO9gW3nCCzLe5LCRApfQA0TEYrDAt vGk4n29zW0iASqmIiukUloW3BIfzba4LCVApmZCcz8MIw8JbiqP5NveFBKiULN5y+f338ZfJi2n3 wttC5R+pndmEKCRApWTxTi4V0ztSltIB6XxbmEICVEoWRbm01wQgeSkBdPNtoQoJUClZmHKpmFRK BwTzbeEKCVApWZwuvOSb4CqlGzbOt5UL6bggxzKqlMpULbykn5pUSgUWu3BeSIsuYhYqpTLVCy+I By2olAwWuXB+yxZASJVSmeaFF8CFWlRKJ0y+ta/fQ3IspEqpTNfCc+xBCyolm5nzbe2b2k6FVCmV ubTwnLpQi0rJZtZ8W/+3bA5lVCmVubzwHLpQi0rJZsZ825iv/R0JqVIqM2ThBR0dUCnZjJ5vGzuH 5KSYVEplhi48Jy7UolKyGTnfNm8wklxIlVKZ4QuP3IMWVEo2XfNtBQ/mT2oTC6lSKjNt4RG7UItK yaZ5vm1LId1fxD2bhVQplZm68JwXk0rJ5mo2e55lIxNSpVRm+sIj/SNVg0rJ5ko2xUL68vnb9asS QogTvv/8+vCzDxuuQwghivAdP7L5dk63b2W23KKQ3dpb6PbNpjUbvkI62Li/oFIqs23hOSgmlZJN Sza8hXTLBiFVSmW2LzzictqeDTG12fgopIPFMqqUylAsPNJiosiGlJpsfBXSLYuEVCmVoVl4hMVE kw0hz7LxW0gHC4RUKZWhW3hE5USXDRFn66lYSC9/Xn2GOFFIlVIZyoVHUkyU2ZBgdYxZSIDjECcJ 6T6XSVAvPJIxEoAwG0JOCwlwHuIEGVVKZeid2VhM9NkQYe4hhQtxoJAqpTIunNk03+YiGwJON7VD hjiomFRKZVw5s2mMBHCQzSaefssWOsSLQqqUyrhzZmExuctmMVVf+4cP8YKQKqUybp1ZOEYCOMtm AdVzSClC7NxfUCmVce3M5GJync1EmgYjU4XYKKRKqUwIZyaPkQCOsxlM86R2uhAbZFQplQnjzMQx EsB5NoPoenQkbYgVQqqUyoRyZnAxhcrmIt3PsqUO8YmQKqUyIXW7xUIAAAp6SURBVJ0ZPEYCBMqm g0sP1ypEmEKqlMqEdWZAMYXNpoHLT/srxH8pCPny6SOA5LkUCO/MgDESIGg2Txhy/Ej2EN9hFFP6 XO5I4UxnMaXIxmDYeUiZQzQhOQaDlTTOdMy3pcnmjqEHtGUN8SkqJpN0znSMkQBJssGEEyMzhljL y59X/Pr99/EXycsppTOVxZQtmylH2GYLsYW3b99UTO9I7UzlGAkQP5tpZ2pnCrGVdyMBjt9vP5r0 zpwUU5Zsph7ynyXEHopzStprkjOA+UfqGCMB4mYz/a0jEszGHJ5MXkxy5oZk821LXoMkwWyeTnQn LSc5c0eS+bZl72WTYDZVj5kkLCY5YxDYhaUvipRgNtXPviXbBJczJwQspuVvrpVgNs0P5AYUsoSc sYk2RrLlVdoSzKbrlIAExSRnbN5l47yYthQSIMHOuHR0SeBykjM2D9k49WBbIQES7IzL5yk5FfIZ csbGzMaRC1sLCZBgZww75M2RkDXIGZvTbBx4sL2QAAl2xtCTJx0IWYucsanKhtQFikICJNgZw4/D JZWxFTljU50NmQs0hQRIsDOmndFNJmQrcsamKRuS+TaqQgIk2BlTXxzguJjkjE1XNhtdKBfScUGb hJRgNkveZuKwnOSMTXc2Gzw4L6RFF1FCgtkse8WSs2KSMzaXs1nkwvkt22YhJZjN0ve+kewv1CBn bIZkM7kT6vaQNhaTBLPZ8jJKB5+a5IzN0GwmuNC+qb1BSAlms+0NueTFJGdshmcz0IX+b9kWCynB bLa/tpu0nOSMzZRsBnhw/Wv/hfsLEsxmeykBlMUkZ2ymZtPpwtg5pAVCSjAbilI6IConOWMzPZtG D4qF9OXzt6HXJIQQ93z/+fXhZx82XIcQQhRZ9+jIhI/w+ihuQ3X7do/GSChhyGbPs2wDhWQIkRXq UgK2FZOcsdmdzd6HawcJuTtEZuhL6UBjJDTszIbjaf8BMkowGzelBCwtJjljsysbjkK65YKQEszG VSkBy+bb5IzNjmz4Cumgs5gkmI27UjqY/KlJztiszoa3kG5pFFKC2bgtJWBqMckZm5XZ+CikgwYh JZiN61I60BjJUlZl46uQDir3FySYTYhSAoYXk5yxWZGNz0K65YmQEswmTCkBQzfB5YzN7Gz8F9LB STFJMJtQpXSgMZKpzMwmTiHdUhDy5dPHt39LsPeELCXgcjGplGxmZROzkA5OikmCvSdsKR1ojGQ4 M7KJXUgHjg6p30n4UgK6ikmlZDM6mxyFdAvRwWGMpCilA42RDGFkNvkK6UDFZJKqlIBqF1RKNqOy yVtIuFl4v/8+/jJ5OaUrJaDq1l6lZDMim9SFBNyFqGJ6R8pSOtAYSRdXs0lfSIARom7pACQvJcD0 QKVkcyUbFdK/mCGqmFRKBxojqaa3lFRIN5yGmHx0QKV0g1FMyuY9PaWkQrqjKsSkn5pUSnck/yNV Q2spqZAKVIeYsJhUSgYJXailpZRUSAbNHzcTCalSKvPy51Xf1BrUricV0gldG3NJikmlVEZjJDY1 60mF9ITurzAT7C+olMo8OJPkj1QNz9aTCqmCyzMngYVUKZXRGInNmTPFQnr58yrB7hgyCBdURpVS meYxkgAu1GJ1jFlIgAS7Z+h0bjAh5UyZp84E8+Aqp4UESLB7hmcTSEiVUhmNkdRj7iGplGymZRNA SJVSmSZnAnjQy+mmtkrJZmo2zoVUKZXRGMlznn7LplKymZ6NYxlVSmWGjpE4caGFqq/9VUo2y7Jx KKRKqcwlZ4LPt1XPIamUbJZm46yYVEplNEZSpmkwUqVksyUbJ0KqlMoMc8aJBzU0T2qrlGy2ZeNA SJVSGY2RvKfr0RGVks3WbMj3F1RKZaY447SYup9lUynZUGRDKqRKqYzGSP7h0sO1FAuPFJpsCGVU KZXRGMmAp/1pFh4hdNkQCalSKrPEGSIP7hly/AjdwiOCMhsSIVVKZTKPkQw7D4ly4ZFAnc1mIVVK ZZY7Q1JMQw9oo154m6HPZqOQKqUyGcdIyoV0XFDHRdAvvI24yGaTjCqlMnRjJJNdOC+kzotwsfA2 4SqbxUKqlMpsd2bhfNv5LdsFIbeHSIy7bBYWk0qpDI0zk12o20PqvAiaEAlxm82CclIplaFyZpIH xUL68vnb5f+wEEKc8f3n14effdhwHUIIUeT61/6VH92oPm6SESabCR/jdftWhtqZC5vgY18U+URI 6hA3EyqbwcWkUirjwplGF+a8ufbkIlyEuImQ2QwqJ5VSGTfOVHow91Xaxke3l08f3/5NHeIG3AjW yoBiUimVcefMyeD13EIqXcQNRzG5CHEh7gRr4eKQnUqpTBRn1hXSgVFMnkOcQRTBTrk43xY2l04i OLO+kG4hecKYlQiCVdHhgUqpjHdn9hbSgYrJxLtgzTS4oFIq49kZjkLCPyH++v23/Mvk5eRZsG4a 59vS5FKJV2doCgm4C7FUTomLyatgQ6icb0uXyxM8OkNVSEAhRN3OveFRsKFUzLelzOUEb87QFRJw EqLKyZ1gUzA8UCmV8eQMZSEBT0JMXkyeBJuOxkiq8OIMbSEBlSEmLScvgi0jqQcteHCGupCAhhAT CulBsC0kdKEWdmfoCwloDDGZjOyCbSWZC7UwO+OikIDOEJMIySzYbjTfVobVGTeFBFwIMUExsQrG wLtv3xK4UAujM64KCRgQYmAhGQVj4WEkILAHLbA5466QgEEhBhWSTTAmzDmloC7UwuSMy0ICBoa4 8CV4q2ASjI3T4cnExcTijNtCAiaEGEhIFsEYqZroDuRCLQzOuC4kYFKIQWRkEIyV6sdMgrhQy25n 3BcSMDlE50LuFoyZpmffnHvQwk5nQhQSsCBEx0KqlGy6Hsh17EItu5wJU0jAwhAdCqlSsuk+JcCh By3scCZUIQGLQ3QmpErJ5vLRJc5cqGW1M+EKCdiw8BzJqFKyGXKekiMXalnpTMhCAjYuPAdCqpRs hh3yFmy+bZUzYQsJ2LzwyItJpWQz/ORJchdqWeFM6EICSBYeqZAU2ZAy5ThcUg9amO1M+EICiBYe oZA02RAy9YxuQhdqmelMikICyBYe2f4CVTZkTH9xgNNimuVMmkICSBceiZCU2ZCw5G0mZH+kapjh TKpCAogXHkEx0WZDwNJXLBG4UMtoZ9IVEuBg4W0Ukj6bjSx/75uTYhrpTMpCApwsvE1CushmE9te RkleTqOcSVtIgKOFt2F/wU02G9j6hlziYhrhTOpCAhwuvIVCustmIRSv7SYsp6vOpC8kwOnCWySj y2wWQVFKAF0xXXFGhfQvrhfeZCFdZzMZmlICqIqp1xkV0g3uF95EId1nMxGqUjogKKceZ1RId4RZ eBOEDJPNBChLCdheTK3OqJAKhFp4g4UMlc1gaEvpwMEYiQrJINzCGyhjuGwGQl9KwJZiqnVGhXRC 2IU3QMiw2QzARSkBy+fbapxRIT0h9MK7WEyhs7mIm1I6IBkjUSFVkGLhdQqZIptO3JUSsKSYznIp FtKXz9+GXoAQQtzz/efXh5992HAdQghRRLdsQgga9AlJCEGDCkkIQYMKSQhBw/8BNYjNYKtzY9QA AAAASUVORK5CYII= "
       id="image4266"
       x="0.86999285"
       y="-0.84265518"
       clip-path="url(#clipPath4272)"
       transform="translate(-1.5054997,1.2486429)" /><rect
       style="fill:#ffffff;stroke-width:1.1111"
       id="rect4276"
       width="62.24041"
       height="126.23351"
       x="0.89446586"
       y="127.16045" /><text
       xml:space="preserve"
       style="font-size:10.5833px;line-height:0.45;font-family:sans-serif;letter-spacing:0px;word-spacing:0px;white-space:pre;inline-size:51.3506;display:inline;stroke-width:0.264583"
       x="2.94558"
       y="98.355286"
       id="text4372"
       transform="translate(0.62315303,57.165723)"><tspan
         x="2.94558"
         y="98.355286"
         id="tspan666"><tspan
           style="font-size:3.52778px;font-family:Interval;-inkscape-font-specification:'Interval, Normal'"
           id="tspan664">Peter Westenberg &amp; Anna </tspan></tspan><tspan
         x="2.94558"
         y="103.39752"
         id="tspan670"><tspan
           style="font-size:3.52778px;font-family:Interval;-inkscape-font-specification:'Interval, Normal'"
           id="tspan668">Diop-Dubois &amp; Quentin </tspan></tspan><tspan
         x="2.94558"
         y="108.43975"
         id="tspan674"><tspan
           style="font-size:3.52778px;font-family:Interval;-inkscape-font-specification:'Interval, Normal'"
           id="tspan672">Jumelin &amp; Morgane Le </tspan></tspan><tspan
         x="2.94558"
         y="113.48197"
         id="tspan678"><tspan
           style="font-size:3.52778px;font-family:Interval;-inkscape-font-specification:'Interval, Normal'"
           id="tspan676">Ferec</tspan></tspan></text><text
       xml:space="preserve"
       style="font-size:12.8881px;line-height:0.75;font-family:sans-serif;letter-spacing:0px;word-spacing:0px;stroke-width:0.322202"
       x="3.4726033"
       y="136.75201"
       id="text4236"><tspan
         sodipodi:role="line"
         id="tspan4234"
         style="font-style:normal;font-variant:normal;font-weight:normal;font-stretch:normal;font-size:7.73287px;font-family:ocrpbi2;-inkscape-font-specification:'ocrpbi2, Normal';font-variant-ligatures:normal;font-variant-caps:normal;font-variant-numeric:normal;font-variant-east-asian:normal;stroke-width:0.322202"
         x="3.4726033"
         y="136.75201">Constant-V </tspan><tspan
         sodipodi:role="line"
         style="font-style:normal;font-variant:normal;font-weight:normal;font-stretch:normal;font-size:7.73287px;font-family:ocrpbi2;-inkscape-font-specification:'ocrpbi2, Normal';font-variant-ligatures:normal;font-variant-caps:normal;font-variant-numeric:normal;font-variant-east-asian:normal;stroke-width:0.322202"
         x="3.4726033"
         y="146.41809"
         id="tspan4240">catalogue</tspan></text><text
       xml:space="preserve"
       style="font-size:10.5833px;line-height:0.55;font-family:sans-serif;letter-spacing:0px;word-spacing:0px;white-space:pre;inline-size:57.5146;display:inline;stroke-width:0.264583"
       x="2.94558"
       y="98.355286"
       id="text4376"
       transform="translate(0.62315303,87.175484)"><tspan
         x="2.94558"
         y="98.355286"
         id="tspan684"><tspan
           style="font-size:3.52778px;font-family:ocrpbi2;-inkscape-font-specification:'ocrpbi2, Normal'"
           id="tspan680">Publisher :</tspan><tspan
           style="font-size:3.52778px;font-family:Interval;-inkscape-font-specification:'Interval, Normal'"
           id="tspan682"> 
</tspan></tspan><tspan
         x="2.94558"
         y="104.1761"
         id="tspan688"><tspan
           style="font-size:3.52778px;font-family:Interval;-inkscape-font-specification:'Interval, Normal'"
           id="tspan686">
</tspan></tspan><tspan
         x="2.94558"
         y="109.99692"
         id="tspan692"><tspan
           style="font-size:3.52778px;font-family:Interval;-inkscape-font-specification:'Interval, Normal'"
           id="tspan690">
</tspan></tspan><tspan
         x="2.94558"
         y="115.81773"
         id="tspan698"><tspan
           style="font-size:3.52778px;font-family:ocrpbi2;-inkscape-font-specification:'ocrpbi2, Normal'"
           id="tspan694">Published :</tspan><tspan
           style="font-size:3.52778px;font-family:Interval;-inkscape-font-specification:'Interval, Normal'"
           id="tspan696"> 
</tspan></tspan><tspan
         x="2.94558"
         y="121.63855"
         id="tspan702"><tspan
           style="font-size:3.52778px;font-family:Interval;-inkscape-font-specification:'Interval, Normal'"
           id="tspan700">
</tspan></tspan><tspan
         x="2.94558"
         y="127.45937"
         id="tspan706"><tspan
           style="font-size:3.52778px;font-family:ocrpbi2;-inkscape-font-specification:'ocrpbi2, Normal'"
           id="tspan704">
</tspan></tspan><tspan
         x="2.94558"
         y="133.28018"
         id="tspan710"><tspan
           style="font-size:3.52778px;font-family:Interval;-inkscape-font-specification:'Interval, Normal'"
           id="tspan708">
</tspan></tspan><tspan
         x="2.94558"
         y="139.10099"
         id="tspan714"><tspan
           style="font-size:3.52778px;font-family:Interval;-inkscape-font-specification:'Interval, Normal'"
           id="tspan712">
</tspan></tspan><tspan
         x="2.94558"
         y="144.92181"
         id="tspan718"><tspan
           style="font-size:3.52778px;font-family:Interval;-inkscape-font-specification:'Interval, Normal'"
           id="tspan716">- 
</tspan></tspan><tspan
         x="2.94558"
         y="150.74262"
         id="tspan722"><tspan
           style="font-size:3.52778px;font-family:Interval;-inkscape-font-specification:'Interval, Normal'"
           id="tspan720">- 
</tspan></tspan><tspan
         x="2.94558"
         y="156.56344"
         id="tspan726"><tspan
           style="font-size:3.52778px;font-family:Interval;-inkscape-font-specification:'Interval, Normal'"
           id="tspan724">- 
</tspan></tspan><tspan
         x="2.94558"
         y="162.38426"
         id="tspan730"><tspan
           style="font-size:3.52778px;font-family:Interval;-inkscape-font-specification:'Interval, Normal'"
           id="tspan728">- 
</tspan></tspan></text><text
       xml:space="preserve"
       style="font-size:10.5833px;line-height:1.25;font-family:sans-serif;letter-spacing:0px;word-spacing:0px;stroke-width:0.264583"
       x="-6.4581838"
       y="232.45963"
       id="text509"
       transform="rotate(-3.528332)"><tspan
         sodipodi:role="line"
         id="tspan507"
         style="font-style:normal;font-variant:normal;font-weight:normal;font-stretch:normal;font-size:3.52778px;font-family:Interval;-inkscape-font-specification:'Interval, Normal';font-variant-ligatures:normal;font-variant-caps:normal;font-variant-numeric:normal;font-variant-east-asian:normal;stroke-width:0.264583"
         x="-6.4581838"
         y="232.45963">Books with an attitude</tspan></text><text
       xml:space="preserve"
       style="font-size:10.5833px;line-height:1.25;font-family:sans-serif;letter-spacing:0px;word-spacing:0px;stroke-width:0.264583"
       x="-6.6854362"
       y="238.27602"
       id="text513"
       transform="rotate(-3.528332)"><tspan
         sodipodi:role="line"
         id="tspan511"
         style="font-style:normal;font-variant:normal;font-weight:normal;font-stretch:normal;font-size:3.52778px;font-family:Interval;-inkscape-font-specification:'Interval, Normal';font-variant-ligatures:normal;font-variant-caps:normal;font-variant-numeric:normal;font-variant-east-asian:normal;stroke-width:0.264583"
         x="-6.6854362"
         y="238.27602">About</tspan></text><text
       xml:space="preserve"
       style="font-size:10.5833px;line-height:1.25;font-family:sans-serif;letter-spacing:0px;word-spacing:0px;stroke-width:0.264583"
       x="-6.907876"
       y="243.96922"
       id="text517"
       transform="rotate(-3.528332)"><tspan
         sodipodi:role="line"
         id="tspan515"
         style="font-style:normal;font-variant:normal;font-weight:normal;font-stretch:normal;font-size:3.52778px;font-family:Interval;-inkscape-font-specification:'Interval, Normal';font-variant-ligatures:normal;font-variant-caps:normal;font-variant-numeric:normal;font-variant-east-asian:normal;stroke-width:0.264583"
         x="-6.907876"
         y="243.96922">Constant</tspan></text><text
       xml:space="preserve"
       style="font-size:10.5833px;line-height:1.25;font-family:sans-serif;letter-spacing:0px;word-spacing:0px;stroke-width:0.264583"
       x="-7.1323786"
       y="249.71524"
       id="text521"
       transform="rotate(-3.528332)"><tspan
         sodipodi:role="line"
         id="tspan519"
         style="font-style:normal;font-variant:normal;font-weight:normal;font-stretch:normal;font-size:3.52778px;font-family:Interval;-inkscape-font-specification:'Interval, Normal';font-variant-ligatures:normal;font-variant-caps:normal;font-variant-numeric:normal;font-variant-east-asian:normal;stroke-width:0.264583"
         x="-7.1323786"
         y="249.71524">Constant_V Projects</tspan></text><text
       xml:space="preserve"
       transform="matrix(0.26458333,0,0,0.26458333,0.84161942,0.40598772)"
       id="text523"
       style="font-family:sans-serif;font-size:40px;line-height:1.25;letter-spacing:0px;word-spacing:0px;white-space:pre;shape-inside:url(#rect525)" /><text
       xml:space="preserve"
       style="font-size:10.5833px;line-height:1.25;font-family:sans-serif;letter-spacing:0px;word-spacing:0px;stroke-width:0.264583"
       x="-5.0704918"
       y="209.95367"
       id="text531"
       transform="rotate(-3.528332)"><tspan
         sodipodi:role="line"
         id="tspan529"
         style="font-style:normal;font-variant:normal;font-weight:normal;font-stretch:normal;font-size:3.52778px;font-family:Interval;-inkscape-font-specification:'Interval, Normal';font-variant-ligatures:normal;font-variant-caps:normal;font-variant-numeric:normal;font-variant-east-asian:normal;stroke-width:0.264583"
         x="-5.0704918"
         y="209.95367">Jan 15, 2019</tspan></text><text
       xml:space="preserve"
       style="font-size:10.5833px;line-height:1.25;font-family:sans-serif;letter-spacing:0px;word-spacing:0px;stroke-width:0.264583"
       x="-3.9958115"
       y="192.52414"
       id="text535"
       transform="rotate(-3.528332)"><tspan
         sodipodi:role="line"
         id="tspan533"
         style="font-style:normal;font-variant:normal;font-weight:normal;font-stretch:normal;font-size:3.52778px;font-family:Interval;-inkscape-font-specification:'Interval, Normal';font-variant-ligatures:normal;font-variant-caps:normal;font-variant-numeric:normal;font-variant-east-asian:normal;stroke-width:0.264583"
         x="-3.9958115"
         y="192.52414">Constant</tspan></text><text
       xml:space="preserve"
       style="font-size:10.5833px;line-height:1.25;font-family:sans-serif;letter-spacing:0px;word-spacing:0px;stroke-width:0.264583"
       x="3.4982102"
       y="223.30598"
       id="text562"><tspan
         sodipodi:role="line"
         id="tspan560"
         style="font-style:normal;font-variant:normal;font-weight:normal;font-stretch:normal;font-size:3.52778px;font-family:ocrpbi2;-inkscape-font-specification:'ocrpbi2, Normal';font-variant-ligatures:normal;font-variant-caps:normal;font-variant-numeric:normal;font-variant-east-asian:normal;stroke-width:0.264583"
         x="3.4982102"
         y="223.30598">Category : </tspan></text></g></svg>
