<?xml version="1.0" encoding="UTF-8" standalone="no"?>
<!-- Created with Inkscape (http://www.inkscape.org/) -->

<svg
   width="165.4863mm"
   height="574.54199mm"
   viewBox="0 0 165.4863 574.542"
   version="1.1"
   id="svg38474"
   inkscape:version="1.2.2 (732a01da63, 2022-12-09, custom)"
   sodipodi:docname="bwaamap.svg"
   inkscape:export-filename="../31533597/bwaamap.png"
   inkscape:export-xdpi="96"
   inkscape:export-ydpi="96"
   xmlns:inkscape="http://www.inkscape.org/namespaces/inkscape"
   xmlns:sodipodi="http://sodipodi.sourceforge.net/DTD/sodipodi-0.dtd"
   xmlns="http://www.w3.org/2000/svg"
   xmlns:svg="http://www.w3.org/2000/svg">
  <sodipodi:namedview
     id="namedview38476"
     pagecolor="#ffffff"
     bordercolor="#eeeeee"
     borderopacity="1"
     inkscape:showpageshadow="0"
     inkscape:pageopacity="0"
     inkscape:pagecheckerboard="0"
     inkscape:deskcolor="#505050"
     inkscape:document-units="mm"
     showgrid="false"
     inkscape:zoom="0.70303571"
     inkscape:cx="258.16612"
     inkscape:cy="809.34722"
     inkscape:window-width="1920"
     inkscape:window-height="1043"
     inkscape:window-x="0"
     inkscape:window-y="0"
     inkscape:window-maximized="1"
     inkscape:current-layer="layer1"
     showguides="true">
    <sodipodi:guide
       position="164.2868,630.23191"
       orientation="0,-1"
       id="guide48210"
       inkscape:locked="false" />
  </sodipodi:namedview>
  <defs
     id="defs38471">
    <marker
       style="overflow:visible"
       id="Arrow1"
       refX="0"
       refY="0"
       orient="auto-start-reverse"
       inkscape:stockid="Arrow1"
       markerWidth="4.0606604"
       markerHeight="6.7071066"
       viewBox="0 0 4.0606602 6.7071068"
       inkscape:isstock="true"
       inkscape:collect="always"
       preserveAspectRatio="xMidYMid">
      <path
         style="fill:none;stroke:context-stroke;stroke-width:1;stroke-linecap:butt"
         d="M 3,-3 0,0 3,3"
         id="path5057"
         transform="rotate(180,0.125,0)"
         sodipodi:nodetypes="ccc" />
    </marker>
    <rect
       x="423.77365"
       y="351.00571"
       width="255.39384"
       height="209.50163"
       id="rect42130" />
  </defs>
  <g
     inkscape:label="Calque 1"
     inkscape:groupmode="layer"
     id="layer1"
     transform="translate(-4.20018,-18.728433)">
    <rect
       style="mix-blend-mode:multiply;fill:#ff8080;stroke:none;stroke-width:0.49709;stroke-opacity:1"
       id="rect50167"
       width="111.75726"
       height="7.2902427"
       x="47.513737"
       y="511.09772" />
    <rect
       style="mix-blend-mode:multiply;fill:#ff8080;stroke:none;stroke-width:0.488934;stroke-opacity:1"
       id="rect49337"
       width="108.12001"
       height="7.2902427"
       x="47.513737"
       y="413.82971" />
    <rect
       style="fill:#00ffff;stroke:none;stroke-width:0.253699;stroke-opacity:1"
       id="rect47218"
       width="52.386089"
       height="6.9006214"
       x="9.1405153"
       y="124.56398" />
    <text
       xml:space="preserve"
       transform="matrix(0.26458333,0,0,0.26458333,15.29403,3.6009087)"
       id="text42128"
       style="font-size:40px;line-height:1.25;font-family:sans-serif;letter-spacing:0px;word-spacing:0px;white-space:pre;shape-inside:url(#rect42130);display:inline" />
    <text
       xml:space="preserve"
       style="font-size:4.23333px;line-height:1.25;font-family:sans-serif;letter-spacing:0px;word-spacing:0px;white-space:pre;inline-size:64.0538;display:inline;stroke-width:0.264583"
       x="8.3032389"
       y="58.493359"
       id="text38597-7"
       transform="matrix(1.9657114,0,0,1.9657114,-11.862633,-36.228805)"><tspan
         x="8.3032389"
         y="58.493359"
         id="tspan5487"><tspan
           style="font-style:italic;font-family:C059;-inkscape-font-specification:'C059 Italic'"
           id="tspan5485">Books with an attitude</tspan></tspan></text>
    <text
       xml:space="preserve"
       style="font-size:4.23333px;line-height:1.25;font-family:sans-serif;letter-spacing:0px;word-spacing:0px;white-space:pre;inline-size:89.1362;display:inline;stroke-width:0.264583"
       x="30.149519"
       y="50.103973"
       id="text38648-8"
       transform="translate(-19.729386,53.58198)"><tspan
         x="30.149519"
         y="50.103973"
         id="tspan5491"><tspan
           style="font-family:interval;-inkscape-font-specification:interval"
           id="tspan5489">background:
</tspan></tspan><tspan
         x="30.149519"
         y="55.436976"
         id="tspan5495"><tspan
           style="font-family:interval;-inkscape-font-specification:interval"
           id="tspan5493"> 
</tspan></tspan><tspan
         x="30.149519"
         y="60.76998"
         id="tspan5499"><tspan
           style="font-family:interval;-inkscape-font-specification:interval"
           id="tspan5497">repeating-linear-gradient( 
</tspan></tspan><tspan
         x="30.149519"
         y="66.102984"
         id="tspan5503"><tspan
           style="font-family:interval;-inkscape-font-specification:interval"
           id="tspan5501"> </tspan></tspan></text>
    <g
       id="g39902-4"
       transform="translate(-13.60375,-0.50945587)">
      <rect
         style="fill:none;stroke:#000000;stroke-width:0.264999;stroke-opacity:1"
         id="rect38722-5"
         width="21.109352"
         height="28.99918"
         x="90.256081"
         y="19.370388" />
      <text
         xml:space="preserve"
         style="font-size:4.93889px;line-height:1.25;font-family:sans-serif;letter-spacing:0px;word-spacing:0px;stroke-width:0.264583"
         x="89.139282"
         y="55.735271"
         id="text39141-0"><tspan
           sodipodi:role="line"
           id="tspan39139-3"
           style="font-style:normal;font-variant:normal;font-weight:normal;font-stretch:normal;font-size:4.93889px;font-family:interval;-inkscape-font-specification:interval;stroke-width:0.264583"
           x="89.139282"
           y="55.735271">document</tspan></text>
    </g>
    <text
       xml:space="preserve"
       style="font-size:4.23333px;line-height:1.25;font-family:sans-serif;letter-spacing:0px;word-spacing:0px;stroke-width:0.264583"
       x="11.843423"
       y="232.15948"
       id="text39147-6"><tspan
         sodipodi:role="line"
         id="tspan39145-1"
         style="font-style:normal;font-variant:normal;font-weight:normal;font-stretch:normal;font-size:4.23333px;font-family:interval;-inkscape-font-specification:interval;stroke-width:0.264583"
         x="11.843423"
         y="232.15948"><tspan
           style="font-style:italic;font-variant:normal;font-weight:normal;font-stretch:normal;font-family:C059;-inkscape-font-specification:'C059 Italic'"
           id="tspan39143-0">GNU GPL  </tspan></tspan></text>
    <text
       xml:space="preserve"
       style="font-size:4.23333px;line-height:1.25;font-family:sans-serif;letter-spacing:0px;word-spacing:0px;stroke-width:0.264583"
       x="18.026335"
       y="68.523796"
       id="text39167-3"><tspan
         sodipodi:role="line"
         id="tspan39165-2"
         style="font-style:normal;font-variant:normal;font-weight:normal;font-stretch:normal;font-size:4.23333px;font-family:interval;-inkscape-font-specification:interval;stroke-width:0.264583"
         x="18.026335"
         y="68.523796">category</tspan></text>
    <text
       xml:space="preserve"
       style="font-size:4.23333px;line-height:1.25;font-family:sans-serif;letter-spacing:0px;word-spacing:0px;stroke-width:0.264583"
       x="18.186527"
       y="177.59972"
       id="text39897-0"><tspan
         sodipodi:role="line"
         id="tspan39895-6"
         style="font-style:normal;font-variant:normal;font-weight:normal;font-stretch:normal;font-size:4.23333px;font-family:interval;-inkscape-font-specification:interval;stroke-width:0.264583"
         x="18.186527"
         y="177.59972">license</tspan></text>
    <text
       xml:space="preserve"
       style="font-size:4.23333px;line-height:1.25;font-family:sans-serif;letter-spacing:0px;word-spacing:0px;stroke-width:0.264583"
       x="11.528226"
       y="242.37192"
       id="text42152-5"><tspan
         sodipodi:role="line"
         id="tspan42150-4"
         style="font-style:normal;font-variant:normal;font-weight:normal;font-stretch:normal;font-size:4.23333px;font-family:interval;-inkscape-font-specification:interval;stroke-width:0.264583"
         x="11.528226"
         y="242.37192"><tspan
           style="font-style:italic;font-variant:normal;font-weight:normal;font-stretch:normal;font-family:C059;-inkscape-font-specification:'C059 Italic'"
           id="tspan42148-7">CC BY-SA  </tspan></tspan></text>
    <text
       xml:space="preserve"
       style="font-size:4.23333px;line-height:1.25;font-family:sans-serif;letter-spacing:0px;word-spacing:0px;stroke-width:0.264583"
       x="11.469911"
       y="252.16528"
       id="text42908-6"><tspan
         sodipodi:role="line"
         id="tspan42906-9"
         style="font-style:normal;font-variant:normal;font-weight:normal;font-stretch:normal;font-size:4.23333px;font-family:interval;-inkscape-font-specification:interval;stroke-width:0.264583"
         x="11.469911"
         y="252.16528"><tspan
           style="font-style:italic;font-variant:normal;font-weight:normal;font-stretch:normal;font-family:C059;-inkscape-font-specification:'C059 Italic'"
           id="tspan42904-3">free art license  </tspan></tspan></text>
    <text
       xml:space="preserve"
       style="font-size:4.23333px;line-height:1.25;font-family:sans-serif;letter-spacing:0px;word-spacing:0px;stroke-width:0.264583"
       x="11.021734"
       y="344.35648"
       id="text43668-3"><tspan
         sodipodi:role="line"
         id="tspan43666-0"
         style="font-style:normal;font-variant:normal;font-weight:normal;font-stretch:normal;font-size:4.23333px;font-family:interval;-inkscape-font-specification:interval;stroke-width:0.264583"
         x="11.021734"
         y="344.35648"><tspan
           style="font-style:italic;font-variant:normal;font-weight:normal;font-stretch:normal;font-family:C059;-inkscape-font-specification:'C059 Italic'"
           id="tspan43664-7">one file</tspan></tspan></text>
    <text
       xml:space="preserve"
       style="font-size:4.23333px;line-height:1.25;font-family:sans-serif;letter-spacing:0px;word-spacing:0px;stroke-width:0.264583"
       x="10.987437"
       y="355.0744"
       id="text43997-6"><tspan
         sodipodi:role="line"
         id="tspan43995-6"
         style="font-style:normal;font-variant:normal;font-weight:normal;font-stretch:normal;font-size:4.23333px;font-family:interval;-inkscape-font-specification:interval;stroke-width:0.264583"
         x="10.987437"
         y="355.0744"><tspan
           style="font-style:italic;font-variant:normal;font-weight:normal;font-stretch:normal;font-family:C059;-inkscape-font-specification:'C059 Italic'"
           id="tspan43993-4">two files</tspan></tspan></text>
    <rect
       style="mix-blend-mode:multiply;fill:#ff8080;stroke:none;stroke-width:0.339977;stroke-opacity:1"
       id="rect47272"
       width="52.276302"
       height="7.2902427"
       x="9.1944351"
       y="117.13208" />
    <text
       xml:space="preserve"
       style="font-style:normal;font-variant:normal;font-weight:normal;font-stretch:normal;font-size:4.23333px;line-height:1.25;font-family:Interval;-inkscape-font-specification:'Interval, Normal';font-variant-ligatures:normal;font-variant-caps:normal;font-variant-numeric:normal;font-variant-east-asian:normal;letter-spacing:0px;word-spacing:0px;stroke-width:0.264583"
       x="10.461041"
       y="123.63245"
       id="text47417"><tspan
         sodipodi:role="line"
         id="tspan47415"
         style="font-style:normal;font-variant:normal;font-weight:normal;font-stretch:normal;font-size:4.23333px;font-family:Interval;-inkscape-font-specification:'Interval, Normal';font-variant-ligatures:normal;font-variant-caps:normal;font-variant-numeric:normal;font-variant-east-asian:normal;stroke-width:0.264583"
         x="10.461041"
         y="123.63245"> </tspan><tspan
         sodipodi:role="line"
         style="font-style:normal;font-variant:normal;font-weight:normal;font-stretch:normal;font-size:4.23333px;font-family:Interval;-inkscape-font-specification:'Interval, Normal';font-variant-ligatures:normal;font-variant-caps:normal;font-variant-numeric:normal;font-variant-east-asian:normal;stroke-width:0.264583"
         x="10.461041"
         y="128.9241"
         id="tspan47419">var(<tspan
   style="fill:#000080"
   id="tspan48566">--language</tspan>) 2px,</tspan></text>
    <text
       xml:space="preserve"
       style="font-style:normal;font-variant:normal;font-weight:normal;font-stretch:normal;font-size:4.23333px;line-height:1.25;font-family:Interval;-inkscape-font-specification:'Interval, Normal';font-variant-ligatures:normal;font-variant-caps:normal;font-variant-numeric:normal;font-variant-east-asian:normal;letter-spacing:0px;word-spacing:0px;stroke-width:0.264583"
       x="10.628102"
       y="135.79443"
       id="text47423"><tspan
         sodipodi:role="line"
         id="tspan47421"
         style="font-style:normal;font-variant:normal;font-weight:normal;font-stretch:normal;font-size:4.23333px;font-family:Interval;-inkscape-font-specification:'Interval, Normal';font-variant-ligatures:normal;font-variant-caps:normal;font-variant-numeric:normal;font-variant-east-asian:normal;stroke-width:0.264583"
         x="10.628102"
         y="135.79443">var(--white) 0px,</tspan></text>
    <text
       xml:space="preserve"
       style="font-style:normal;font-variant:normal;font-weight:normal;font-stretch:normal;font-size:4.23333px;line-height:1.25;font-family:Interval;-inkscape-font-specification:'Interval, Normal';font-variant-ligatures:normal;font-variant-caps:normal;font-variant-numeric:normal;font-variant-east-asian:normal;letter-spacing:0px;word-spacing:0px;stroke-width:0.264583"
       x="10.54588"
       y="142.67863"
       id="text47427"><tspan
         sodipodi:role="line"
         id="tspan47425"
         style="font-style:normal;font-variant:normal;font-weight:normal;font-stretch:normal;font-size:4.23333px;font-family:Interval;-inkscape-font-specification:'Interval, Normal';font-variant-ligatures:normal;font-variant-caps:normal;font-variant-numeric:normal;font-variant-east-asian:normal;stroke-width:0.264583"
         x="10.54588"
         y="142.67863">var(--white) 30px);</tspan></text>
    <rect
       style="fill:#ffff00;stroke:none;stroke-width:0.24768;stroke-opacity:1"
       id="rect47434"
       width="49.929718"
       height="6.9006214"
       x="9.3032122"
       y="137.73811" />
    <text
       xml:space="preserve"
       style="font-style:normal;font-variant:normal;font-weight:normal;font-stretch:normal;font-size:4.23333px;line-height:1.25;font-family:Interval;-inkscape-font-specification:'Interval, Normal';font-variant-ligatures:normal;font-variant-caps:normal;font-variant-numeric:normal;font-variant-east-asian:normal;letter-spacing:0px;word-spacing:0px;stroke-width:0.264583"
       x="10.54588"
       y="142.67863"
       id="text47438"><tspan
         sodipodi:role="line"
         id="tspan47436"
         style="font-style:normal;font-variant:normal;font-weight:normal;font-stretch:normal;font-size:4.23333px;font-family:Interval;-inkscape-font-specification:'Interval, Normal';font-variant-ligatures:normal;font-variant-caps:normal;font-variant-numeric:normal;font-variant-east-asian:normal;stroke-width:0.264583"
         x="10.54588"
         y="142.67863">var(--white) 30px);</tspan></text>
    <rect
       style="fill:#ffff00;stroke:none;stroke-width:0.32865;stroke-opacity:1"
       id="rect47444"
       width="87.911339"
       height="6.9006214"
       x="47.588123"
       y="237.51054" />
    <text
       xml:space="preserve"
       style="font-style:normal;font-variant:normal;font-weight:normal;font-stretch:normal;font-size:4.23333px;line-height:1.25;font-family:Interval;-inkscape-font-specification:'Interval, Normal';font-variant-ligatures:normal;font-variant-caps:normal;font-variant-numeric:normal;font-variant-east-asian:normal;letter-spacing:0px;word-spacing:0px;stroke-width:0.264583"
       x="48.341236"
       y="242.45102"
       id="text47448"><tspan
         sodipodi:role="line"
         id="tspan47446"
         style="font-style:normal;font-variant:normal;font-weight:normal;font-stretch:normal;font-size:4.23333px;font-family:Interval;-inkscape-font-specification:'Interval, Normal';font-variant-ligatures:normal;font-variant-caps:normal;font-variant-numeric:normal;font-variant-east-asian:normal;stroke-width:0.264583"
         x="48.341236"
         y="242.45102">var(--white) var(--bwaa-cc-by-sa);</tspan></text>
    <rect
       style="fill:#ffff00;stroke:none;stroke-width:0.327412;stroke-opacity:1"
       id="rect48058"
       width="87.249985"
       height="6.9006214"
       x="47.61187"
       y="227.31853" />
    <text
       xml:space="preserve"
       style="font-style:normal;font-variant:normal;font-weight:normal;font-stretch:normal;font-size:4.23333px;line-height:1.25;font-family:Interval;-inkscape-font-specification:'Interval, Normal';font-variant-ligatures:normal;font-variant-caps:normal;font-variant-numeric:normal;font-variant-east-asian:normal;letter-spacing:0px;word-spacing:0px;stroke-width:0.264583"
       x="48.364983"
       y="232.25902"
       id="text48062"><tspan
         sodipodi:role="line"
         id="tspan48060"
         style="font-style:normal;font-variant:normal;font-weight:normal;font-stretch:normal;font-size:4.23333px;font-family:Interval;-inkscape-font-specification:'Interval, Normal';font-variant-ligatures:normal;font-variant-caps:normal;font-variant-numeric:normal;font-variant-east-asian:normal;stroke-width:0.264583"
         x="48.364983"
         y="232.25902">var(--white) var(--bwaa-gnu-gpl);</tspan></text>
    <rect
       style="fill:#ffff00;stroke:none;stroke-width:0.305912;stroke-opacity:1"
       id="rect48064"
       width="76.167725"
       height="6.9006214"
       x="47.217304"
       y="247.39828" />
    <text
       xml:space="preserve"
       style="font-style:normal;font-variant:normal;font-weight:normal;font-stretch:normal;font-size:4.23333px;line-height:1.25;font-family:Interval;-inkscape-font-specification:'Interval, Normal';font-variant-ligatures:normal;font-variant-caps:normal;font-variant-numeric:normal;font-variant-east-asian:normal;letter-spacing:0px;word-spacing:0px;stroke-width:0.264583"
       x="47.970417"
       y="252.33876"
       id="text48068"><tspan
         sodipodi:role="line"
         id="tspan48066"
         style="font-style:normal;font-variant:normal;font-weight:normal;font-stretch:normal;font-size:4.23333px;font-family:Interval;-inkscape-font-specification:'Interval, Normal';font-variant-ligatures:normal;font-variant-caps:normal;font-variant-numeric:normal;font-variant-east-asian:normal;stroke-width:0.264583"
         x="47.970417"
         y="252.33876">var(--white) var(--bwaa-fal);</tspan></text>
    <rect
       style="fill:#00ffff;stroke:none;stroke-width:0.342374;stroke-opacity:1"
       id="rect48078"
       width="95.406921"
       height="6.9006214"
       x="47.512615"
       y="340.36261" />
    <text
       xml:space="preserve"
       style="font-style:normal;font-variant:normal;font-weight:normal;font-stretch:normal;font-size:4.23333px;line-height:1.25;font-family:Interval;-inkscape-font-specification:'Interval, Normal';font-variant-ligatures:normal;font-variant-caps:normal;font-variant-numeric:normal;font-variant-east-asian:normal;letter-spacing:0px;word-spacing:0px;stroke-width:0.264583"
       x="48.833141"
       y="339.43109"
       id="text48084"><tspan
         sodipodi:role="line"
         id="tspan48080"
         style="font-style:normal;font-variant:normal;font-weight:normal;font-stretch:normal;font-size:4.23333px;font-family:Interval;-inkscape-font-specification:'Interval, Normal';font-variant-ligatures:normal;font-variant-caps:normal;font-variant-numeric:normal;font-variant-east-asian:normal;stroke-width:0.264583"
         x="48.833141"
         y="339.43109"> </tspan><tspan
         sodipodi:role="line"
         style="font-style:normal;font-variant:normal;font-weight:normal;font-stretch:normal;font-size:4.23333px;font-family:Interval;-inkscape-font-specification:'Interval, Normal';font-variant-ligatures:normal;font-variant-caps:normal;font-variant-numeric:normal;font-variant-east-asian:normal;stroke-width:0.264583"
         x="48.833141"
         y="344.72275"
         id="tspan48082">var(--language) var(--bwaa-one-file),</tspan></text>
    <rect
       style="fill:#00ffff;stroke:none;stroke-width:0.348037;stroke-opacity:1"
       id="rect48086"
       width="98.588943"
       height="6.9006214"
       x="47.684689"
       y="350.28043" />
    <text
       xml:space="preserve"
       style="font-style:normal;font-variant:normal;font-weight:normal;font-stretch:normal;font-size:4.23333px;line-height:1.25;font-family:Interval;-inkscape-font-specification:'Interval, Normal';font-variant-ligatures:normal;font-variant-caps:normal;font-variant-numeric:normal;font-variant-east-asian:normal;letter-spacing:0px;word-spacing:0px;stroke-width:0.264583"
       x="49.005215"
       y="349.34891"
       id="text48092"><tspan
         sodipodi:role="line"
         id="tspan48088"
         style="font-style:normal;font-variant:normal;font-weight:normal;font-stretch:normal;font-size:4.23333px;font-family:Interval;-inkscape-font-specification:'Interval, Normal';font-variant-ligatures:normal;font-variant-caps:normal;font-variant-numeric:normal;font-variant-east-asian:normal;stroke-width:0.264583"
         x="49.005215"
         y="349.34891"> </tspan><tspan
         sodipodi:role="line"
         style="font-style:normal;font-variant:normal;font-weight:normal;font-stretch:normal;font-size:4.23333px;font-family:Interval;-inkscape-font-specification:'Interval, Normal';font-variant-ligatures:normal;font-variant-caps:normal;font-variant-numeric:normal;font-variant-east-asian:normal;stroke-width:0.264583"
         x="49.005215"
         y="354.64056"
         id="tspan48090">var(--language) var(--bwaa-two-files),</tspan></text>
    <text
       xml:space="preserve"
       style="font-size:4.23333px;line-height:1.25;font-family:sans-serif;letter-spacing:0px;word-spacing:0px;stroke-width:0.264583"
       x="10.984322"
       y="365.2399"
       id="text48098"><tspan
         sodipodi:role="line"
         id="tspan48096"
         style="font-style:normal;font-variant:normal;font-weight:normal;font-stretch:normal;font-size:4.23333px;font-family:interval;-inkscape-font-specification:interval;stroke-width:0.264583"
         x="10.984322"
         y="365.2399"><tspan
           style="font-style:italic;font-variant:normal;font-weight:normal;font-stretch:normal;font-family:C059;-inkscape-font-specification:'C059 Italic'"
           id="tspan48094">three files</tspan></tspan></text>
    <rect
       style="fill:#00ffff;stroke:none;stroke-width:0.359202;stroke-opacity:1"
       id="rect48100"
       width="105.01618"
       height="6.9006214"
       x="47.339951"
       y="360.26291" />
    <text
       xml:space="preserve"
       style="font-style:normal;font-variant:normal;font-weight:normal;font-stretch:normal;font-size:4.23333px;line-height:1.25;font-family:Interval;-inkscape-font-specification:'Interval, Normal';font-variant-ligatures:normal;font-variant-caps:normal;font-variant-numeric:normal;font-variant-east-asian:normal;letter-spacing:0px;word-spacing:0px;stroke-width:0.264583"
       x="48.660477"
       y="359.33139"
       id="text48106"><tspan
         sodipodi:role="line"
         id="tspan48102"
         style="font-style:normal;font-variant:normal;font-weight:normal;font-stretch:normal;font-size:4.23333px;font-family:Interval;-inkscape-font-specification:'Interval, Normal';font-variant-ligatures:normal;font-variant-caps:normal;font-variant-numeric:normal;font-variant-east-asian:normal;stroke-width:0.264583"
         x="48.660477"
         y="359.33139"> </tspan><tspan
         sodipodi:role="line"
         style="font-style:normal;font-variant:normal;font-weight:normal;font-stretch:normal;font-size:4.23333px;font-family:Interval;-inkscape-font-specification:'Interval, Normal';font-variant-ligatures:normal;font-variant-caps:normal;font-variant-numeric:normal;font-variant-east-asian:normal;stroke-width:0.264583"
         x="48.660477"
         y="364.62305"
         id="tspan48104">var(--language) var(--bwaa-three-files),</tspan></text>
    <text
       xml:space="preserve"
       style="font-size:4.23333px;line-height:1.25;font-family:sans-serif;letter-spacing:0px;word-spacing:0px;stroke-width:0.264583"
       x="11.142828"
       y="374.79407"
       id="text48112"><tspan
         sodipodi:role="line"
         id="tspan48110"
         style="font-style:normal;font-variant:normal;font-weight:normal;font-stretch:normal;font-size:4.23333px;font-family:interval;-inkscape-font-specification:interval;stroke-width:0.264583"
         x="11.142828"
         y="374.79407"><tspan
           style="font-style:italic;font-variant:normal;font-weight:normal;font-stretch:normal;font-family:C059;-inkscape-font-specification:'C059 Italic'"
           id="tspan48108">four files</tspan></tspan></text>
    <rect
       style="fill:#00ffff;stroke:none;stroke-width:0.359202;stroke-opacity:1"
       id="rect48114"
       width="105.01618"
       height="6.9006214"
       x="47.704777"
       y="370.37167" />
    <text
       xml:space="preserve"
       style="font-style:normal;font-variant:normal;font-weight:normal;font-stretch:normal;font-size:4.23333px;line-height:1.25;font-family:Interval;-inkscape-font-specification:'Interval, Normal';font-variant-ligatures:normal;font-variant-caps:normal;font-variant-numeric:normal;font-variant-east-asian:normal;letter-spacing:0px;word-spacing:0px;stroke-width:0.264583"
       x="49.025303"
       y="369.44016"
       id="text48120"><tspan
         sodipodi:role="line"
         id="tspan48116"
         style="font-style:normal;font-variant:normal;font-weight:normal;font-stretch:normal;font-size:4.23333px;font-family:Interval;-inkscape-font-specification:'Interval, Normal';font-variant-ligatures:normal;font-variant-caps:normal;font-variant-numeric:normal;font-variant-east-asian:normal;stroke-width:0.264583"
         x="49.025303"
         y="369.44016"> </tspan><tspan
         sodipodi:role="line"
         style="font-style:normal;font-variant:normal;font-weight:normal;font-stretch:normal;font-size:4.23333px;font-family:Interval;-inkscape-font-specification:'Interval, Normal';font-variant-ligatures:normal;font-variant-caps:normal;font-variant-numeric:normal;font-variant-east-asian:normal;stroke-width:0.264583"
         x="49.025303"
         y="374.73181"
         id="tspan48118">var(--language) var(--bwaa-four-files),</tspan></text>
    <text
       xml:space="preserve"
       style="font-size:4.23333px;line-height:1.25;font-family:sans-serif;letter-spacing:0px;word-spacing:0px;stroke-width:0.264583"
       x="11.003858"
       y="411.73801"
       id="text48130"><tspan
         sodipodi:role="line"
         id="tspan48128"
         style="font-style:normal;font-variant:normal;font-weight:normal;font-stretch:normal;font-size:4.23333px;font-family:interval;-inkscape-font-specification:interval;stroke-width:0.264583"
         x="11.003858"
         y="411.73801"><tspan
           style="font-style:italic;font-variant:normal;font-weight:normal;font-stretch:normal;font-family:C059;-inkscape-font-specification:'C059 Italic'"
           id="tspan48126">one </tspan></tspan></text>
    <text
       xml:space="preserve"
       style="font-size:4.23333px;line-height:1.25;font-family:sans-serif;letter-spacing:0px;word-spacing:0px;white-space:pre;inline-size:125.04;display:inline;stroke-width:0.264583"
       x="30.149519"
       y="50.103973"
       id="text48158"
       transform="translate(18.347453,386.3374)"><tspan
         x="30.149519"
         y="50.103973"
         id="tspan5507"><tspan
           style="font-family:interval;-inkscape-font-specification:interval"
           id="tspan5505"> 
</tspan></tspan><tspan
         x="30.149519"
         y="55.436976"
         id="tspan5511"><tspan
           style="font-family:interval;-inkscape-font-specification:interval"
           id="tspan5509">var(--language) var(--bwaa-two-languages),</tspan></tspan></text>
    <text
       xml:space="preserve"
       style="font-size:4.23333px;line-height:1.25;font-family:sans-serif;letter-spacing:0px;word-spacing:0px;stroke-width:0.264583"
       x="11.01944"
       y="432.97754"
       id="text48164"><tspan
         sodipodi:role="line"
         id="tspan48162"
         style="font-style:normal;font-variant:normal;font-weight:normal;font-stretch:normal;font-size:4.23333px;font-family:interval;-inkscape-font-specification:interval;stroke-width:0.264583"
         x="11.01944"
         y="432.97754"><tspan
           style="font-style:italic;font-variant:normal;font-weight:normal;font-stretch:normal;font-family:C059;-inkscape-font-specification:'C059 Italic'"
           id="tspan48160">two </tspan></tspan></text>
    <text
       xml:space="preserve"
       style="font-size:4.23333px;line-height:1.25;font-family:sans-serif;letter-spacing:0px;word-spacing:0px;white-space:pre;inline-size:125.04;display:inline;stroke-width:0.264583"
       x="30.149519"
       y="50.103973"
       id="text48168"
       transform="translate(-19.958596,66.485469)"><tspan
         x="30.149519"
         y="50.103973"
         id="tspan5515"><tspan
           style="font-family:interval;-inkscape-font-specification:interval"
           id="tspan5513"> 
</tspan></tspan><tspan
         x="30.149519"
         y="55.436976"
         id="tspan5523"><tspan
           style="font-family:interval;-inkscape-font-specification:interval"
           id="tspan5517">var(</tspan><tspan
           style="fill:#000080"
           id="tspan5519">--language</tspan><tspan
           style="font-family:interval;-inkscape-font-specification:interval"
           id="tspan5521">),</tspan></tspan></text>
    <text
       xml:space="preserve"
       style="font-size:4.23333px;line-height:1.25;font-family:sans-serif;letter-spacing:0px;word-spacing:0px;white-space:pre;inline-size:125.04;display:inline;stroke-width:0.264583"
       x="30.149519"
       y="50.103973"
       id="text48172"
       transform="translate(18.228943,415.36736)"><tspan
         x="30.149519"
         y="50.103973"
         id="tspan5527"><tspan
           style="font-family:interval;-inkscape-font-specification:interval"
           id="tspan5525"> 
</tspan></tspan><tspan
         x="30.149519"
         y="55.436976"
         id="tspan5531"><tspan
           style="font-family:interval;-inkscape-font-specification:interval"
           id="tspan5529">var(--language) var(--bwaa-three-languages),</tspan></tspan></text>
    <text
       xml:space="preserve"
       style="font-size:4.23333px;line-height:1.25;font-family:sans-serif;letter-spacing:0px;word-spacing:0px;stroke-width:0.264583"
       x="11.079527"
       y="462.35443"
       id="text48178"><tspan
         sodipodi:role="line"
         id="tspan48176"
         style="font-style:normal;font-variant:normal;font-weight:normal;font-stretch:normal;font-size:4.23333px;font-family:interval;-inkscape-font-specification:interval;stroke-width:0.264583"
         x="11.079527"
         y="462.35443"><tspan
           style="font-style:italic;font-variant:normal;font-weight:normal;font-stretch:normal;font-family:C059;-inkscape-font-specification:'C059 Italic'"
           id="tspan48174">three</tspan></tspan></text>
    <text
       xml:space="preserve"
       style="font-size:4.23333px;line-height:1.25;font-family:sans-serif;letter-spacing:0px;word-spacing:0px;white-space:pre;inline-size:125.04;display:inline;stroke-width:0.264583"
       x="30.149519"
       y="50.103973"
       id="text48182"
       transform="translate(18.371135,437.68363)"><tspan
         x="30.149519"
         y="50.103973"
         id="tspan5535"><tspan
           style="font-family:interval;-inkscape-font-specification:interval"
           id="tspan5533"> 
</tspan></tspan><tspan
         x="30.149519"
         y="55.436976"
         id="tspan5539"><tspan
           style="font-family:interval;-inkscape-font-specification:interval"
           id="tspan5537">var(--language) var(--bwaa-four-languages),</tspan></tspan></text>
    <text
       xml:space="preserve"
       style="font-size:4.23333px;line-height:1.25;font-family:sans-serif;letter-spacing:0px;word-spacing:0px;stroke-width:0.264583"
       x="10.962157"
       y="485.33398"
       id="text48188"><tspan
         sodipodi:role="line"
         id="tspan48186"
         style="font-style:normal;font-variant:normal;font-weight:normal;font-stretch:normal;font-size:4.23333px;font-family:interval;-inkscape-font-specification:interval;stroke-width:0.264583"
         x="10.962157"
         y="485.33398"><tspan
           style="font-style:italic;font-variant:normal;font-weight:normal;font-stretch:normal;font-family:C059;-inkscape-font-specification:'C059 Italic'"
           id="tspan48184">four</tspan></tspan></text>
    <text
       xml:space="preserve"
       style="font-size:4.23333px;line-height:1.25;font-family:sans-serif;letter-spacing:0px;word-spacing:0px;stroke-width:0.264583"
       x="83.81765"
       y="121.66784"
       id="text48192"><tspan
         sodipodi:role="line"
         id="tspan48190"
         style="font-style:normal;font-variant:normal;font-weight:normal;font-stretch:normal;font-size:4.23333px;font-family:interval;-inkscape-font-specification:interval;stroke-width:0.264583"
         x="83.81765"
         y="121.66784">color (language)</tspan></text>
    <text
       xml:space="preserve"
       style="font-size:4.23333px;line-height:1.25;font-family:sans-serif;letter-spacing:0px;word-spacing:0px;stroke-width:0.264583"
       x="83.81765"
       y="129.07619"
       id="text48196"><tspan
         sodipodi:role="line"
         id="tspan48194"
         style="font-style:normal;font-variant:normal;font-weight:normal;font-stretch:normal;font-size:4.23333px;font-family:interval;-inkscape-font-specification:interval;stroke-width:0.264583"
         x="83.81765"
         y="129.07619">color + thickness (files number)</tspan></text>
    <text
       xml:space="preserve"
       style="font-size:4.23333px;line-height:1.25;font-family:sans-serif;letter-spacing:0px;word-spacing:0px;stroke-width:0.264583"
       x="83.81765"
       y="142.554"
       id="text48200"><tspan
         sodipodi:role="line"
         id="tspan48198"
         style="font-style:normal;font-variant:normal;font-weight:normal;font-stretch:normal;font-size:4.23333px;font-family:interval;-inkscape-font-specification:interval;stroke-width:0.264583"
         x="83.81765"
         y="142.554">density (license)</tspan></text>
    <text
       xml:space="preserve"
       style="font-size:10.5833px;line-height:1.25;font-family:sans-serif;letter-spacing:0px;word-spacing:0px;stroke-width:0.264583"
       x="3.9714601"
       y="68.634033"
       id="text48204"><tspan
         sodipodi:role="line"
         id="tspan48202"
         style="stroke-width:0.264583"
         x="3.9714601"
         y="68.634033">1.</tspan></text>
    <text
       xml:space="preserve"
       style="font-size:10.5833px;line-height:1.25;font-family:sans-serif;letter-spacing:0px;word-spacing:0px;stroke-width:0.264583"
       x="4.5264206"
       y="177.93222"
       id="text48208"><tspan
         sodipodi:role="line"
         id="tspan48206"
         style="stroke-width:0.264583"
         x="4.5264206"
         y="177.93222">2.</tspan></text>
    <path
       style="fill:none;stroke:#000000;stroke-width:0.264583px;stroke-linecap:butt;stroke-linejoin:miter;stroke-opacity:1"
       d="m 51.714224,120.96906 h 30.34348"
       id="path48212" />
    <path
       style="fill:none;stroke:#000000;stroke-width:0.264583px;stroke-linecap:butt;stroke-linejoin:miter;stroke-opacity:1"
       d="m 63.188314,127.18314 h 17.40738"
       id="path48214" />
    <path
       style="fill:none;stroke:#000000;stroke-width:0.264583px;stroke-linecap:butt;stroke-linejoin:miter;stroke-opacity:1"
       d="m 60.797204,141.43939 h 20.31156"
       id="path48216" />
    <path
       style="fill:none;stroke:#000000;stroke-width:0.157;stroke-linecap:butt;stroke-linejoin:miter;stroke-dasharray:none;stroke-opacity:1"
       d="M 169.68647,109.39419 H 5.6948307 v 37.92958 H 169.40282"
       id="path48270"
       sodipodi:nodetypes="cccc" />
    <text
       xml:space="preserve"
       style="font-size:4.23333px;line-height:1.25;font-family:sans-serif;letter-spacing:0px;word-spacing:0px;stroke-width:0.264583"
       x="18.186527"
       y="332.49716"
       id="text48274"><tspan
         sodipodi:role="line"
         id="tspan48272"
         style="font-style:normal;font-variant:normal;font-weight:normal;font-stretch:normal;font-size:4.23333px;font-family:interval;-inkscape-font-specification:interval;stroke-width:0.264583"
         x="18.186527"
         y="332.49716">files number</tspan></text>
    <text
       xml:space="preserve"
       style="font-size:10.5833px;line-height:1.25;font-family:sans-serif;letter-spacing:0px;word-spacing:0px;stroke-width:0.264583"
       x="4.5264206"
       y="332.82968"
       id="text48278"><tspan
         sodipodi:role="line"
         id="tspan48276"
         style="stroke-width:0.264583"
         x="4.5264206"
         y="332.82968">3.</tspan></text>
    <text
       xml:space="preserve"
       style="font-size:4.23333px;line-height:1.25;font-family:sans-serif;letter-spacing:0px;word-spacing:0px;stroke-width:0.264583"
       x="18.186527"
       y="397.9487"
       id="text48282"><tspan
         sodipodi:role="line"
         id="tspan48280"
         style="font-style:normal;font-variant:normal;font-weight:normal;font-stretch:normal;font-size:4.23333px;font-family:interval;-inkscape-font-specification:interval;stroke-width:0.264583"
         x="18.186527"
         y="397.9487">languages number (rotation)</tspan></text>
    <text
       xml:space="preserve"
       style="font-size:10.5833px;line-height:1.25;font-family:sans-serif;letter-spacing:0px;word-spacing:0px;stroke-width:0.264583"
       x="4.5264206"
       y="398.28119"
       id="text48286"><tspan
         sodipodi:role="line"
         id="tspan48284"
         style="stroke-width:0.264583"
         x="4.5264206"
         y="398.28119">4.</tspan></text>
    <text
       xml:space="preserve"
       style="font-size:4.23333px;line-height:1.25;font-family:sans-serif;letter-spacing:0px;word-spacing:0px;stroke-width:0.264583"
       x="23.586161"
       y="155.89952"
       id="text48339"><tspan
         sodipodi:role="line"
         id="tspan48337"
         style="font-style:normal;font-variant:normal;font-weight:normal;font-stretch:normal;font-size:4.23333px;font-family:interval;-inkscape-font-specification:interval;stroke-width:0.264583"
         x="23.586161"
         y="155.89952">one language</tspan></text>
    <path
       style="fill:none;stroke:#000000;stroke-width:0.165;stroke-linecap:butt;stroke-linejoin:miter;stroke-dasharray:none;stroke-opacity:1;marker-end:url(#Arrow1)"
       d="m 15.537424,147.49723 v 7.29388 h 6.607338"
       id="path48341" />
    <text
       xml:space="preserve"
       style="font-size:4.23333px;line-height:1.25;font-family:sans-serif;letter-spacing:0px;word-spacing:0px;white-space:pre;inline-size:125.04;display:inline;stroke-width:0.264583"
       x="30.149519"
       y="50.103973"
       id="text48562"
       transform="translate(18.347453,383.44084)"><tspan
         x="30.149519"
         y="50.103973"
         id="tspan5543"><tspan
           style="font-family:interval;-inkscape-font-specification:interval"
           id="tspan5541">1+1 repeating-linear-gradient</tspan></tspan></text>
    <rect
       style="mix-blend-mode:multiply;fill:#ff8080;stroke:none;stroke-width:0.488934;stroke-opacity:1"
       id="rect47272-3"
       width="108.12001"
       height="7.2902427"
       x="47.513737"
       y="436.93134" />
    <text
       xml:space="preserve"
       style="font-size:4.23333px;line-height:1.25;font-family:sans-serif;letter-spacing:0px;word-spacing:0px;white-space:pre;inline-size:125.04;display:inline;stroke-width:0.264583"
       x="30.149519"
       y="50.103973"
       id="text49335"
       transform="translate(18.347453,363.23578)"><tspan
         x="30.149519"
         y="50.103973"
         id="tspan5547"><tspan
           style="font-family:interval;-inkscape-font-specification:interval"
           id="tspan5545"> 
</tspan></tspan><tspan
         x="30.149519"
         y="55.436976"
         id="tspan5551"><tspan
           style="font-family:interval;-inkscape-font-specification:interval"
           id="tspan5549">var(--language) var(--bwaa-one-language),</tspan></tspan></text>
    <text
       xml:space="preserve"
       style="font-size:4.23333px;line-height:1.25;font-family:sans-serif;letter-spacing:0px;word-spacing:0px;white-space:pre;inline-size:125.04;display:inline;stroke-width:0.264583"
       x="30.149519"
       y="50.103973"
       id="text50137"
       transform="translate(18.347453,412.54306)"><tspan
         x="30.149519"
         y="50.103973"
         id="tspan5555"><tspan
           style="font-family:interval;-inkscape-font-specification:interval"
           id="tspan5553">2+1 repeating-linear-gradient</tspan></tspan></text>
    <rect
       style="mix-blend-mode:multiply;fill:#ff8080;stroke:none;stroke-width:0.502272;stroke-opacity:1"
       id="rect50139"
       width="114.09929"
       height="7.2902427"
       x="47.513737"
       y="466.13873" />
    <text
       xml:space="preserve"
       style="font-size:4.23333px;line-height:1.25;font-family:sans-serif;letter-spacing:0px;word-spacing:0px;white-space:pre;inline-size:125.04;display:inline;stroke-width:0.264583"
       x="30.149519"
       y="50.103973"
       id="text50143"
       transform="translate(18.347453,434.91443)"><tspan
         x="30.149519"
         y="50.103973"
         id="tspan5559"><tspan
           style="font-family:interval;-inkscape-font-specification:interval"
           id="tspan5557">3+1 repeating-linear-gradient</tspan></tspan></text>
    <rect
       style="mix-blend-mode:multiply;fill:#ff8080;stroke:none;stroke-width:0.497171;stroke-opacity:1"
       id="rect50145"
       width="111.79365"
       height="7.2902427"
       x="47.513737"
       y="488.51013" />
    <text
       xml:space="preserve"
       style="font-size:4.23333px;line-height:1.25;font-family:sans-serif;letter-spacing:0px;word-spacing:0px;white-space:pre;inline-size:125.04;display:inline;stroke-width:0.264583"
       x="30.149519"
       y="50.103973"
       id="text50155"
       transform="translate(18.371135,460.27122)"><tspan
         x="30.149519"
         y="50.103973"
         id="tspan5563"><tspan
           style="font-family:interval;-inkscape-font-specification:interval"
           id="tspan5561"> 
</tspan></tspan><tspan
         x="30.149519"
         y="55.436976"
         id="tspan5567"><tspan
           style="font-family:interval;-inkscape-font-specification:interval"
           id="tspan5565">var(--language) var(--bwaa-five-languages),</tspan></tspan></text>
    <text
       xml:space="preserve"
       style="font-size:4.23333px;line-height:1.25;font-family:sans-serif;letter-spacing:0px;word-spacing:0px;stroke-width:0.264583"
       x="10.962157"
       y="507.92157"
       id="text50161"><tspan
         sodipodi:role="line"
         id="tspan50159"
         style="font-style:normal;font-variant:normal;font-weight:normal;font-stretch:normal;font-size:4.23333px;font-family:interval;-inkscape-font-specification:interval;stroke-width:0.264583"
         x="10.962157"
         y="507.92157"><tspan
           style="font-style:italic;font-variant:normal;font-weight:normal;font-stretch:normal;font-family:C059;-inkscape-font-specification:'C059 Italic'"
           id="tspan50157">five</tspan></tspan></text>
    <text
       xml:space="preserve"
       style="font-size:4.23333px;line-height:1.25;font-family:sans-serif;letter-spacing:0px;word-spacing:0px;white-space:pre;inline-size:125.04;display:inline;stroke-width:0.264583"
       x="30.149519"
       y="50.103973"
       id="text50165"
       transform="translate(18.347453,457.50202)"><tspan
         x="30.149519"
         y="50.103973"
         id="tspan5571"><tspan
           style="font-family:interval;-inkscape-font-specification:interval"
           id="tspan5569">4+1 repeating-linear-gradient</tspan></tspan></text>
    <text
       xml:space="preserve"
       style="font-size:4.23333px;line-height:1.25;font-family:sans-serif;letter-spacing:0px;word-spacing:0px;white-space:pre;inline-size:125.04;display:inline;stroke-width:0.264583"
       x="30.149519"
       y="50.103973"
       id="text50171"
       transform="translate(18.347453,361.82104)"><tspan
         x="30.149519"
         y="50.103973"
         id="tspan5575"><tspan
           style="font-family:interval;-inkscape-font-specification:interval"
           id="tspan5573">1 repeating-linear-gradient</tspan></tspan></text>
    <text
       xml:space="preserve"
       style="font-size:4.23333px;line-height:1.25;font-family:sans-serif;letter-spacing:0px;word-spacing:0px;stroke-width:0.264583"
       x="18.186527"
       y="535.99817"
       id="text50177"><tspan
         sodipodi:role="line"
         id="tspan50175"
         style="font-style:normal;font-variant:normal;font-weight:normal;font-stretch:normal;font-size:4.23333px;font-family:interval;-inkscape-font-specification:interval;stroke-width:0.264583"
         x="18.186527"
         y="535.99817">languages </tspan></text>
    <text
       xml:space="preserve"
       style="font-size:10.5833px;line-height:1.25;font-family:sans-serif;letter-spacing:0px;word-spacing:0px;stroke-width:0.264583"
       x="4.5264206"
       y="536.33069"
       id="text50181"><tspan
         sodipodi:role="line"
         id="tspan50179"
         style="stroke-width:0.264583"
         x="4.5264206"
         y="536.33069">4.</tspan></text>
    <text
       xml:space="preserve"
       style="font-size:4.23333px;line-height:1.25;font-family:sans-serif;letter-spacing:0px;word-spacing:0px;stroke-width:0.264583"
       x="11.003858"
       y="553.01312"
       id="text50187"><tspan
         sodipodi:role="line"
         id="tspan50185"
         style="font-style:normal;font-variant:normal;font-weight:normal;font-stretch:normal;font-size:4.23333px;font-family:interval;-inkscape-font-specification:interval;stroke-width:0.264583"
         x="11.003858"
         y="553.01312"><tspan
           style="font-style:italic;font-variant:normal;font-weight:normal;font-stretch:normal;font-family:C059;-inkscape-font-specification:'C059 Italic'"
           id="tspan50183">english</tspan></tspan></text>
    <text
       xml:space="preserve"
       style="font-size:4.23333px;line-height:1.25;font-family:sans-serif;letter-spacing:0px;word-spacing:0px;stroke-width:0.264583"
       x="11.01944"
       y="563.72961"
       id="text50193"><tspan
         sodipodi:role="line"
         id="tspan50191"
         style="font-style:normal;font-variant:normal;font-weight:normal;font-stretch:normal;font-size:4.23333px;font-family:interval;-inkscape-font-specification:interval;stroke-width:0.264583"
         x="11.01944"
         y="563.72961"><tspan
           style="font-style:italic;font-variant:normal;font-weight:normal;font-stretch:normal;font-family:C059;-inkscape-font-specification:'C059 Italic'"
           id="tspan50189">dutch</tspan></tspan></text>
    <text
       xml:space="preserve"
       style="font-size:4.23333px;line-height:1.25;font-family:sans-serif;letter-spacing:0px;word-spacing:0px;stroke-width:0.264583"
       x="11.079527"
       y="572.96967"
       id="text50199"><tspan
         sodipodi:role="line"
         id="tspan50197"
         style="font-style:normal;font-variant:normal;font-weight:normal;font-stretch:normal;font-size:4.23333px;font-family:interval;-inkscape-font-specification:interval;stroke-width:0.264583"
         x="11.079527"
         y="572.96967"><tspan
           style="font-style:italic;font-variant:normal;font-weight:normal;font-stretch:normal;font-family:C059;-inkscape-font-specification:'C059 Italic'"
           id="tspan50195">german</tspan></tspan></text>
    <text
       xml:space="preserve"
       style="font-size:4.23333px;line-height:1.25;font-family:sans-serif;letter-spacing:0px;word-spacing:0px;stroke-width:0.264583"
       x="10.962157"
       y="582.81226"
       id="text50205"><tspan
         sodipodi:role="line"
         id="tspan50203"
         style="font-style:normal;font-variant:normal;font-weight:normal;font-stretch:normal;font-size:4.23333px;font-family:interval;-inkscape-font-specification:interval;stroke-width:0.264583"
         x="10.962157"
         y="582.81226"><tspan
           style="font-style:italic;font-variant:normal;font-weight:normal;font-stretch:normal;font-family:C059;-inkscape-font-specification:'C059 Italic'"
           id="tspan50201">spanish</tspan></tspan></text>
    <text
       xml:space="preserve"
       style="font-size:4.23333px;line-height:1.25;font-family:sans-serif;letter-spacing:0px;word-spacing:0px;stroke-width:0.264583"
       x="10.962157"
       y="592.41528"
       id="text50211"><tspan
         sodipodi:role="line"
         id="tspan50209"
         style="font-style:normal;font-variant:normal;font-weight:normal;font-stretch:normal;font-size:4.23333px;font-family:interval;-inkscape-font-specification:interval;stroke-width:0.264583"
         x="10.962157"
         y="592.41528"><tspan
           style="font-style:italic;font-variant:normal;font-weight:normal;font-stretch:normal;font-family:C059;-inkscape-font-specification:'C059 Italic'"
           id="tspan50207">french</tspan></tspan></text>
    <text
       xml:space="preserve"
       style="font-size:4.23333px;line-height:1.25;font-family:sans-serif;letter-spacing:0px;word-spacing:0px;white-space:pre;inline-size:125.04;display:inline;stroke-width:0.264583"
       x="30.149519"
       y="50.103973"
       id="text50969"
       transform="translate(17.289116,503.02855)"><tspan
         x="30.149519"
         y="50.103973"
         id="tspan5583"><tspan
           style="font-family:interval;-inkscape-font-specification:interval"
           id="tspan5577">var(</tspan><tspan
           style="fill:#000080"
           id="tspan5579">--english</tspan><tspan
           style="font-family:interval;-inkscape-font-specification:interval"
           id="tspan5581">)</tspan></tspan></text>
    <text
       xml:space="preserve"
       style="font-size:4.23333px;line-height:1.25;font-family:sans-serif;letter-spacing:0px;word-spacing:0px;white-space:pre;inline-size:125.04;display:inline;stroke-width:0.264583"
       x="30.149519"
       y="50.103973"
       id="text50979"
       transform="translate(17.289116,513.78589)"><tspan
         x="30.149519"
         y="50.103973"
         id="tspan5591"><tspan
           style="font-family:interval;-inkscape-font-specification:interval"
           id="tspan5585">var(</tspan><tspan
           style="fill:#000080"
           id="tspan5587">--dutch</tspan><tspan
           style="font-family:interval;-inkscape-font-specification:interval"
           id="tspan5589">)</tspan></tspan></text>
    <text
       xml:space="preserve"
       style="font-size:4.23333px;line-height:1.25;font-family:sans-serif;letter-spacing:0px;word-spacing:0px;white-space:pre;inline-size:125.04;display:inline;stroke-width:0.264583"
       x="30.149519"
       y="50.103973"
       id="text50987"
       transform="translate(17.289116,522.84641)"><tspan
         x="30.149519"
         y="50.103973"
         id="tspan5599"><tspan
           style="font-family:interval;-inkscape-font-specification:interval"
           id="tspan5593">var(</tspan><tspan
           style="fill:#000080"
           id="tspan5595">--german</tspan><tspan
           style="font-family:interval;-inkscape-font-specification:interval"
           id="tspan5597">)</tspan></tspan></text>
    <text
       xml:space="preserve"
       style="font-size:4.23333px;line-height:1.25;font-family:sans-serif;letter-spacing:0px;word-spacing:0px;white-space:pre;inline-size:125.04;display:inline;stroke-width:0.264583"
       x="30.149519"
       y="50.103973"
       id="text50993"
       transform="translate(17.289116,532.91635)"><tspan
         x="30.149519"
         y="50.103973"
         id="tspan5607"><tspan
           style="font-family:interval;-inkscape-font-specification:interval"
           id="tspan5601">var(</tspan><tspan
           style="fill:#000080"
           id="tspan5603">--spanish</tspan><tspan
           style="font-family:interval;-inkscape-font-specification:interval"
           id="tspan5605">)</tspan></tspan></text>
    <text
       xml:space="preserve"
       style="font-size:4.23333px;line-height:1.25;font-family:sans-serif;letter-spacing:0px;word-spacing:0px;white-space:pre;inline-size:125.04;display:inline;stroke-width:0.264583"
       x="30.149519"
       y="50.103973"
       id="text51001"
       transform="translate(17.289116,541.88729)"><tspan
         x="30.149519"
         y="50.103973"
         id="tspan5615"><tspan
           style="font-family:interval;-inkscape-font-specification:interval"
           id="tspan5609">var(</tspan><tspan
           style="fill:#000080"
           id="tspan5611">--french</tspan><tspan
           style="font-family:interval;-inkscape-font-specification:interval"
           id="tspan5613">)</tspan></tspan></text>
    <path
       style="fill:none;stroke:#000000;stroke-width:0.09855;stroke-dasharray:none;stroke-opacity:1"
       id="path51504"
       d="m 79.368451,27.15231 c 1.8937,0 3.7874,0 5.6811,0 2.630946,0 5.261893,0 7.892839,0 0.186229,0 0.372458,0 0.558687,0 0,0 0.09923,-1.115704 0.09923,-1.115704 v 0 c -0.186229,0 -0.372458,0 -0.558688,0 -2.630946,0 -5.261892,0 -7.892839,0 -1.8937,0 -3.7874,0 -5.681099,0 0,0 -0.09923,1.115704 -0.09923,1.115704 z" />
    <path
       style="fill:none;stroke:#000000;stroke-width:0.09855;stroke-dasharray:none;stroke-opacity:1"
       id="path51510"
       d="m 80.076561,29.652823 c 1.964135,0 3.928268,0 5.892401,0 0,0 0.09922,-1.115703 0.09922,-1.115703 v 0 c -1.964132,0 -3.928264,0 -5.892399,0 0,0 -0.09923,1.115703 -0.09923,1.115703 z" />
    <text
       xml:space="preserve"
       style="font-size:4.23333px;line-height:1.25;font-family:sans-serif;letter-spacing:0px;word-spacing:0px;stroke-width:0.264583"
       x="11.843423"
       y="202.34"
       id="text634"><tspan
         sodipodi:role="line"
         id="tspan632"
         style="font-style:normal;font-variant:normal;font-weight:normal;font-stretch:normal;font-size:4.23333px;font-family:interval;-inkscape-font-specification:interval;stroke-width:0.264583"
         x="11.843423"
         y="202.34"><tspan
           style="font-style:italic;font-variant:normal;font-weight:normal;font-stretch:normal;font-family:C059;-inkscape-font-specification:'C059 Italic'"
           id="tspan630">CC 0  </tspan></tspan></text>
    <text
       xml:space="preserve"
       style="font-size:4.23333px;line-height:1.25;font-family:sans-serif;letter-spacing:0px;word-spacing:0px;stroke-width:0.264583"
       x="11.528226"
       y="212.55243"
       id="text640"><tspan
         sodipodi:role="line"
         id="tspan638"
         style="font-style:normal;font-variant:normal;font-weight:normal;font-stretch:normal;font-size:4.23333px;font-family:interval;-inkscape-font-specification:interval;stroke-width:0.264583"
         x="11.528226"
         y="212.55243"><tspan
           style="font-style:italic;font-variant:normal;font-weight:normal;font-stretch:normal;font-family:C059;-inkscape-font-specification:'C059 Italic'"
           id="tspan636">CC BY  </tspan></tspan></text>
    <text
       xml:space="preserve"
       style="font-size:4.23333px;line-height:1.25;font-family:sans-serif;letter-spacing:0px;word-spacing:0px;stroke-width:0.264583"
       x="11.469911"
       y="222.34579"
       id="text646"><tspan
         sodipodi:role="line"
         id="tspan644"
         style="font-style:normal;font-variant:normal;font-weight:normal;font-stretch:normal;font-size:4.23333px;font-family:interval;-inkscape-font-specification:interval;stroke-width:0.264583"
         x="11.469911"
         y="222.34579"><tspan
           style="font-style:italic;font-variant:normal;font-weight:normal;font-stretch:normal;font-family:C059;-inkscape-font-specification:'C059 Italic'"
           id="tspan642">cc4r  </tspan></tspan></text>
    <rect
       style="fill:#ffff00;stroke:none;stroke-width:0.307962;stroke-opacity:1"
       id="rect648"
       width="77.191879"
       height="6.9006214"
       x="47.588123"
       y="207.69106" />
    <text
       xml:space="preserve"
       style="font-style:normal;font-variant:normal;font-weight:normal;font-stretch:normal;font-size:4.23333px;line-height:1.25;font-family:Interval;-inkscape-font-specification:'Interval, Normal';font-variant-ligatures:normal;font-variant-caps:normal;font-variant-numeric:normal;font-variant-east-asian:normal;letter-spacing:0px;word-spacing:0px;stroke-width:0.264583"
       x="48.341236"
       y="212.63153"
       id="text652"><tspan
         sodipodi:role="line"
         id="tspan650"
         style="font-style:normal;font-variant:normal;font-weight:normal;font-stretch:normal;font-size:4.23333px;font-family:Interval;-inkscape-font-specification:'Interval, Normal';font-variant-ligatures:normal;font-variant-caps:normal;font-variant-numeric:normal;font-variant-east-asian:normal;stroke-width:0.264583"
         x="48.341236"
         y="212.63153">var(--white) var(--bwaa-cc-by);</tspan></text>
    <rect
       style="fill:#ffff00;stroke:none;stroke-width:0.311973;stroke-opacity:1"
       id="rect654"
       width="79.215584"
       height="6.9006214"
       x="47.61187"
       y="197.49904" />
    <text
       xml:space="preserve"
       style="font-style:normal;font-variant:normal;font-weight:normal;font-stretch:normal;font-size:4.23333px;line-height:1.25;font-family:Interval;-inkscape-font-specification:'Interval, Normal';font-variant-ligatures:normal;font-variant-caps:normal;font-variant-numeric:normal;font-variant-east-asian:normal;letter-spacing:0px;word-spacing:0px;stroke-width:0.264583"
       x="48.364983"
       y="202.43953"
       id="text658"><tspan
         sodipodi:role="line"
         id="tspan656"
         style="font-style:normal;font-variant:normal;font-weight:normal;font-stretch:normal;font-size:4.23333px;font-family:Interval;-inkscape-font-specification:'Interval, Normal';font-variant-ligatures:normal;font-variant-caps:normal;font-variant-numeric:normal;font-variant-east-asian:normal;stroke-width:0.264583"
         x="48.364983"
         y="202.43953">var(--white) var(--bwaa-cc-0);</tspan></text>
    <rect
       style="fill:#ffff00;stroke:none;stroke-width:0.310024;stroke-opacity:1"
       id="rect660"
       width="78.22908"
       height="6.9006214"
       x="47.217304"
       y="217.5788" />
    <text
       xml:space="preserve"
       style="font-style:normal;font-variant:normal;font-weight:normal;font-stretch:normal;font-size:4.23333px;line-height:1.25;font-family:Interval;-inkscape-font-specification:'Interval, Normal';font-variant-ligatures:normal;font-variant-caps:normal;font-variant-numeric:normal;font-variant-east-asian:normal;letter-spacing:0px;word-spacing:0px;stroke-width:0.264583"
       x="47.970417"
       y="222.51927"
       id="text664"><tspan
         sodipodi:role="line"
         id="tspan662"
         style="font-style:normal;font-variant:normal;font-weight:normal;font-stretch:normal;font-size:4.23333px;font-family:Interval;-inkscape-font-specification:'Interval, Normal';font-variant-ligatures:normal;font-variant-caps:normal;font-variant-numeric:normal;font-variant-east-asian:normal;stroke-width:0.264583"
         x="47.970417"
         y="222.51927">var(--white) var(--bwaa-cc4r);</tspan></text>
    <text
       xml:space="preserve"
       style="font-size:4.23333px;line-height:1.25;font-family:sans-serif;letter-spacing:0px;word-spacing:0px;stroke-width:0.264583"
       x="11.843423"
       y="291.94608"
       id="text670"><tspan
         sodipodi:role="line"
         id="tspan668"
         style="font-style:normal;font-variant:normal;font-weight:normal;font-stretch:normal;font-size:4.23333px;font-family:interval;-inkscape-font-specification:interval;stroke-width:0.264583"
         x="11.843423"
         y="291.94608"><tspan
           style="font-style:italic;font-variant:normal;font-weight:normal;font-stretch:normal;font-family:C059;-inkscape-font-specification:'C059 Italic'"
           id="tspan666">CC BY-ND  </tspan></tspan></text>
    <text
       xml:space="preserve"
       style="font-size:4.23333px;line-height:1.25;font-family:sans-serif;letter-spacing:0px;word-spacing:0px;stroke-width:0.264583"
       x="11.528226"
       y="302.15851"
       id="text676"><tspan
         sodipodi:role="line"
         id="tspan674"
         style="font-style:normal;font-variant:normal;font-weight:normal;font-stretch:normal;font-size:4.23333px;font-family:interval;-inkscape-font-specification:interval;stroke-width:0.264583"
         x="11.528226"
         y="302.15851"><tspan
           style="font-style:italic;font-variant:normal;font-weight:normal;font-stretch:normal;font-family:C059;-inkscape-font-specification:'C059 Italic'"
           id="tspan672">copyright  </tspan></tspan></text>
    <rect
       style="fill:#ffff00;stroke:none;stroke-width:0.311135;stroke-opacity:1"
       id="rect684"
       width="78.790649"
       height="6.9006214"
       x="47.588123"
       y="297.29712" />
    <text
       xml:space="preserve"
       style="font-style:normal;font-variant:normal;font-weight:normal;font-stretch:normal;font-size:4.23333px;line-height:1.25;font-family:Interval;-inkscape-font-specification:'Interval, Normal';font-variant-ligatures:normal;font-variant-caps:normal;font-variant-numeric:normal;font-variant-east-asian:normal;letter-spacing:0px;word-spacing:0px;stroke-width:0.264583"
       x="48.341236"
       y="302.23761"
       id="text688"><tspan
         sodipodi:role="line"
         id="tspan686"
         style="font-style:normal;font-variant:normal;font-weight:normal;font-stretch:normal;font-size:4.23333px;font-family:Interval;-inkscape-font-specification:'Interval, Normal';font-variant-ligatures:normal;font-variant-caps:normal;font-variant-numeric:normal;font-variant-east-asian:normal;stroke-width:0.264583"
         x="48.341236"
         y="302.23761">var(--white) var(--copyright);</tspan></text>
    <rect
       style="fill:#ffff00;stroke:none;stroke-width:0.327412;stroke-opacity:1"
       id="rect690"
       width="87.249985"
       height="6.9006214"
       x="47.61187"
       y="287.1051" />
    <text
       xml:space="preserve"
       style="font-style:normal;font-variant:normal;font-weight:normal;font-stretch:normal;font-size:4.23333px;line-height:1.25;font-family:Interval;-inkscape-font-specification:'Interval, Normal';font-variant-ligatures:normal;font-variant-caps:normal;font-variant-numeric:normal;font-variant-east-asian:normal;letter-spacing:0px;word-spacing:0px;stroke-width:0.264583"
       x="48.364983"
       y="292.04559"
       id="text694"><tspan
         sodipodi:role="line"
         id="tspan692"
         style="font-style:normal;font-variant:normal;font-weight:normal;font-stretch:normal;font-size:4.23333px;font-family:Interval;-inkscape-font-specification:'Interval, Normal';font-variant-ligatures:normal;font-variant-caps:normal;font-variant-numeric:normal;font-variant-east-asian:normal;stroke-width:0.264583"
         x="48.364983"
         y="292.04559">var(--white) var(--bwaa-cc-by-nd);</tspan></text>
    <text
       xml:space="preserve"
       style="font-size:4.23333px;line-height:1.25;font-family:sans-serif;letter-spacing:0px;word-spacing:0px;stroke-width:0.264583"
       x="11.843423"
       y="262.12659"
       id="text706"><tspan
         sodipodi:role="line"
         id="tspan704"
         style="font-style:normal;font-variant:normal;font-weight:normal;font-stretch:normal;font-size:4.23333px;font-family:interval;-inkscape-font-specification:interval;stroke-width:0.264583"
         x="11.843423"
         y="262.12659"><tspan
           style="font-style:italic;font-variant:normal;font-weight:normal;font-stretch:normal;font-family:C059;-inkscape-font-specification:'C059 Italic'"
           id="tspan702">CC BY-NC  </tspan></tspan></text>
    <text
       xml:space="preserve"
       style="font-size:4.23333px;line-height:1.25;font-family:sans-serif;letter-spacing:0px;word-spacing:0px;stroke-width:0.264583"
       x="11.528226"
       y="272.33902"
       id="text712"><tspan
         sodipodi:role="line"
         id="tspan710"
         style="font-style:normal;font-variant:normal;font-weight:normal;font-stretch:normal;font-size:4.23333px;font-family:interval;-inkscape-font-specification:interval;stroke-width:0.264583"
         x="11.528226"
         y="272.33902"><tspan
           style="font-style:italic;font-variant:normal;font-weight:normal;font-stretch:normal;font-family:C059;-inkscape-font-specification:'C059 Italic'"
           id="tspan708">CC BY-NC-SA  </tspan></tspan></text>
    <text
       xml:space="preserve"
       style="font-size:4.23333px;line-height:1.25;font-family:sans-serif;letter-spacing:0px;word-spacing:0px;stroke-width:0.264583"
       x="11.469911"
       y="282.13239"
       id="text718"><tspan
         sodipodi:role="line"
         id="tspan716"
         style="font-style:normal;font-variant:normal;font-weight:normal;font-stretch:normal;font-size:4.23333px;font-family:interval;-inkscape-font-specification:interval;stroke-width:0.264583"
         x="11.469911"
         y="282.13239"><tspan
           style="font-style:italic;font-variant:normal;font-weight:normal;font-stretch:normal;font-family:C059;-inkscape-font-specification:'C059 Italic'"
           id="tspan714">CC BY-NC-ND </tspan></tspan></text>
    <rect
       style="fill:#ffff00;stroke:none;stroke-width:0.343808;stroke-opacity:1"
       id="rect720"
       width="96.207703"
       height="6.9006214"
       x="47.588123"
       y="267.47763" />
    <text
       xml:space="preserve"
       style="font-style:normal;font-variant:normal;font-weight:normal;font-stretch:normal;font-size:4.23333px;line-height:1.25;font-family:Interval;-inkscape-font-specification:'Interval, Normal';font-variant-ligatures:normal;font-variant-caps:normal;font-variant-numeric:normal;font-variant-east-asian:normal;letter-spacing:0px;word-spacing:0px;stroke-width:0.264583"
       x="48.341236"
       y="272.41812"
       id="text724"><tspan
         sodipodi:role="line"
         id="tspan722"
         style="font-style:normal;font-variant:normal;font-weight:normal;font-stretch:normal;font-size:4.23333px;font-family:Interval;-inkscape-font-specification:'Interval, Normal';font-variant-ligatures:normal;font-variant-caps:normal;font-variant-numeric:normal;font-variant-east-asian:normal;stroke-width:0.264583"
         x="48.341236"
         y="272.41812">var(--white) var(--bwaa-cc-by-nc-sa);</tspan></text>
    <rect
       style="fill:#ffff00;stroke:none;stroke-width:0.330618;stroke-opacity:1"
       id="rect726"
       width="88.967262"
       height="6.9006214"
       x="47.61187"
       y="257.28561" />
    <text
       xml:space="preserve"
       style="font-style:normal;font-variant:normal;font-weight:normal;font-stretch:normal;font-size:4.23333px;line-height:1.25;font-family:Interval;-inkscape-font-specification:'Interval, Normal';font-variant-ligatures:normal;font-variant-caps:normal;font-variant-numeric:normal;font-variant-east-asian:normal;letter-spacing:0px;word-spacing:0px;stroke-width:0.264583"
       x="48.364983"
       y="262.2261"
       id="text730"><tspan
         sodipodi:role="line"
         id="tspan728"
         style="font-style:normal;font-variant:normal;font-weight:normal;font-stretch:normal;font-size:4.23333px;font-family:Interval;-inkscape-font-specification:'Interval, Normal';font-variant-ligatures:normal;font-variant-caps:normal;font-variant-numeric:normal;font-variant-east-asian:normal;stroke-width:0.264583"
         x="48.364983"
         y="262.2261">var(--white) var(--bwaa-cc-by-nc);</tspan></text>
    <rect
       style="fill:#ffff00;stroke:none;stroke-width:0.340311;stroke-opacity:1"
       id="rect732"
       width="94.26046"
       height="6.9006214"
       x="47.217304"
       y="277.36539" />
    <text
       xml:space="preserve"
       style="font-style:normal;font-variant:normal;font-weight:normal;font-stretch:normal;font-size:4.23333px;line-height:1.25;font-family:Interval;-inkscape-font-specification:'Interval, Normal';font-variant-ligatures:normal;font-variant-caps:normal;font-variant-numeric:normal;font-variant-east-asian:normal;letter-spacing:0px;word-spacing:0px;stroke-width:0.264583"
       x="47.970417"
       y="282.30585"
       id="text736"><tspan
         sodipodi:role="line"
         id="tspan734"
         style="font-style:normal;font-variant:normal;font-weight:normal;font-stretch:normal;font-size:4.23333px;font-family:Interval;-inkscape-font-specification:'Interval, Normal';font-variant-ligatures:normal;font-variant-caps:normal;font-variant-numeric:normal;font-variant-east-asian:normal;stroke-width:0.264583"
         x="47.970417"
         y="282.30585">var(--white) var(--bwaa-cc-by-nc-nd);</tspan></text>
  </g>
</svg>
