<?xml version="1.0" encoding="UTF-8" standalone="no"?>
<!-- Created with Inkscape (http://www.inkscape.org/) -->

<svg
   width="297mm"
   height="210mm"
   viewBox="0 0 297 210"
   version="1.1"
   id="svg5"
   inkscape:version="1.2.2 (732a01da63, 2022-12-09, custom)"
   sodipodi:docname="schema_density.svg"
   xml:space="preserve"
   xmlns:inkscape="http://www.inkscape.org/namespaces/inkscape"
   xmlns:sodipodi="http://sodipodi.sourceforge.net/DTD/sodipodi-0.dtd"
   xmlns:xlink="http://www.w3.org/1999/xlink"
   xmlns="http://www.w3.org/2000/svg"
   xmlns:svg="http://www.w3.org/2000/svg"><sodipodi:namedview
     id="namedview7"
     pagecolor="#ffffff"
     bordercolor="#eeeeee"
     borderopacity="1"
     inkscape:showpageshadow="0"
     inkscape:pageopacity="1"
     inkscape:pagecheckerboard="0"
     inkscape:deskcolor="#505050"
     inkscape:document-units="mm"
     showgrid="false"
     inkscape:zoom="0.85082027"
     inkscape:cx="468.37154"
     inkscape:cy="443.68948"
     inkscape:window-width="1920"
     inkscape:window-height="1016"
     inkscape:window-x="0"
     inkscape:window-y="0"
     inkscape:window-maximized="1"
     inkscape:current-layer="layer1"
     showguides="true"><sodipodi:guide
       position="-18.245892,136.31553"
       orientation="1,0"
       id="guide11957"
       inkscape:locked="false" /></sodipodi:namedview><defs
     id="defs2"><marker
       style="overflow:visible"
       id="Arrow1"
       refX="0"
       refY="0"
       orient="auto-start-reverse"
       inkscape:stockid="Arrow1"
       markerWidth="4.0606604"
       markerHeight="6.7071066"
       viewBox="0 0 4.0606602 6.7071068"
       inkscape:isstock="true"
       inkscape:collect="always"
       preserveAspectRatio="xMidYMid"><path
         style="fill:none;stroke:context-stroke;stroke-width:1;stroke-linecap:butt"
         d="M 3,-3 0,0 3,3"
         id="path5057"
         transform="rotate(180,0.125,0)"
         sodipodi:nodetypes="ccc" /></marker><rect
       x="313.80103"
       y="456.42993"
       width="366.17697"
       height="169.32649"
       id="rect26422" /><rect
       x="176.90494"
       y="405.77887"
       width="539.52942"
       height="301.50146"
       id="rect11011" /><rect
       x="678.93811"
       y="123.67201"
       width="188.82285"
       height="67.196182"
       id="rect4462" /><inkscape:path-effect
       effect="spiro"
       id="path-effect1502"
       is_visible="true"
       lpeversion="1" /><inkscape:path-effect
       effect="spiro"
       id="path-effect1478"
       is_visible="true"
       lpeversion="1" /><inkscape:path-effect
       effect="spiro"
       id="path-effect580"
       is_visible="true"
       lpeversion="1" /><rect
       x="313.80103"
       y="456.42993"
       width="366.17697"
       height="169.32649"
       id="rect27284" /></defs><g
     inkscape:label="Calque 1"
     inkscape:groupmode="layer"
     id="layer1"><rect
       style="fill:#ffffff;stroke-width:0.4"
       id="rect420"
       width="297.51746"
       height="210.23405"
       x="0.19412343"
       y="-0.22504582" /><rect
       style="fill:#000000;fill-opacity:1;stroke:none;stroke-width:0.238824;stroke-linecap:square;stroke-miterlimit:4.1;stroke-dasharray:none;stroke-opacity:1"
       id="rect23746"
       width="211.54883"
       height="20.611773"
       x="-0.57700509"
       y="-0.35349071" /><text
       xml:space="preserve"
       style="font-size:9.87778px;line-height:1.25;font-family:sans-serif;letter-spacing:0px;word-spacing:0px;fill:#ffffff;stroke-width:0.264583"
       x="6.3348799"
       y="12.948457"
       id="text236"><tspan
         sodipodi:role="line"
         id="tspan234"
         style="font-style:normal;font-variant:normal;font-weight:normal;font-stretch:normal;font-size:9.87778px;font-family:Interval;-inkscape-font-specification:Interval;fill:#ffffff;stroke-width:0.264583"
         x="6.3348799"
         y="12.948457">license → density </tspan></text><text
       xml:space="preserve"
       style="font-size:5.64444px;line-height:1.25;font-family:sans-serif;letter-spacing:0px;word-spacing:0px;stroke-width:0.264583"
       x="6.5205626"
       y="35.296333"
       id="text398"><tspan
         sodipodi:role="line"
         id="tspan396"
         style="font-style:normal;font-variant:normal;font-weight:normal;font-stretch:normal;font-size:5.64444px;font-family:Interval;-inkscape-font-specification:Interval;stroke-width:0.264583"
         x="6.5205626"
         y="35.296333">books with an attitude</tspan><tspan
         sodipodi:role="line"
         style="font-style:normal;font-variant:normal;font-weight:normal;font-stretch:normal;font-size:5.64444px;font-family:Interval;-inkscape-font-specification:Interval;stroke-width:0.264583"
         x="6.5205626"
         y="42.407005"
         id="tspan400" /></text><text
       xml:space="preserve"
       style="font-size:5.64444px;line-height:1.25;font-family:sans-serif;letter-spacing:0px;word-spacing:0px;stroke-width:0.264583"
       x="7.3786573"
       y="133.72369"
       id="text408"><tspan
         sodipodi:role="line"
         id="tspan404"
         style="font-style:normal;font-variant:normal;font-weight:normal;font-stretch:normal;font-size:5.64444px;font-family:Interval;-inkscape-font-specification:Interval;stroke-width:0.264583"
         x="7.3786573"
         y="133.72369">verlag</tspan><tspan
         sodipodi:role="line"
         style="font-style:normal;font-variant:normal;font-weight:normal;font-stretch:normal;font-size:5.64444px;font-family:Interval;-inkscape-font-specification:Interval;stroke-width:0.264583"
         x="7.3786573"
         y="140.83437"
         id="tspan406" /></text><text
       xml:space="preserve"
       style="font-size:5.64444px;line-height:1.25;font-family:sans-serif;letter-spacing:0px;word-spacing:0px;stroke-width:0.264583"
       x="7.3786573"
       y="142.19034"
       id="text414"><tspan
         sodipodi:role="line"
         style="font-style:normal;font-variant:normal;font-weight:normal;font-stretch:normal;font-size:5.64444px;font-family:Interval;-inkscape-font-specification:Interval;stroke-width:0.264583"
         x="7.3786573"
         y="142.19034"
         id="tspan412">constant reading list</tspan><tspan
         sodipodi:role="line"
         style="font-style:normal;font-variant:normal;font-weight:normal;font-stretch:normal;font-size:5.64444px;font-family:Interval;-inkscape-font-specification:Interval;stroke-width:0.264583"
         x="7.3786573"
         y="149.30101"
         id="tspan418" /></text><text
       xml:space="preserve"
       style="font-size:10.5833px;line-height:1.25;font-family:sans-serif;letter-spacing:0px;word-spacing:0px;stroke-width:0.264583"
       x="-35.084515"
       y="95.15509"
       id="text422-3"
       transform="rotate(-90)"><tspan
         sodipodi:role="line"
         id="tspan420-6"
         style="stroke-width:0.264583"
         x="-35.084515"
         y="95.15509">| </tspan></text><text
       xml:space="preserve"
       style="font-size:6.93384px;line-height:1.25;font-family:sans-serif;letter-spacing:0px;word-spacing:0px;stroke-width:0.173346"
       x="31.51506"
       y="134.13443"
       id="text426"><tspan
         sodipodi:role="line"
         id="tspan424"
         style="stroke-width:0.173346"
         x="31.51506"
         y="134.13443">●</tspan></text><text
       xml:space="preserve"
       style="font-size:7.22963px;line-height:1.25;font-family:sans-serif;letter-spacing:0px;word-spacing:0px;stroke-width:0.180741"
       x="81.214523"
       y="142.30128"
       id="text430"><tspan
         sodipodi:role="line"
         id="tspan428"
         style="stroke-width:0.180741"
         x="81.214523"
         y="142.30128">◗</tspan></text><text
       xml:space="preserve"
       transform="matrix(0.26458333,0,0,0.26458333,0,3.1750001)"
       id="text4460"
       style="font-size:40px;line-height:1.25;font-family:sans-serif;letter-spacing:0px;word-spacing:0px;white-space:pre;shape-inside:url(#rect4462);display:inline" /><image
       width="161.79483"
       height="57.979008"
       preserveAspectRatio="none"
       xlink:href="data:image/png;base64,iVBORw0KGgoAAAANSUhEUgAABCoAAAF+CAYAAABEcvuMAAAABHNCSVQICAgIfAhkiAAAIABJREFU eJzs3Xd8VfX9x/H3ufdmBxIySELYBAhLpiAgKKAW6967tlbraLXWatWOn9pWa6uttlVb90TBhaI4 ABlhhxkCmYQRyN6bjHvP7w8CBEgkYYRv0tfz8eAPkpt7z73ne77nez73e75vy7ZtWwAAAAAAAAZw nO4NAAAAAAAAOIBCBQAAAAAAMIartQ+8Ycazp3I7ALSDD757sN1eiz4D6Bzaq9+gzwA6B8YaANqi pT6DGRUAAAAAAMAYFCoAAAAAAIAxLFI/AAAAAACAKZhRAQAAAAAAjEGhAgAAAAAAGINCBQAAAAAA MEar40kBAAAAwBTEkwIdH/GkAAAAAADAeKR+AAAAAAAAYzCjAgAAAAAAGINCBQAAAAAAMAaFCgAA AAAAYAxSPwAAwGnH6v1A59DSCv6nAv0G0PGR+gEAAAAAAIxHoQIAAAAAABiDeFIAAAAAAGAMZlQA AAAAAABjUKgAAAAAAADGoFABAAAAAACMQTwpAAAAgA6HeFKg4yOeFAAAAAAAGI9CBQAAAAAAMAbx pAAAAAAAwBjMqAAAAAAAAMagUAEAAAAAAIxBoQIAAAAAABiDeFIApwSRYUDn0FJs2MlGnwF0Du3V Z0j0G0BnQDwpAAAAAAAwHqkfAAAAAADAGMyoAAAAAAAAxqBQAQAAAAAAjEGhAgAAAAAAGIPUDwAA AAAdDqkfQMdH6gcAAAAAADAehQoAAAAAAGAM4kkBAAAAAIAxmFEBAAAAAACMQaECAAAAAAAYg0IF AAAAAAAwRqvjSYn/ATq+luJ/AOB0Y5wBdA7tOdag3wA6PuJJAQAAAACA8ShUAAAAAAAAYxBPCgAA AAAAjMGMCgAAAAAAYAwKFQAAAAAAwBgUKgAAAAAAgDFaHU8KAAAAAKYgnhTo+IgnBQAAAAAAxiP1 AwAAAAAAGIMZFQAAAAAAwBgUKgAAAAAAgDEoVAAAAAAAAGOQ+gHglGAlbqBzaGk17pONPgPoHNqr z5DoN4DOgNQPAAAAAABgPAoVAAAAAADAGMSTAgAAAAAAYzCjAgAAAAAAGINCBQAAAAAAMAaFCgAA AAAAYAziSQEAAAB0OMSTAh0f8aQAAAAAAMB4FCoAAAAAAIAxiCcFAAAAAADGYEYFAAAAAAAwBoUK AAAAAABgDAoVAAAAAADAGMSTAgCA046YQaBzaClq8FSg3wA6PuJJAQAAAACA8Uj9AAAAAAAAxmBG BQAAAAAAMAaFCgAAAAAAYAwKFQAAAAAAwBikfgAAAADocEj9ADo+Uj8AAAAAAIDxKFQAAAAAAABj EE8KAAAAAACMwYwKAAAAAABgDAoVAAAAAADAGBQqAAAAAACAMVodT0r8D9DxtRT/cyrQZwCdQ3v1 G/QZQOfAWANAWxBPCgAAAAAAjEehAgAAAAAAGIN4UgAAAAAAYAxmVAAAAAAAAGNQqAAAAAAAAMag UAEAAAAAAIzR6nhSAAAAADAF8aRAx0c8KQAAAAAAMB6pHwAAAAAAwBjMqAAAAAAAAMagUAEAAAAA AIxBoQIAAAAAABiD1A8AAHDasXo/0Dm0tIL/qUC/AXR8pH4AAAAAAADjUagAAAAAAADGIJ4UAAAA AAAYgxkVAAAAAADAGBQqAAAAAACAMShUAAAAAAAAYxBPCgAAAKDDIZ4U6PiIJwUAAAAAAMajUAEA AAAAAIxBPCkAAAAAADAGMyoAAAAAAIAxKFQAAAAAAABjUKgAAAAAAADGIJ4UwClBZBjQObQUG3ay 0WcAnUN79RkS/QbQGRBPCgAAAAAAjEfqBwAAAAAAMAYzKgAAAAAAgDEoVAAAAAAAAGNQqAAAAAAA AMYg9QMAAABAh0PqB9DxkfoBAAAAAACMR6ECAAAAAAAYg3hSAAAAAABgDGZUAAAAAAAAY1CoAAAA AAAAxqBQAQAAAAAAjNHqeFLif4COr6X4HwA43RhnAJ1De4416DeAjo94UgAAAAAAYDwKFQAAAAAA wBjEkwIAAAAAAGMwowIAAAAAABiDQgUAAAAAADAGhQoAAAAAAGCMVseTAgAAAIApiCcFOj7iSQEA AAAAgPFI/QAAAAAAAMZgRgUAAAAAADAGhQoAAAAAAGAMChUAAAAAAMAYpH4AOCVYiRvoHFpajftk o88AOof26jMk+g2gMyD1AwAAAAAAGI9CBQAAAAAAMAbxpAAAAAAAwBjMqAAAAAAAAMagUAEAAAAA AIxBoQIAAAAAABiDeFIAAAAAHQ7xpEDHRzwpAAAAAAAwHoUKAAAAAABgDOJJAQAAAACAMZhRAQAA AAAAjEGhAgAAAAAAGINCBQAAAAAAMAbxpAAA4LQjZhDoHFqKGjwV6DeAjo94UgAAAAAAYDxSPwAA AAAAgDGYUQEAAAAAAIxBoQIAAAAAABiDQgUAAAAAADAGqR8AAAAAOhxSP4COj9QPAAAAAABgPAoV AAAAAADAGMSTAgAAAAAAYzCjAgAAAAAAGINCBQAAAAAAMAaFCgAAAAAAYIxWx5MS/wN0fC3F/5wK 9BlA59Be/QZ9BtA5MNYA0BbEkwIAAAAAAONRqAAAAAAAAMYgnhQAAAAAABiDGRUAAAAAAMAYFCoA AAAAAIAxKFQAAAAAAABjtDqeFAAAAABMQTwp0PERTwoAAAAAAIxH6gcAAAAAADAGMyoAAAAAAIAx KFQAAAAAAABjUKgAAAAAAADGIPUDAACcdqzeD3QOLa3gfyrQbwAdH6kfAAAAAADAeBQqAAAAAACA MYgnBQAAAAAAxmBGBQAAAAAAMAaFCgAAAAAAYAwKFQAAAAAAwBjEkwIAAADocIgnBTo+4kkBAAAA AIDxKFQAAAAAAABjEE8KAAAAAACMwYwKAAAAAABgDAoVAAAAAADAGBQqAAAAAACAMYgnBXBKEBkG dA4txYadbPQZQOfQXn2GRL8BdAbEkwIAAAAAAOOR+gEAAAAAAIzBjAoAAAAAAGAMChUAAAAAAMAY FCoAAAAAAIAxSP0AAAAA0OGQ+gF0fKR+AAAAAAAA41GoAAAAAAAAxiCeFAAAAAAAGIMZFQAAAAAA wBgUKgAAAAAAgDEoVAAAAAAAAGO0Op6U+B+g42sp/gcATjfGGUDn0J5jDfoNoOMjnhQAAAAAABiP QgUAAAAAADAG8aQAAAAAAMAYzKgAAAAAAADGoFABAAAAAACMQaECAAAAAAAYo9XxpAAAAABgCuJJ gY6PeFIAAAAAAGA8Uj8AAAAAAIAxmFEBAAAAAACMQaECAAAAAAAYg0IFAAAAAAAwBqkfAE4JVuIG OoeWVuM+2egzgM6hvfoMiX4D6AxI/QAAAAAAAMajUAEAAAAAAIxBPCkAAAAAADAGMyoAAAAAAIAx KFQAAAAAAABjUKgAAAAAAADGIJ4UAAAAQIdDPCnQ8RFPCgAAAAAAjEehAgAAAAAAGIN4UgAAAAAA YAxmVAAAAAAAAGNQqAAAAAAAAMagUAEAAAAAAIxBPCkAADjtiBkEOoeWogZPBfoNoOMjnhQAAAAA ABiP1A8AAAAAAGAMZlQAAAAAAABjUKgAAAAAAADGoFABAAAAAACMQeoHAAAAgA6H1A+g4yP1AwAA AAAAGI9CBQAAAAAAMAbxpAAAAAAAwBjMqAAAAAAAAMagUAEAAAAAAIxBoQIAAAAAABij1fGkxP8A HV9L8T+nAn0G0Dm0V79BnwF0Dow1ALQF8aQAAAAAAMB4FCoAAAAAAIAxiCcFAAAAAADGYEYFAAAA AAAwBoUKAAAAAABgDAoVAAAAAADAGK2OJwUAAAAAUxBPCnR8xJMCAAAAAADjkfoBAAAAAACMwYwK AAAAAABgDAoVAAAAAADAGBQqAAAAAACAMUj9AAAApx2r9wOdQ0sr+J8K9BtAx0fqBwAAAAAAMB6F CgAAAAAAYAziSQEAAAAAgDGYUQEAAAAAAIxBoQIAAAAAABiDQgUAAAAAADAG8aQAAAAAOhziSYGO j3hSAAAAAABgPAoVAAAAAADAGMSTAgAAAAAAYzCjAgAAAAAAGINCBQAAAAAAMAaFCgAAAAAAYAzi SQGcEkSGAZ1DS7FhJxt9BtA5tFefIdFvAJ0B8aQAAAAAAMB4pH4AAAAAAABjMKMCAAAAAAAYg0IF AAAAAAAwBoUKAAAAAABgDFI/AAAAAHQ4pH4AHR+pHwAAAAAAwHgUKgAAAAAAgDGIJwUAAAAAAMZg RgUAAAAAADAGhQoAAAAAAGAMChUAAAAAAMAYrY4nJf4H6Phaiv8BgNONcQbQObTnWIN+A+j4iCcF AAAAAADGo1ABAAAAAACMQTwpAAAAAAAwBjMqAAAAAACAMShUAAAAAAAAY1CoAAAAAAAAxmh1PCkA AAAAmIJ4UqDjI54UAAAAAAAYj9QPAAAAAABgDGZUAAAAAAAAY1CoAAAAAAAAxqBQAQAAAAAAjEHq B4BTgpW4gc6hpdW4Tzb6DKBzaK8+Q6LfADoDUj8AAAAAAIDxKFQAAAAAAABjEE8KAAAAAACMwYwK AAAAAABgDAoVAAAAAADAGBQqAAAAAACAMYgnBQAAANDhEE8KdHzEkwIAAAAAAONRqAAAAAAAAMYg nhQAAAAAABiDGRUAAAAAAMAYFCoAAAAAAIAxKFQAAAAAAABjEE8KAABOO2IGgc6hpajBU4F+A+j4 iCcFAAAAAADGI/UDAAAAAAAYgxkVAAAAAADAGBQqAAAAAACAMShUAAAAAAAAY5D6AQAAAKDDIfUD 6PhI/QAAAAAAAMajUAEAAAAAAIxBPCkAAAAAADAGMyoAAAAAAIAxKFQAAAAAAABjUKgAAAAAAADG aHU8KfE/QMfXUvzPqUCfAXQO7dVv0GcAnQNjDQBtQTwpAAAAAAAwHoUKAAAAAABgDOJJAQAAAACA MZhRAQAAAAAAjEGhAgAAAAAAGINCBQAAAAAAMEar40kBAAAAwBTEkwIdH/GkAAAAAADAeKR+AAAA AAAAYzCjAgAAAAAAGINCBQAAAAAAMAaFCgAAAAAAYAxSPwAAwGnH6v1A59DSCv6nAv0G0PGR+gEA AAAAAIxHoQIAAAAAABiDeFIAAAAAAGAMZlQAAAAAAABjUKgAAAAAAADGoFABAAAAAACMQaECAAAA AAAYg0IFAAAAAAAwBoUKAAAAAABgDAoVAAAAAADAGBQqAAAAAACAMShUAAAAAAAAY1CoAAAAAAAA xqBQAQAAAAAAjEGhAgAAAAAAGINCBQAAAAAAMAaFCgAAAAAAYAwKFQAAAAAAwBgUKgAAAAAAgDEo VAAAAAAAAGNQqAAAAAAAAMZwteZBtXnZ2ppYoPxySyGx/TVmaKC8TvWWoU3sijytWbhbhXWS3fgz yztIZ1wwWH0CW/H3VYVav6xAQRMGa1Ao9SsYzq5W+nfJSinxUv9zhmtYd9osgI6Dcy6AtnGrKCFF W2oiNXFCqHytE3u2qrQUxW0qV70s+fbqr3Mmhcrn5GwocNJ8f6HCrtTmV7/Uy5/sValbsiTZ8tOk P/xUvzjHVyd4jPwPslWckKStVh+dfUbgSZ3O4slM1Sevr1du/YGXsuWxnUoL6qdfz/A+1l8rY9bn en5OiXxnuPTSbwfSWcFgHuV89qWefjFTNXIoujJST/+ku5yne7MA/O+xa5SxZLsqY4dqZI/W9kKc cwG0jV2aojd+97U21Ueo9OWbdUXfE7kK82jPklWa82mp6t0e2V2K1P2jmRrVqq+vJbu6UOuXlSry nBj18j+BzQCO4XuvlSuXL9VLH+Wp22WX6e9zf6WXnhitwYN6qH+kiyLF8fCUasUr3+qVl5OU5zm5 T+0cNlXPzn9A7y3Y/++tp4YrULY87ta8kEPdRw1QTHS4Ro8LZ7YMjObeu1mvv5mloEtm6OKBjla2 cQA4+eyKDH38twV6c16e3K3+K865ANrGCozQqLFhihzWT7HhJ3oV5lDsnbfprW9/qV+e6yV5PPLY x/6rAxoS4vXfv3+tLxNa3+sBx+N7amce5STnqsoRpWuujVGPLpY0eYYen9x+G9f5eGTbkmTLtEur ruPP1RPvnO6tAI7BXaJFz69UareReuS23tr+8OneIAD/0zy2bEl2W0b54pwLoI1cYTr/iR/r/NO9 HVJjv2fLY9rFDDqdIwoV9cqJT9GWvfXyyKP81FrZdqVSvt2kBj9JsuTXu68mjesm78bHZ8enKHFv vTySLKeP+kwaoiHhDqm+WnsS9ygja58UHK7h43so7Mi5jXXVyt6eq50ZpapyBarXGX00ONqn5Wke dr1Kd+cpI61Qhfu8FBrTU8OHBJ3wfVqSJHeNshL3avvuMlXUOeQXHKRew3oqpseR29PW9+xW/sZk bdpVJ49dpbRiW7aytXzuRgU1brclp0JGxurMAT7tOlOlZud2rdpUrrrG/1sOL0WNi9XInsf+fsdT Xar0Tdnam1etfZaPQntHaNDw7gppbv7qMfdbg3LXJSthT71sy6WwUYM1tp9L5dv3KGl7heoDghQz qtf+YlkzGkoLlbY1TzkF+7TP41Jw32gNi65RYoq3Rp8TocBm/sxdUardqXnatadaCg7RwNE91SuY mwdOhtqCHCVtKVR+Sa08vgGKGtBDg2OD5NdC4259W/IoZ95CfZjorxlPT9bQgEptb+b57OIcrVqR o4qG/eu1eEf01sRJYfK3bNXk5igpsVAltV4KH95PI/r6sqIwcLq59ykrMVMZeypVUWspMCJUA0ZE q2djn3yix3Rr+3u7ulRpm7OVmVOlWnmpS3ioBo6KVo+uRzyjp0ppi9O0o9yWXZOtAo9UvT1V33ya d/C1LaefYs6JVUzwoY6v9efcBuVvTNHmXXVyS7LkUNfYgTpraIAc9WVKXLRDWTX7CySWy08DJsdq YGiTDvZ4xkrH2AdHfFKqyS/Q9qRc5bu7qO/QKPWN8j10+51dq90rUpRc5FDk2FjFehdo69Zyecf0 1bA+vrJLC5W8OVelAVEaNy5UfpatsqQUxafUymdAf02McWv7hhyVBfXQyDOC5VdXqR2b9yizKlBD J/dS92bGGXZdtXLScpS+q1p+vaI0KDZMwU0f11Ch5MXbtbvSlrz8NXDKYA3oUqusLZnanl0nn+4R GjI6XEHNfn3nUVVWjlJTilRYUqcGLz9FDemt3p4sJdf30uQRAcwybndulWXsUVJ6qUoq3PIKDlbv IdGK6enb7G2gx2ofdmmOVi/LUZlbcgWGa/T0XgqqKNT2pDxll3spaki0YvoEyPvgjvaoMCFZmzJq 1SBJcihw4ABNGtFFzhaO0R4l27UmsUJ1duMxPWyQJg72l2XXqzh9r1K2l6vGFaj+4/qpX0hjT+Ku UPJ3+9vtgVKoKzhKE6ZFqev3Nbq6au1Ny1Fmdr38ekdr6OAusopytXV9jvLqAzRocowGhBw9+qkr yNHWLYUq8/ipx/DeGhTlfbBt2xV5il+apZJ6yb2jWA3yKGv1Jn2dd+h5HAHhGjujl8JaeQsJcCyH NyV3qda+tVgfptU3fvMvSTVa9cZirZIkS/IZPEUDRk9QL6ckd4nWvrVYH6fVN04ZcqhHXpB+PTRD b7ywUUkF7sYDy1LgpJn66x+HKcSSpAblxS3Xf1/YrNSixsUvJEk+6n3hDN1371D1OGJZhZodiXr3 mTjFpdfIfXC1SIe6Dhujn/1+qsaGn8DlhqdEi373vt5cX7O/+CDtHw05fBQ9bYp+fv8o9T1wD1Zb 3/Pj0do0a7HeTqhr8plm6POXMg69vuVU96tCNfbunu14n71HexbF6e05xao/uF2WAmcG6D8P9W95 qo1dreQ5C/Xqu9uVu88+uO9sW3J1H6w7n79YZ0c0GZi1Zr81trs5qfvbndfQbJ3vn6mFG8oPbpsz tLeu+9MVumSw12Hbsu3t+Xppzm4V10lWk22xLEneg3TfxEt1VtPBirtSW2Z9q9dn71R+bePjbEl+ 3TTh9ov1s8siWrygxvezq/L03Qvf6INFBar2HPpsbctS19HT9Pu/jFGvpg2rjW3p0C0fV+naUT6y 7Mpmt6Nq60a992KyyhovaizvAfJ6Y4Kq31ygjxYXqrqxTVmuEF383K26cSgFKuD08KhwzUq98s8N 2prfINtqXAvLliyfEJ33fzfoJ2f5Hf8x3Yb+3i5O1Uv3zNfKAs8R2xGk0TdfqLtu6KkDtXK7PFNf vbRY8WWHLh6UsFHvJRx6Z5bTX2eH9lfM2QdOQG0453rKtf6dxXpva+O4wXKo6zm+OmNIrAIKdujz lxYrqbrxIsjhpwld+uq+aX6ydDxjpdbtg4MXK9X5Wvz8V5q1uFA1B5/fS5GTJ+ueB8dpYBdJ7nzF vbJEX+c0yBWxXt1Ki5S/T7JcQZp4bX/lzdusHZW2bMtLA++4SY9dG6jUeUv1zqIquQOCNc+vQtkF btmWl3pfOFZ9t27Q8sx62bLU5awL9NSfRyisyQVj8dqVevHv65Vc5D64P5zBUTr/lxfrpqlBckmy i3dq3ouLlVBpy5ZDvbbkKDJti9bvrd//N5alwMFn6pdPT9XwLoc+Hbs6V9/8db4+XFmifXaTcYb2 f07OkTM09NnRjWNbtIe6zBS9/+xiLUqqbizkqfE48dGAm6/UH34c3WTNl9a1j5ptm/XOi9tU5pbk CNTw+HDlr9rfb0iSLIe6jZqge34/ScODLcmuVMIHi/XW+tr91wKWpYAJTg0bPkLdmj1Ge+m8pKV6 e27ZwePfNaxe0ff5a+Hzy7Q0pfrg8eoIH6EHX/uBRgdKduluffWfxdpQ3qSvcfVQXewNuqhH842u ImG1XvjLGiUeuB6xHAruGyZXdr6KGqukrq/O1pMvnqVeB7oDd4XW/ed9vTI/W2UNjW/ZO0hn3nuV 7vthiJySGlK36J0XElTccOi1dn69VDubvLYV2E9eo3tqencOCJwclm0funw+nEepL72uP87rpttn X61pwd//RHZpov56/QKlhQXJp6BKfhPH65prh2hYVIk+vm+e4vtO15//OEJhlq2ipfP1+FNpco8Y q+t/MkpjBnWRV3Wxtn2xVK++kym/y6/Wkz/vLb/G527I3KRn7l+sZP/+uuxnE3XO2HB1c9Zo9+p1 evufG7W7x2Q9/q+z1Pd4K3j1O/Xy9Z9q2b4++vHrV+j8CKmmqESpi1bozTcz5J52qZ5+eKCO/EK/ 9e/5wEdapM9/8bY+0mT99YUJij6FX+U2rPtW9zyapIG/uVsPXeB77D+oT9e/r/hcmyZfoZcfHdDC PbN1Sn19tv7yQYnCp03SDdcN0ZC+AfKuK9OSJ9/RG2tdmvb0nbpj3P5BYpv3W8MevXXLh/o235Yr op8uu2uKZowLkU/uFv37wSVKHnSBnv/LCB34gqpm9dd64LGd6nHNdN1wSV/1ifCVl6dORckJevWx OCVUx+jeuZdp0oG3b9doywuz9ezn1ep90dm6/uqBGhjlrfrcLMW9vlAfrGjQhD/8SD+f6s+3I23V UKj5v5mtWUk+Gn3DVF05s696h3vJU5Ku1+/+UitqYvTz9y/T5IMDwLa1JblL9M3D72lWwTA98tJ0 DQtQ4/H0ruLGXK+/3R7ZTJGvsQ+b61b3yFoVVIdrxq2TdN7kSGnZPD3xRpWmP3WLbjyD0j9wOpSv WaDHHktU5YARuvanYzV+WDd1cdZp94ef6rE3cxVxw016+qcRTY7tNhzTbezv3alx+s298cqPmaw/ PXeW+jjrVZ6Tq7Xvfaf3v6tS7K9u0cMXBR11bjgwDsi59Hr9457o1n/Z0Ipzrp27UX/6ySoFPXy7 7ju3yQLmdpm+uv8NfRJyof71f7EKaPzF8YyV2rQP3KVa/H/v6/WNXhp183RdN7OXIpyVSlu8Wm+/ kaKSgVP1+N/OVC8vSXaNlv72v3p5naWeF12oB34Sqvg/vKs5SR51PXOqfvXQUFW/NUv/2DZUf3z1 bPVz2sqZ/b4eejVX3kPH65e/HyufuXP054+KpMhY/fSJ6RqxY4Ee/sc+Xf3Wdbowcv+brt68RI89 slEl/Ufq5nvO1JkDfVWza6cWvLxEX21zacrjN+lnEw+d0z271uh3d67QLreloOFjdNPPxmpsjJ/K ly/Qk0+nKegnt+qPN4Y0zoxxK/3lt/TEl96a/vNp+uFZEeoe7CXVVmn3d0v03HMpKhkxXc/9fUyT wglOJU/uNj1/3zfaqJ6a+dPJOm9ipMIDpaqE5frjwxuUP3S6nn1ujA5cJ7e1fZR++ZHue263GpyB GnrNubrh8v7q6V2p7UvX6K1XklU0cKr++OyZ6tl4DNlFifrbjxep4oam7UaSO18f3zlLC2Mu0fOP xBy8ntn/JvZfC8zJ66oId5nKI4bqylvHaMJwX6X88329ltJfv/jPDzSu65Hv3tbeWe/pkXcsXfPq Tbqs99GNzs5P1LN3LtDWkGH6yYOTNb63lB23Sq+8kKjssNF66LkJcny1XCu9huvma3sp0HIr/s8v 6Pkl9ZJPN42/dZqu/kEvdVeB5v3hI32aNVAPvPdDjTtiwcz6lfN152MZGvvEz/XzyXzZg1PnJI/Q bdXkVqjbJVfosfv6Nk5LCtZtb9+rWx0OOSXZlTv04UupqoidrCeeOkt9DpQ9vcM05uZLdEfum/r7 V+u05vremhYqya7Uiv+u0Fb1021/u0wzehzoBgLVf9o0/aquVL9+doO+WjtG90w+VrpFC7z66Uf/ uk6TqkM0NNIpS5J/WJhGX3+h6ne8pufjtmj9nQM1rdvxvefOwr1jg976sECB0y/R7x4ddLBgIFew pj96s/rsdar34MZ3fAL7zXJF6PI/Xq6rYhqfq/8wTRwSp4S0XO1xj1CwS5Jsle0pVqUrQmdfNVgx B77OcHordPgYXX7eZm1b4q8uTXZAfdJavflFqSKuulq/vauX/Bv/xKdnH/3wkYtUetcH+np2oq48 e4J6cD9AG9gqmL9YH2+Rzrj/Gj1wcfChdh86WD/9V1ed3xCimCbfUrU/n0+fAAAZl0lEQVSpLcmj nM8X6qODt3y0cfM8lcqr6Ksf/fNyzezT2OVdeY1evkxyOhldAqdFbaY+/XeiCnqM1m//Nl1DD8Zo +6rfdZfryZEVChwc0fw5tBXHdFv7e+fgiXr0+d4qCe+lvj6WJG8F9eqtC359vnK2zdHC+SnKubB9 zw1WRIzGD4nTR8t2qfqcQwUJOydd8akujXi478H3dVzn3Dbug/LlyzU73q3h992kX18S1HhRFqIR V16k34fa+u2fV2vWt4P18MVdD174WV1idPXtgxXVxa1+/XyktC6aefc4DQ61VDIwWNaiIuXUS/0O vIijq6bePlEjI1zaNyhEDqtcQ244V+fG+Mt2dFe4naCsbI8U6ZQa8vXVi5uVEzFajz7TWMCWFDA4 Vjc+HSKf+9/X3P+s1Tljpin2iNtFHFGjdO9T0zSs8QLMf+oQDXshRavT8lWnEPlKkl2vnMwKqc9E zTyvpyIPjJh9AtRv5lma8eV2zQvyVyu+CsLJYNco/rVlWl8ZqWv+dZWuiDl0CdN19BT99oVBqoqI OlikOP724VD01ZfqoTt6NM7MCNGwy36o33Vp0CNPx2vuqhH6xdT9hUMrdJBmTFqu5xdu065rp6h/ 4ya5d6Zp7R4fjb69z+FFiqZvp7RUJbET9btnJmtgYzs8+/d3aqLtkPO4+hlbOYu3KKEqWDP/dJ7O HbJ/Y2IuPF+/LC3Uo2/lKrM6QJfcfKFGHPmnlpeG3H6V7r3ywPgtSmdPCdfnr+VrR7ZH42IYFOP0 OOlfJVpBg3T9T/sefu9Ukwv2+sRUbSi2FDpCSpq/UUlH/H1tnY+s2lylZbg1LdQpu2yn1m6ulatP gKrXbNbXR75gqeSvWmUkFck9Oeq4CwN+0T01Qh5V7slSanKesnIqVVZZr5K9khoqVVTikbo1f6Ae 6z13Dh7tXJSkPequq24aqOAjru8cgSEaGHvo/yey3xwDBmli/6Y/ccnXz5Lq6g+bMhs+IVYDZy3V G3e9r8TpMRo2uLt69Q1Tz15dFHv3T/XmHQ65DrZwj3YuT1e+7a+RXvlaNrfgqPdX5eeQe2e2Mqql HoFCa9llil+UpbqIkbrsB8FHtXufyCgNPOwnbWtL7r2b9fpbTW75aOv2WU71veZcXdCnaXdnydm5 DlCgQ6nbnKTVeU4Nu3+8hhzZ37r81Wv492TeHfOYPp7+3kthQ/sqzFOr/KTdSksvUl5hlaqq92l3 veQpqlCJR+1bxLa6aNyUKH3wVpoSKmM1qYsk2cpfmaYdPn1017hDsyyO55zbpn1g79OWxTtU2XWw Lrwg6Kh1QIInj9XZUWn6ZkmGii8ardDGnzt7R6lfoCRZcnk55egaqQHR+7fa5eWU5Dl8QT5XmGIa L0CdLqccjiANiN3/jbftcsoljzyNQQPujFSt2S31v2PM0QVs7+46/7I++uLZVK1KmqrY0U07fEth k2IV27SJWV7y9ZXs2gY1HLivw/LR8Gn91OWvK/TY3TmaPLWPYmLC1atfmHpEhOmyF+7VxZZT1Lvb h12xQ8tX1yjg7PM1M+bIyxeXQgZFK6TJT467fTgCNfysyKMig4PPnaKLPn1L89fnyj21b+MFlI9G /jBWoUuTtWzrRPUf5ZLkUeaydOUGDdDNo79nzTdHsKbfNeFgkUKSZDlOoD3ZKi+qlu3opuieTT8f hyKHRylYGSoptaWezbyAK1qTpjUdv1ny9feSZVerrvbohwPt5aQXKnzPGKDh33ORt6+kWnW2R9lL V+idpc0/xvIJVdfGrwns8mqVu6W6tES9n9bC450+GhTkfQLT9W2Vbl6nd/+zTvEZNXI7vdUtOlRR kQFy1tkHHtKiY73nzqFe2bsr5AkYon7Rx/6kT2S/OYL8j7rNpjnOPmP10L+7auHcbYpftlbxH9fJ bUuWT6D6Txii864br6mxfo0DKlvlxTWyPXXa9MESbWp2gyx5hfkrgMJx27iLtXevR87hkerTqpy9 NrQlu0ZrXluppNquGueXo0Vzcpv8rlrJxR5VJm3Tl7Mz5fDqqmEXxKp/lyOew9FNoyeEsGgmYAxb JZnFqnZ0Vd+Bx3Gr3TGP6ePo7+19yvhymd55N1npRQ2yfAMU2bubwsN8VOvRMcLcTxVLoZMHKebV FVq7bp8mTveVZZdpfVyevMaM0cgm4462n3PbuA885crNdssRGaLuzfXzziBF9bDk3l2ifLcU2njF YwX6HragtdXV73vP75avnwKbXiFafgpqYdXAhpwSFXhcmhDdpdntD4gOVpB2KTdrn+zRTRe8tNSl m18r2p2lkPMu0h+7bdE3X6Vq4ydLtaBy/33/XkHhGnHuCF10wygNDePs0h48WUXKqXeox6DurZrF cvztw9H8FxmOIA09o6s+yd4ntw5dQHkNH6EpfRK08Nvdun7UAPm587V2Ram6TpyuIc0tMN/I6tZH Y4aczMswh6Jju8vvs0ytXlaqqZc1Fh7sSsV/nqZivx6K6d1CW/XyV3Cnv45BR3SSCxWWAkID9H03 YPiFBsrXcmnwfbfrt5cGHvNEYQUHKthpyf/sS/TCHwa1OIXqRNRuW6GnHo1XXnh/XfroBJ07MUrh /vtX3do76z098vb35e8c+z23htttGz4N3SlfX0uqq9W+Oh2z5ZzYfrNaN3Bt2KeagN666JcDdekv pfqKMmXvLNCOrbu0buEWvfrATu39y426eaS3JEvdwgLkcAXriv/eoqv6mfxZdzRe8vGR7Kpa7bN1 aCpyi9rSlix5+3nLS2XaOGelNh7xW4/HIxVu1kdbLckVpJmDBqn/iCNOxI4AhTSzujWA08WSj6+X LE+5aqraFuspqRXHdFv7e4/2fjRXT76SI79RY3THoyM1fkQ3Bbgk2dVa/MjLem1XWzfSlttjHecU 7kOs8AEaH7tMH8btVNW0IfLPTtfadJdGXNX3sL627efcNu4DyyVvH8muqFFVc4Ube58qKmxZPl5N khF0aPXJJv9v+6y45n/s8HbJJbcqK+ply3nUw9zlNaq2LXn7uJp5itZthae6Vs5BI3XL2DG6xfao urBYezLylL4pQysWLtVTq/N034sXanyztwbjZLJ8veRt2aqprJNHOuas5eNuH3aD6mqbOybcKiup lZyOw5u/M0xTZ/bQl29v1YayAZqYk6Z12QEae1/0914bOLp1UfBJHpp0mTxMowO2a+VLs/Wn9BEa 20vKXbtVy7e4NeSeyRp/1LoXBzamtUfEMXg8cp/QrBDgcCd99O5wfP9Tuob114iubqV+najMhqN/ b1flaOm7G7WtuDE7o0tvjR7uUk18glbkNtNx2NXaNne1liTXft+kh+/h0fbvkrTXE6Vrn75c18zo 0VikaL1jveejHLF+afXyL3XXJe/q0x0mBxI7FTMySl779io+vqaZz7pBhVszlJxTL6k99putvLmf 6v4b39ecpP0NyatLkPqcEaNpN56n3/z3al3co1iL5+3S/llrDvU+q59CPAVaMX+Papp5xvpdKZo7 O0P5Ju8GE7m6a8hwH7nT0rUhr5m96a5Sxprdyqo68IM2tCXLV2c+fKfe/vYBvbfgiH/f3KrrBrkU df1NenvBA3rvq5/q5iOLFJIkS209RAGcWl2H91QPZ5USVmSpuZnFNXsytTGpUs0ME3TsY7qN/b2n SGsX5aiu1zg98JdzNW10Y5GiUWvOUYevS+5R8guv6sc3LVZS82+g9awuGntODzVsSNPmCo/yVqRp l09fTRjre9iFxfGcc9u0DxxBihkSKOXu1KZdR58k7Zyd2rjDVsCQHopup9vqXIOiNcDbrfQ1u1Rx 1FuuU/LqPap2hmtQ7HF+lWTXaMVTr+neOxZpU6UkyyH/8DANPmuYLr77Uj3576mKKUnRwhWVxzmO QVs4evZUbKit7NXpymru+qGiQAnx+So/kKpxvO3DrtbO9HId2crtkgzFra1Vj/6hRxRJLIVPH6ER 2qW4ZaXKiEtXfliMJg4/xjd6zuMo2h2DO2Ov0mq6aOiU7qpdv0Efv7dFqe4e+uEfbtCDV4ae9Gn0 h32snkLNvedfuuupNFWf5NfB/652H75bgTG6/LooudLX6sV/pyi36dnRrtGWV+brtXfWa92eA3lj XTTlR6MUXZ+p2U8uV0KBu8kfeFT03SK98OJqLVhfcdwnCv9AbznsfSosqDviOepVlFd98k5Alq8C AyzZJZUqOdjJ1mv3llxVuy1ZDpNLkJZCzpugcyL3ae1/vtWinfWH/bZm2yo98+BneuHDnP2DmnbY b7U19fI0FOu71zcp88hRltut+gbJ6XXodOI1YpyuHO+rvC++1StfFhyMtNv/BnI09+lv9NHsZO3a d5wb9D/LR2OuGa0+7j368G9rlV7R9Hdu7f3kCz35+8/18brGXKy2tiUAnY6j7xm6dLKfCuYv1BtL y9S0F7BLM/TOIx/pH89tUZa7xaf4Xm3q7y1v+QdYsqsqVHhk6nFDuQqLWj5LWX6+CvCSqgorD13s NxQrJalSHutkfEtpKXTiQA1079baNblatzxfXmMH6owjp2kfxzm3bfvAqcGXjtFAryJ98/xKJZUe +kzsyhzNe26N0hSu86/o226LS1qhsbpweqCqV8bpzW+LVXfwN24VxC3ROwsqFTh5rM5p7p78VnGr dp9HnsJkffhB1uFtSJKnvkFu25LLRSW8XXj11Mxresk7Y53+8+oulTatJHjKFffMR/rr/y3VmsLG LzqPu314tGPuSq0paNrG8/TNM0u0rqGXZsw4+rYzKzhG08/2Vsr8pfp8WblCzh6sga26Ffbksmvq VGsFaORPrtBfZt+nt7+4W8/+8xJdf07IUWtunAhHoJ8CLLdKCg5dI9nF2UrZ45ZHVidbow+nk/Px xx9//OD/7Hplrd2m1fFZSk/OVurmTG3P88jH31bx9hxlpJXKjghT6IHgcdUre22SVsVnKT1pr7Zu LlKly0uuqhJlJOdoR2a9gvsGyf+wI9pS0NA+iireqaXzN2vhd5nKzi1TzvZMxb29WHOWVypkxvm6 86rwg/nmru69NDy0WOu+2qIFX6YpPatMeZm52jw/Tm/N2q2aPmN05/3DFHlcR6Gl4J6+2rMkUXHf pml7XpUK9xYoNT5Fi2fH6bO4MtXZttwej6pzSlUb3FXupJQ2vucDL+Wlrg3ZWvbddiWmVqm6qECJ X63QnK8L5XXmZP34yoiDq3q3lV1VoPULUpW4NUfpyTnanpipremVsn285S7I1/bkHO3YXiZ1D1WI nyXJrcLNSVq+au/+xydnaduGfJU6veRXW66M5BztzPIotG9X+R7YJq9gDR3upYzvNuvbz5K0ZXux 8rKKlLp8nd59eauy/Prpxl+PV0zj/aSt32/1yolP0qq1e5S0MVeFbpd8PdUqVld1r8/S8kU7tG3T bu0uccjHr0GlpV6K6uWv6i0J+i6hSnV5mVq9Mk9FJRXKTs9S4vIt+vSlFVpd0l2X3z9Zw0Mbd4bl oz7jItWQkKTFX27WsvhC5eeWKDMxVfNeXKqlu7018u4LdfVwP9YzaCNnWLSGhRVr7Reb9M03GdqZ WaqczFxt+jxO787NkT1kou64rY+6Hbyps21t6TB1pUpcmKxNW7KUvCFLufVeclWWaG+Zt6Ki/eUo ztaqRelK2tZMH5acr2LvbuoR0txUYADtxvJWz9ERcids04JPN2t1QqFys0q0OyFZn724UvEFgZr8 i/N0Xj9v2UXHcUy3pb+3fBUVUqn4r7cqbvEe5RZXKHdHjhLjEjX/tZWK21Uv2+OW212vor375Ncz RF0PXIQ4/eXMTNKKuF1KLahVReZerXh3mb7Z5lHMjTN0xRkBB6Mu23zOPfBW/AO1b/NGfbcuSzm7 GhR78wyd3e/oPqzNY6U27ANLkiMoUkPCixX/ZYIWfZeprPxyZW7YprkvxWnpDi+N/vll+vGkQDnt Wu1esU0rV+zSniqXuoYGq7uzUKu+TlFqgaWAbkHqEVKjLV9v0/odtfIJDlDgvnxtjNuu5L0N8u3W VZHhDUpfuFWrU6vlHRSoiJ4+KliRqOUbilXvH6DQnqGK6OqtyDMi5d68Vd/N26p1qaUqzspR/Kdx enfWLlX1G617f3+m+vhJaihX0qIkbdi0R4lbS1Tn7S1HeYUaQkLk3JGs5Sszta3p+MPRVT1Dbe1Y uFGbctwq3Zaq+G1lKiso0e6kTK3/dp1mvbJFWd1H67a7Bqn7id7/i1awFBjbW9HFO7T48w36Li5H WVmlyk7fpWVvLNHnG2rV44rzdcvU4P23H1mu1rePRvvSkvT12go56oq0fskeFZRXateaLfr4xWVa nOGrib++VNee4dvM+MGpsOAqrfxgq9KrgjXtrikaFX74oyq3p2v5st1KTc7eP3apccnXUaM9Kc1d X+1nVxZo3bepSty2f2yfvmW3Uvc2yMvfUvmuXGWkFKg8IERRQftLA1agW7u+2qRVSVWqLihURlK2 0rblaMeOYpVUSQEhAfJtHIdV70jXsiW7lNR0fF3iUmRojRIWpGjzpkwl7donl59LNUV1CuwdrMDG v3V081Lx0m1aHb9XeVU1yktK07z/rlVCZTf94BdTNTqCUgVODstuOl/RnadP7pmtTzLqj7w7Yf+D nf6a/PvbdE9jLI/c+Zp772x9nFYnTzOPd3Tpr9tfvULTwpu5JLDrlb1qg774LEVb0kpVXu9ScO9o jb1wvK64JFpBR10p2qranqL5cxK0dlO+Cipt+YaHaciUUbrixmHqe4KLwNTn7tD8t+IVty5P+RW2 fLoFa8D4WJ07LUwFX6zSgk0lKq91aejPZmrwwvn65HjesyTZNcqYv0pz5qZre06dvMPDNeL8M3Xl 1TGKOoGvIdxbl+mhB9cpp77lx1jOAE157DbdPdlHssu1+Hfv6PX4fc2+D0lyBg/WPa9foknBR7xW 0V4tnr1OS1dlKauwQc6gIPUbN1QX3TJWo6OOnFjWiv3mKdTn983SnJQm7c5yKPiCS/Rg/w168r97 VXPw55JXrwn6w6tnK3ThZ/rDZ0G6+ipvbZ2fqq3pZap0O+UfEqy+I2M047ozNaFfM4us1pUr8Yt4 fbVgh7bvqVKty0+Rsf005dqJunBc15O/wuz/DFuVaUn6cnaC1iYUqLDKkn/3cA07d7SuvD5WPZtZ xL9tbWk/z94N+vPdS5VSbR+ajWNJPgMm6bGXJil85Xw99GSyyhqambJtORVx9TX6+109qfgDJqgt U8Lna/XVwp3anlUtt7e/ImP765wbJuqCkYFySqqMO4FjutX9vUelCZv18awt2pBUoop6pwKjumvE ucM1ZWi9Vr6zXht3VarWEabLnrlJVw0+NEixawq1+t3lmrc4S7kVloL69NLEqybq0unhTeJDj/+c K0nly7/V439LVkX0GN3/j6kHYzWPdhxjpVbsg6bPX56UqHmfpGjrtnwVeALVZ1hvTbh8vM478NiG PXr3Jx/r6+zGhSejx+q2Swr0zsuZqrElR9eBuu0ef332bIIKGyTLu5vGjazTxvVV+xfE9ovSNb/o rTX/Wqs9tZJcgTr315NV8/JCrS31SJaXBt5xkx67Lmx/EWhfidZ/Eq/Fa/YqY/c++fWM1OAJw3TJ NYfOO3ZBop65Y4E2Vxw6b1gOX43+1dWasPYTvbyy5tB+sRzqNvNy/ePBntr2zNuaZY/TVT3ztGTR TmVkVave6a2gyHANOmuYLr5uuAYEUfZuV3ad9i7foHmfpSgxvUxVHi916xOtMy85S5fPjDxs8VZJ rWofB5R++ZHu+2eZpv9uurqtWq1FawpU5ddN/Yf11llXTdD0Yf4tf5HlztOc22fpC52pJ16dogGH DWHc2vbim/rr3NIm6XWHHDY+b/pXW5bq179Zr7wWxvaW5aXet1yvJ2+NkNOu045PvtTfX92hUqev ugS65LRsuevdqq2qVW2DLUeXCE2960LdOjNEO/77hv7y8eHb4xV9ph5+yKG3Hl6rrNpD/a3lH62b XrxeF/U+9OHW52Ro3mtrFLepUGUeP0UOjdH5N5+laUO/5zMC2ujwQgUAAAAA/I85UKi44PnbdPOw tl1u26Xb9Owt3yr/ipv09G0R7f5lSP22ZXr4gUQF33CpfnFzb4U0LZR46lWek6+EL5brvbmVmvS3 W3XryNNwbwrQRhS9AAAAAOC42CpZkaz/b+/+XaIOwDiOvz1KcTm5TNTujLgGiYYsDpys66SgoSGc cqrBtcU9iLagrUCnaIg2W/wFhYWcLiVocQUFnlBe6Bfv1DLMrrM1RCGivBPfr//i+fA8nyezUU/7 uYYybGyWyL3MEkRO0LU1pAAIHSQcjdLRk6Iz9oWp9AJ/Wf8j7SqDCkmSJEn6QxtvJ7jZ/YD7T1co recYGfjIgcQZUvFyjFYhIi0RagpZXowtsb7trnyRxcnXvPocoqkl7ACoPcFzfEmSJEn70mYhR/p5 joU3q5Q2vzM7NsVwtp62C3GO7FDU/zPIM7+YZ/7JOH2Dn5hcOcr12yc5VKbKknDyPD0zA/Tfecj0 4xinTjcTbayluqrIWpBndnqOTPYHh1OdXLsUtlBce4IdFZIkSZL2pW8TI/TeyrD82z1EVW0zV+91 c/nYDiN9Mc/43SEepZepibdy5UaS5PFtCtx3VZGlmXc8G31P5kOBIPjKWqmaSGMdTfEYiYttnE3U /dNXpdL/ZFAhSZIkSZIqhidKkiRJkiSpYhhUSJIkSZKkimFQIUmSJEmSKsYvtbGuNVcy2kEAAAAA SUVORK5CYII= "
       id="image25672"
       x="114.01363"
       y="48.335724"
       style="mix-blend-mode:multiply" /><rect
       style="mix-blend-mode:multiply;fill:#ffff00;fill-opacity:1;stroke:none;stroke-width:0.35231;stroke-linecap:square;stroke-miterlimit:4.1;stroke-dasharray:none;stroke-opacity:1"
       id="rect27294"
       width="39.472195"
       height="6.3466473"
       x="113.97762"
       y="49.035599" /><rect
       style="fill:#ffff00;fill-opacity:1;stroke:#000000;stroke-width:0.246263;stroke-linecap:square;stroke-miterlimit:4.1;stroke-dasharray:none;stroke-opacity:1"
       id="rect27152"
       width="15.15178"
       height="8.0782976"
       x="52.224457"
       y="77.75428" /><text
       xml:space="preserve"
       transform="matrix(0.26458333,0,0,0.26458333,-76.923654,-78.030283)"
       id="text26420"
       style="font-size:16px;line-height:2.05;font-family:sans-serif;letter-spacing:0px;word-spacing:0px;white-space:pre;shape-inside:url(#rect26422)"><tspan
         x="313.80078"
         y="476.98594"
         id="tspan491"><tspan
           style="font-family:interval;-inkscape-font-specification:interval"
           id="tspan489">background: repeating-linear-gradient(
</tspan></tspan><tspan
         x="313.80078"
         y="509.94217"
         id="tspan495"><tspan
           style="font-family:interval;-inkscape-font-specification:interval"
           id="tspan493">      var(--english), 
</tspan></tspan><tspan
         x="313.80078"
         y="542.89841"
         id="tspan499"><tspan
           style="font-family:interval;-inkscape-font-specification:interval"
           id="tspan497">      var(--english) 2px, 
</tspan></tspan><tspan
         x="313.80078"
         y="575.85465"
         id="tspan503"><tspan
           style="font-family:interval;-inkscape-font-specification:interval"
           id="tspan501">      var(--white) 0px, 
</tspan></tspan><tspan
         x="313.80078"
         y="608.81089"
         id="tspan507"><tspan
           style="font-family:interval;-inkscape-font-specification:interval"
           id="tspan505">      var(--white) 5px);</tspan></tspan></text><path
       style="fill:none;stroke:#000000;stroke-opacity:1;marker-end:url(#Arrow1);stroke-width:0.4;stroke-dasharray:none"
       d="M 60.228106,85.675464 V 94.1834"
       id="path27206" /><text
       xml:space="preserve"
       transform="matrix(0.26458333,0,0,0.26458333,-39.292038,-25.681357)"
       id="text27282"
       style="font-size:16px;line-height:2.05;font-family:sans-serif;letter-spacing:0px;word-spacing:0px;white-space:pre;shape-inside:url(#rect27284)"><tspan
         x="313.80078"
         y="476.98594"
         id="tspan511"><tspan
           style="font-family:interval;-inkscape-font-specification:interval"
           id="tspan509">value to change</tspan></tspan></text><rect
       style="fill:#ffff00;fill-opacity:1;stroke:#000000;stroke-width:0.246263;stroke-linecap:square;stroke-miterlimit:4.1;stroke-dasharray:none;stroke-opacity:1"
       id="rect27296"
       width="15.15178"
       height="8.0782976"
       x="114.81034"
       y="38.840153" /><rect
       style="fill:#ffff00;fill-opacity:1;stroke:#000000;stroke-width:0.246263;stroke-linecap:square;stroke-miterlimit:4.1;stroke-dasharray:none;stroke-opacity:1"
       id="rect27298"
       width="15.15178"
       height="8.0782976"
       x="155.68536"
       y="38.840153" /><rect
       style="fill:#ffff00;fill-opacity:1;stroke:#000000;stroke-width:0.246263;stroke-linecap:square;stroke-miterlimit:4.1;stroke-dasharray:none;stroke-opacity:1"
       id="rect27300"
       width="15.15178"
       height="8.0782976"
       x="196.58873"
       y="38.840153" /><rect
       style="fill:#ffff00;fill-opacity:1;stroke:#000000;stroke-width:0.246263;stroke-linecap:square;stroke-miterlimit:4.1;stroke-dasharray:none;stroke-opacity:1"
       id="rect27302"
       width="15.15178"
       height="8.0782976"
       x="237.82451"
       y="38.840153" /><rect
       style="mix-blend-mode:multiply;fill:#ffff00;fill-opacity:1;stroke:none;stroke-width:0.277597;stroke-linecap:square;stroke-miterlimit:4.1;stroke-dasharray:none;stroke-opacity:1"
       id="rect27304"
       width="39.472195"
       height="3.9402399"
       x="155.2065"
       y="49.102409" /><rect
       style="mix-blend-mode:multiply;fill:#ffff00;fill-opacity:1;stroke:none;stroke-width:0.19317;stroke-linecap:square;stroke-miterlimit:4.1;stroke-dasharray:none;stroke-opacity:1"
       id="rect27306"
       width="39.472195"
       height="1.9079735"
       x="196.02979"
       y="49.102409" /><rect
       style="mix-blend-mode:multiply;fill:#ffff00;fill-opacity:1;stroke:none;stroke-width:0.130393;stroke-linecap:square;stroke-miterlimit:4.1;stroke-dasharray:none;stroke-opacity:1"
       id="rect27308"
       width="39.472195"
       height="0.8693676"
       x="236.75285"
       y="49.102409" /><text
       xml:space="preserve"
       style="font-size:4.23333px;line-height:1.25;font-family:sans-serif;letter-spacing:0px;word-spacing:0px;stroke-width:0.264583"
       x="241.46155"
       y="44.138168"
       id="text27314"><tspan
         sodipodi:role="line"
         style="font-style:normal;font-variant:normal;font-weight:normal;font-stretch:normal;font-size:4.23333px;font-family:Interval;-inkscape-font-specification:Interval;stroke-width:0.264583"
         x="241.46155"
         y="44.138168"
         id="tspan27312">5px</tspan></text><text
       xml:space="preserve"
       style="font-size:4.23333px;line-height:1.25;font-family:sans-serif;letter-spacing:0px;word-spacing:0px;stroke-width:0.264583"
       x="199.12823"
       y="44.138168"
       id="text27320"><tspan
         sodipodi:role="line"
         style="font-style:normal;font-variant:normal;font-weight:normal;font-stretch:normal;font-size:4.23333px;font-family:Interval;-inkscape-font-specification:Interval;stroke-width:0.264583"
         x="199.12823"
         y="44.138168"
         id="tspan27318">10px</tspan></text><text
       xml:space="preserve"
       style="font-size:4.23333px;line-height:1.25;font-family:sans-serif;letter-spacing:0px;word-spacing:0px;stroke-width:0.264583"
       x="158.38243"
       y="44.138168"
       id="text28062"><tspan
         sodipodi:role="line"
         style="font-style:normal;font-variant:normal;font-weight:normal;font-stretch:normal;font-size:4.23333px;font-family:Interval;-inkscape-font-specification:Interval;stroke-width:0.264583"
         x="158.38243"
         y="44.138168"
         id="tspan28060">20px</tspan></text><text
       xml:space="preserve"
       style="font-size:4.23333px;line-height:1.25;font-family:sans-serif;letter-spacing:0px;word-spacing:0px;stroke-width:0.264583"
       x="117.63657"
       y="44.138168"
       id="text28066"><tspan
         sodipodi:role="line"
         style="font-style:normal;font-variant:normal;font-weight:normal;font-stretch:normal;font-size:4.23333px;font-family:Interval;-inkscape-font-specification:Interval;stroke-width:0.264583"
         x="117.63657"
         y="44.138168"
         id="tspan28064">30px</tspan></text></g></svg>
