<?xml version="1.0" encoding="UTF-8" standalone="no"?>
<!-- Created with Inkscape (http://www.inkscape.org/) -->

<svg
   width="164.93263mm"
   height="583.55597mm"
   viewBox="0 0 164.93263 583.55597"
   version="1.1"
   id="svg38474"
   inkscape:version="1.2.2 (732a01da63, 2022-12-09, custom)"
   sodipodi:docname="verlagmap.svg"
   inkscape:export-filename="../60ca8aae/verlagmap.png"
   inkscape:export-xdpi="96"
   inkscape:export-ydpi="96"
   xmlns:inkscape="http://www.inkscape.org/namespaces/inkscape"
   xmlns:sodipodi="http://sodipodi.sourceforge.net/DTD/sodipodi-0.dtd"
   xmlns="http://www.w3.org/2000/svg"
   xmlns:svg="http://www.w3.org/2000/svg">
  <sodipodi:namedview
     id="namedview38476"
     pagecolor="#ffffff"
     bordercolor="#eeeeee"
     borderopacity="1"
     inkscape:showpageshadow="0"
     inkscape:pageopacity="0"
     inkscape:pagecheckerboard="0"
     inkscape:deskcolor="#505050"
     inkscape:document-units="mm"
     showgrid="false"
     inkscape:zoom="0.99424265"
     inkscape:cx="355.54701"
     inkscape:cy="836.81785"
     inkscape:window-width="1920"
     inkscape:window-height="1043"
     inkscape:window-x="0"
     inkscape:window-y="0"
     inkscape:window-maximized="1"
     inkscape:current-layer="layer1"
     showguides="true">
    <sodipodi:guide
       position="163.72925,639.24587"
       orientation="0,-1"
       id="guide48210"
       inkscape:locked="false" />
    <sodipodi:guide
       position="6.2166525,338.3296"
       orientation="1,0"
       id="guide1917"
       inkscape:locked="false" />
  </sodipodi:namedview>
  <defs
     id="defs38471">
    <marker
       style="overflow:visible"
       id="Arrow1"
       refX="0"
       refY="0"
       orient="auto-start-reverse"
       inkscape:stockid="Arrow1"
       markerWidth="4.0606604"
       markerHeight="6.7071066"
       viewBox="0 0 4.0606602 6.7071068"
       inkscape:isstock="true"
       inkscape:collect="always"
       preserveAspectRatio="xMidYMid">
      <path
         style="fill:none;stroke:context-stroke;stroke-width:1;stroke-linecap:butt"
         d="M 3,-3 0,0 3,3"
         id="path5057"
         transform="rotate(180,0.125,0)"
         sodipodi:nodetypes="ccc" />
    </marker>
    <rect
       x="423.77365"
       y="351.00571"
       width="255.39384"
       height="209.50163"
       id="rect42130" />
  </defs>
  <g
     inkscape:label="Calque 1"
     inkscape:groupmode="layer"
     id="layer1"
     transform="translate(-4.7577208,-18.728433)">
    <rect
       style="mix-blend-mode:multiply;fill:#ff8080;stroke:none;stroke-width:0.472165;stroke-opacity:1"
       id="rect50145"
       width="100.83094"
       height="7.2902427"
       x="47.513737"
       y="493.29071" />
    <rect
       style="mix-blend-mode:multiply;fill:#ff8080;stroke:none;stroke-width:0.479201;stroke-opacity:1"
       id="rect50139"
       width="103.858"
       height="7.2902427"
       x="47.513737"
       y="470.91937" />
    <rect
       style="mix-blend-mode:multiply;fill:#ff8080;stroke:none;stroke-width:0.466741;stroke-opacity:1"
       id="rect47272-3"
       width="98.527382"
       height="7.2902427"
       x="47.513737"
       y="445.94534" />
    <rect
       style="fill:#ffff00;stroke:none;stroke-width:0.189071;stroke-opacity:1"
       id="rect54867"
       width="29.095789"
       height="6.9006214"
       x="9.1405153"
       y="161.11578" />
    <rect
       style="mix-blend-mode:multiply;fill:#ff8080;stroke:none;stroke-width:0.473543;stroke-opacity:1"
       id="rect50167"
       width="101.42034"
       height="7.2902427"
       x="47.513737"
       y="515.8783" />
    <rect
       style="mix-blend-mode:multiply;fill:#ff8080;stroke:none;stroke-width:0.462183;stroke-opacity:1"
       id="rect49337"
       width="96.612595"
       height="7.2902427"
       x="47.513737"
       y="422.84372" />
    <rect
       style="fill:#00ffff;stroke:none;stroke-width:0.253699;stroke-opacity:1"
       id="rect47218"
       width="52.386089"
       height="6.9006214"
       x="9.1405153"
       y="124.56398" />
    <text
       xml:space="preserve"
       transform="matrix(0.26458333,0,0,0.26458333,15.29403,3.6009087)"
       id="text42128"
       style="font-size:40px;line-height:1.25;font-family:sans-serif;letter-spacing:0px;word-spacing:0px;white-space:pre;shape-inside:url(#rect42130);display:inline" />
    <text
       xml:space="preserve"
       style="font-size:4.23333px;line-height:1.25;font-family:sans-serif;letter-spacing:0px;word-spacing:0px;white-space:pre;inline-size:64.0538;display:inline;stroke-width:0.264583"
       x="8.3032389"
       y="58.493359"
       id="text38597-7"
       transform="matrix(1.9657114,0,0,1.9657114,-11.862633,-36.228805)"><tspan
         x="8.3032389"
         y="58.493359"
         id="tspan6258"><tspan
           style="font-style:italic;font-family:C059;-inkscape-font-specification:'C059 Italic'"
           id="tspan6256">Verlag</tspan></tspan></text>
    <text
       xml:space="preserve"
       style="font-size:4.23333px;line-height:1.25;font-family:sans-serif;letter-spacing:0px;word-spacing:0px;white-space:pre;inline-size:89.1362;display:inline;stroke-width:0.264583"
       x="30.149519"
       y="50.103973"
       id="text38648-8"
       transform="translate(-19.729386,53.58198)"><tspan
         x="30.149519"
         y="50.103973"
         id="tspan6262"><tspan
           style="font-family:interval;-inkscape-font-specification:interval"
           id="tspan6260">background:
</tspan></tspan><tspan
         x="30.149519"
         y="55.436976"
         id="tspan6266"><tspan
           style="font-family:interval;-inkscape-font-specification:interval"
           id="tspan6264"> 
</tspan></tspan><tspan
         x="30.149519"
         y="60.76998"
         id="tspan6270"><tspan
           style="font-family:interval;-inkscape-font-specification:interval"
           id="tspan6268">radial-gradient( 
</tspan></tspan><tspan
         x="30.149519"
         y="66.102984"
         id="tspan6274"><tspan
           style="font-family:interval;-inkscape-font-specification:interval"
           id="tspan6272"> </tspan></tspan></text>
    <g
       id="g39902-4"
       transform="translate(-13.60375,-0.50945587)">
      <rect
         style="fill:none;stroke:#000000;stroke-width:0.264999;stroke-opacity:1"
         id="rect38722-5"
         width="21.109352"
         height="28.99918"
         x="90.256081"
         y="19.370388" />
      <text
         xml:space="preserve"
         style="font-size:4.93889px;line-height:1.25;font-family:sans-serif;letter-spacing:0px;word-spacing:0px;stroke-width:0.264583"
         x="89.139282"
         y="55.735271"
         id="text39141-0"><tspan
           sodipodi:role="line"
           id="tspan39139-3"
           style="font-style:normal;font-variant:normal;font-weight:normal;font-stretch:normal;font-size:4.93889px;font-family:interval;-inkscape-font-specification:interval;stroke-width:0.264583"
           x="89.139282"
           y="55.735271">document</tspan></text>
    </g>
    <text
       xml:space="preserve"
       style="font-size:4.23333px;line-height:1.25;font-family:sans-serif;letter-spacing:0px;word-spacing:0px;stroke-width:0.264583"
       x="18.026335"
       y="68.523796"
       id="text39167-3"><tspan
         sodipodi:role="line"
         id="tspan39165-2"
         style="font-style:normal;font-variant:normal;font-weight:normal;font-stretch:normal;font-size:4.23333px;font-family:interval;-inkscape-font-specification:interval;stroke-width:0.264583"
         x="18.026335"
         y="68.523796">category</tspan></text>
    <text
       xml:space="preserve"
       style="font-size:4.23333px;line-height:1.25;font-family:sans-serif;letter-spacing:0px;word-spacing:0px;stroke-width:0.264583"
       x="18.186527"
       y="190.45465"
       id="text39897-0"><tspan
         sodipodi:role="line"
         id="tspan39895-6"
         style="font-style:normal;font-variant:normal;font-weight:normal;font-stretch:normal;font-size:4.23333px;font-family:interval;-inkscape-font-specification:interval;stroke-width:0.264583"
         x="18.186527"
         y="190.45465">license</tspan></text>
    <text
       xml:space="preserve"
       style="font-size:4.23333px;line-height:1.25;font-family:sans-serif;letter-spacing:0px;word-spacing:0px;stroke-width:0.264583"
       x="11.021734"
       y="353.37048"
       id="text43668-3"><tspan
         sodipodi:role="line"
         id="tspan43666-0"
         style="font-style:normal;font-variant:normal;font-weight:normal;font-stretch:normal;font-size:4.23333px;font-family:interval;-inkscape-font-specification:interval;stroke-width:0.264583"
         x="11.021734"
         y="353.37048"><tspan
           style="font-style:italic;font-variant:normal;font-weight:normal;font-stretch:normal;font-family:C059;-inkscape-font-specification:'C059 Italic'"
           id="tspan43664-7">one file</tspan></tspan></text>
    <text
       xml:space="preserve"
       style="font-size:4.23333px;line-height:1.25;font-family:sans-serif;letter-spacing:0px;word-spacing:0px;stroke-width:0.264583"
       x="10.987437"
       y="364.08841"
       id="text43997-6"><tspan
         sodipodi:role="line"
         id="tspan43995-6"
         style="font-style:normal;font-variant:normal;font-weight:normal;font-stretch:normal;font-size:4.23333px;font-family:interval;-inkscape-font-specification:interval;stroke-width:0.264583"
         x="10.987437"
         y="364.08841"><tspan
           style="font-style:italic;font-variant:normal;font-weight:normal;font-stretch:normal;font-family:C059;-inkscape-font-specification:'C059 Italic'"
           id="tspan43993-4">two files</tspan></tspan></text>
    <rect
       style="mix-blend-mode:multiply;fill:#ff8080;stroke:none;stroke-width:0.339977;stroke-opacity:1"
       id="rect47272"
       width="52.276302"
       height="7.2902427"
       x="9.1944351"
       y="117.13208" />
    <text
       xml:space="preserve"
       style="font-style:normal;font-variant:normal;font-weight:normal;font-stretch:normal;font-size:4.23333px;line-height:1.25;font-family:Interval;-inkscape-font-specification:'Interval, Normal';font-variant-ligatures:normal;font-variant-caps:normal;font-variant-numeric:normal;font-variant-east-asian:normal;letter-spacing:0px;word-spacing:0px;stroke-width:0.264583"
       x="10.461041"
       y="123.63245"
       id="text47417"><tspan
         sodipodi:role="line"
         id="tspan47415"
         style="font-style:normal;font-variant:normal;font-weight:normal;font-stretch:normal;font-size:4.23333px;font-family:Interval;-inkscape-font-specification:'Interval, Normal';font-variant-ligatures:normal;font-variant-caps:normal;font-variant-numeric:normal;font-variant-east-asian:normal;stroke-width:0.264583"
         x="10.461041"
         y="123.63245"> </tspan><tspan
         sodipodi:role="line"
         style="font-style:normal;font-variant:normal;font-weight:normal;font-stretch:normal;font-size:4.23333px;font-family:Interval;-inkscape-font-specification:'Interval, Normal';font-variant-ligatures:normal;font-variant-caps:normal;font-variant-numeric:normal;font-variant-east-asian:normal;stroke-width:0.264583"
         x="10.461041"
         y="128.9241"
         id="tspan47419">var(<tspan
   style="fill:#000080"
   id="tspan48566">--language</tspan>) 2px,</tspan></text>
    <text
       xml:space="preserve"
       style="font-style:normal;font-variant:normal;font-weight:normal;font-stretch:normal;font-size:4.23333px;line-height:1.25;font-family:Interval;-inkscape-font-specification:'Interval, Normal';font-variant-ligatures:normal;font-variant-caps:normal;font-variant-numeric:normal;font-variant-east-asian:normal;letter-spacing:0px;word-spacing:0px;stroke-width:0.264583"
       x="10.628102"
       y="135.79443"
       id="text47423"><tspan
         sodipodi:role="line"
         id="tspan47421"
         style="font-style:normal;font-variant:normal;font-weight:normal;font-stretch:normal;font-size:4.23333px;font-family:Interval;-inkscape-font-specification:'Interval, Normal';font-variant-ligatures:normal;font-variant-caps:normal;font-variant-numeric:normal;font-variant-east-asian:normal;stroke-width:0.264583"
         x="10.628102"
         y="135.79443">var(--white) 0px);</tspan></text>
    <text
       xml:space="preserve"
       style="font-style:normal;font-variant:normal;font-weight:normal;font-stretch:normal;font-size:4.23333px;line-height:1.25;font-family:Interval;-inkscape-font-specification:'Interval, Normal';font-variant-ligatures:normal;font-variant-caps:normal;font-variant-numeric:normal;font-variant-east-asian:normal;letter-spacing:0px;word-spacing:0px;stroke-width:0.264583"
       x="10.54588"
       y="160.18394"
       id="text47427"><tspan
         sodipodi:role="line"
         id="tspan47425"
         style="font-style:normal;font-variant:normal;font-weight:normal;font-stretch:normal;font-size:4.23333px;font-family:Interval;-inkscape-font-specification:'Interval, Normal';font-variant-ligatures:normal;font-variant-caps:normal;font-variant-numeric:normal;font-variant-east-asian:normal;stroke-width:0.264583"
         x="10.54588"
         y="160.18394">background-size:</tspan><tspan
         sodipodi:role="line"
         style="font-style:normal;font-variant:normal;font-weight:normal;font-stretch:normal;font-size:4.23333px;font-family:Interval;-inkscape-font-specification:'Interval, Normal';font-variant-ligatures:normal;font-variant-caps:normal;font-variant-numeric:normal;font-variant-east-asian:normal;stroke-width:0.264583"
         x="10.54588"
         y="165.4756"
         id="tspan54865">15px 30px</tspan></text>
    <rect
       style="fill:#00ffff;stroke:none;stroke-width:0.351622;stroke-opacity:1"
       id="rect48078"
       width="100.63048"
       height="6.9006214"
       x="47.512615"
       y="349.37668" />
    <text
       xml:space="preserve"
       style="font-style:normal;font-variant:normal;font-weight:normal;font-stretch:normal;font-size:4.23333px;line-height:1.25;font-family:Interval;-inkscape-font-specification:'Interval, Normal';font-variant-ligatures:normal;font-variant-caps:normal;font-variant-numeric:normal;font-variant-east-asian:normal;letter-spacing:0px;word-spacing:0px;stroke-width:0.264583"
       x="48.833141"
       y="348.44516"
       id="text48084"><tspan
         sodipodi:role="line"
         id="tspan48080"
         style="font-style:normal;font-variant:normal;font-weight:normal;font-stretch:normal;font-size:4.23333px;font-family:Interval;-inkscape-font-specification:'Interval, Normal';font-variant-ligatures:normal;font-variant-caps:normal;font-variant-numeric:normal;font-variant-east-asian:normal;stroke-width:0.264583"
         x="48.833141"
         y="348.44516"> </tspan><tspan
         sodipodi:role="line"
         style="font-style:normal;font-variant:normal;font-weight:normal;font-stretch:normal;font-size:4.23333px;font-family:Interval;-inkscape-font-specification:'Interval, Normal';font-variant-ligatures:normal;font-variant-caps:normal;font-variant-numeric:normal;font-variant-east-asian:normal;stroke-width:0.264583"
         x="48.833141"
         y="353.73682"
         id="tspan48082">var(--language) var(--verlag-one-file),</tspan></text>
    <rect
       style="fill:#00ffff;stroke:none;stroke-width:0.357703;stroke-opacity:1"
       id="rect48086"
       width="104.14098"
       height="6.9006214"
       x="47.684689"
       y="359.29443" />
    <text
       xml:space="preserve"
       style="font-style:normal;font-variant:normal;font-weight:normal;font-stretch:normal;font-size:4.23333px;line-height:1.25;font-family:Interval;-inkscape-font-specification:'Interval, Normal';font-variant-ligatures:normal;font-variant-caps:normal;font-variant-numeric:normal;font-variant-east-asian:normal;letter-spacing:0px;word-spacing:0px;stroke-width:0.264583"
       x="49.005215"
       y="358.36292"
       id="text48092"><tspan
         sodipodi:role="line"
         id="tspan48088"
         style="font-style:normal;font-variant:normal;font-weight:normal;font-stretch:normal;font-size:4.23333px;font-family:Interval;-inkscape-font-specification:'Interval, Normal';font-variant-ligatures:normal;font-variant-caps:normal;font-variant-numeric:normal;font-variant-east-asian:normal;stroke-width:0.264583"
         x="49.005215"
         y="358.36292"> </tspan><tspan
         sodipodi:role="line"
         style="font-style:normal;font-variant:normal;font-weight:normal;font-stretch:normal;font-size:4.23333px;font-family:Interval;-inkscape-font-specification:'Interval, Normal';font-variant-ligatures:normal;font-variant-caps:normal;font-variant-numeric:normal;font-variant-east-asian:normal;stroke-width:0.264583"
         x="49.005215"
         y="363.65457"
         id="tspan48090">var(--language) var(--verlag-two-files),</tspan></text>
    <text
       xml:space="preserve"
       style="font-size:4.23333px;line-height:1.25;font-family:sans-serif;letter-spacing:0px;word-spacing:0px;stroke-width:0.264583"
       x="10.984322"
       y="374.25391"
       id="text48098"><tspan
         sodipodi:role="line"
         id="tspan48096"
         style="font-style:normal;font-variant:normal;font-weight:normal;font-stretch:normal;font-size:4.23333px;font-family:interval;-inkscape-font-specification:interval;stroke-width:0.264583"
         x="10.984322"
         y="374.25391"><tspan
           style="font-style:italic;font-variant:normal;font-weight:normal;font-stretch:normal;font-family:C059;-inkscape-font-specification:'C059 Italic'"
           id="tspan48094">three files</tspan></tspan></text>
    <rect
       style="fill:#00ffff;stroke:none;stroke-width:0.363895;stroke-opacity:1"
       id="rect48100"
       width="107.77817"
       height="6.9006214"
       x="47.339951"
       y="369.27692" />
    <text
       xml:space="preserve"
       style="font-style:normal;font-variant:normal;font-weight:normal;font-stretch:normal;font-size:4.23333px;line-height:1.25;font-family:Interval;-inkscape-font-specification:'Interval, Normal';font-variant-ligatures:normal;font-variant-caps:normal;font-variant-numeric:normal;font-variant-east-asian:normal;letter-spacing:0px;word-spacing:0px;stroke-width:0.264583"
       x="48.660477"
       y="368.3454"
       id="text48106"><tspan
         sodipodi:role="line"
         id="tspan48102"
         style="font-style:normal;font-variant:normal;font-weight:normal;font-stretch:normal;font-size:4.23333px;font-family:Interval;-inkscape-font-specification:'Interval, Normal';font-variant-ligatures:normal;font-variant-caps:normal;font-variant-numeric:normal;font-variant-east-asian:normal;stroke-width:0.264583"
         x="48.660477"
         y="368.3454"> </tspan><tspan
         sodipodi:role="line"
         style="font-style:normal;font-variant:normal;font-weight:normal;font-stretch:normal;font-size:4.23333px;font-family:Interval;-inkscape-font-specification:'Interval, Normal';font-variant-ligatures:normal;font-variant-caps:normal;font-variant-numeric:normal;font-variant-east-asian:normal;stroke-width:0.264583"
         x="48.660477"
         y="373.63705"
         id="tspan48104">var(--language) var(--verlag-three-files),</tspan></text>
    <text
       xml:space="preserve"
       style="font-size:4.23333px;line-height:1.25;font-family:sans-serif;letter-spacing:0px;word-spacing:0px;stroke-width:0.264583"
       x="11.142828"
       y="383.80807"
       id="text48112"><tspan
         sodipodi:role="line"
         id="tspan48110"
         style="font-style:normal;font-variant:normal;font-weight:normal;font-stretch:normal;font-size:4.23333px;font-family:interval;-inkscape-font-specification:interval;stroke-width:0.264583"
         x="11.142828"
         y="383.80807"><tspan
           style="font-style:italic;font-variant:normal;font-weight:normal;font-stretch:normal;font-family:C059;-inkscape-font-specification:'C059 Italic'"
           id="tspan48108">four files</tspan></tspan></text>
    <rect
       style="fill:#00ffff;stroke:none;stroke-width:0.363016;stroke-opacity:1"
       id="rect48114"
       width="107.25842"
       height="6.9006214"
       x="47.704777"
       y="379.38568" />
    <text
       xml:space="preserve"
       style="font-style:normal;font-variant:normal;font-weight:normal;font-stretch:normal;font-size:4.23333px;line-height:1.25;font-family:Interval;-inkscape-font-specification:'Interval, Normal';font-variant-ligatures:normal;font-variant-caps:normal;font-variant-numeric:normal;font-variant-east-asian:normal;letter-spacing:0px;word-spacing:0px;stroke-width:0.264583"
       x="49.025303"
       y="378.45416"
       id="text48120"><tspan
         sodipodi:role="line"
         id="tspan48116"
         style="font-style:normal;font-variant:normal;font-weight:normal;font-stretch:normal;font-size:4.23333px;font-family:Interval;-inkscape-font-specification:'Interval, Normal';font-variant-ligatures:normal;font-variant-caps:normal;font-variant-numeric:normal;font-variant-east-asian:normal;stroke-width:0.264583"
         x="49.025303"
         y="378.45416"> </tspan><tspan
         sodipodi:role="line"
         style="font-style:normal;font-variant:normal;font-weight:normal;font-stretch:normal;font-size:4.23333px;font-family:Interval;-inkscape-font-specification:'Interval, Normal';font-variant-ligatures:normal;font-variant-caps:normal;font-variant-numeric:normal;font-variant-east-asian:normal;stroke-width:0.264583"
         x="49.025303"
         y="383.74582"
         id="tspan48118">var(--language) var(--verlag-four-files),</tspan></text>
    <text
       xml:space="preserve"
       style="font-size:4.23333px;line-height:1.25;font-family:sans-serif;letter-spacing:0px;word-spacing:0px;stroke-width:0.264583"
       x="11.003858"
       y="420.75201"
       id="text48130"><tspan
         sodipodi:role="line"
         id="tspan48128"
         style="font-style:normal;font-variant:normal;font-weight:normal;font-stretch:normal;font-size:4.23333px;font-family:interval;-inkscape-font-specification:interval;stroke-width:0.264583"
         x="11.003858"
         y="420.75201"><tspan
           style="font-style:italic;font-variant:normal;font-weight:normal;font-stretch:normal;font-family:C059;-inkscape-font-specification:'C059 Italic'"
           id="tspan48126">one </tspan></tspan></text>
    <text
       xml:space="preserve"
       style="font-size:4.23333px;line-height:1.25;font-family:sans-serif;letter-spacing:0px;word-spacing:0px;white-space:pre;inline-size:125.04;display:inline;stroke-width:0.264583"
       x="30.149519"
       y="50.103973"
       id="text48158"
       transform="translate(18.347453,400.64309)"><tspan
         x="30.149519"
         y="50.103973"
         id="tspan6278"><tspan
           style="font-family:interval;-inkscape-font-specification:interval"
           id="tspan6276">circle at var(--verlag-two-languages),</tspan></tspan></text>
    <text
       xml:space="preserve"
       style="font-size:4.23333px;line-height:1.25;font-family:sans-serif;letter-spacing:0px;word-spacing:0px;stroke-width:0.264583"
       x="11.01944"
       y="441.99155"
       id="text48164"><tspan
         sodipodi:role="line"
         id="tspan48162"
         style="font-style:normal;font-variant:normal;font-weight:normal;font-stretch:normal;font-size:4.23333px;font-family:interval;-inkscape-font-specification:interval;stroke-width:0.264583"
         x="11.01944"
         y="441.99155"><tspan
           style="font-style:italic;font-variant:normal;font-weight:normal;font-stretch:normal;font-family:C059;-inkscape-font-specification:'C059 Italic'"
           id="tspan48160">two </tspan></tspan></text>
    <text
       xml:space="preserve"
       style="font-size:4.23333px;line-height:1.25;font-family:sans-serif;letter-spacing:0px;word-spacing:0px;white-space:pre;inline-size:125.04;display:inline;stroke-width:0.264583"
       x="30.149519"
       y="50.103973"
       id="text48168"
       transform="translate(-19.958596,71.777136)"><tspan
         x="30.149519"
         y="50.103973"
         id="tspan6282"><tspan
           style="font-family:interval;-inkscape-font-specification:interval"
           id="tspan6280">circle at 50% 50%,</tspan></tspan></text>
    <text
       xml:space="preserve"
       style="font-size:4.23333px;line-height:1.25;font-family:sans-serif;letter-spacing:0px;word-spacing:0px;white-space:pre;inline-size:125.04;display:inline;stroke-width:0.264583"
       x="30.149519"
       y="50.103973"
       id="text48172"
       transform="translate(18.228943,425.43972)"><tspan
         x="30.149519"
         y="50.103973"
         id="tspan6286"><tspan
           style="font-family:interval;-inkscape-font-specification:interval"
           id="tspan6284">circle at var(--verlag-three-languages),</tspan></tspan></text>
    <text
       xml:space="preserve"
       style="font-size:4.23333px;line-height:1.25;font-family:sans-serif;letter-spacing:0px;word-spacing:0px;stroke-width:0.264583"
       x="11.079527"
       y="467.13507"
       id="text48178"><tspan
         sodipodi:role="line"
         id="tspan48176"
         style="font-style:normal;font-variant:normal;font-weight:normal;font-stretch:normal;font-size:4.23333px;font-family:interval;-inkscape-font-specification:interval;stroke-width:0.264583"
         x="11.079527"
         y="467.13507"><tspan
           style="font-style:italic;font-variant:normal;font-weight:normal;font-stretch:normal;font-family:C059;-inkscape-font-specification:'C059 Italic'"
           id="tspan48174">three</tspan></tspan></text>
    <text
       xml:space="preserve"
       style="font-size:4.23333px;line-height:1.25;font-family:sans-serif;letter-spacing:0px;word-spacing:0px;white-space:pre;inline-size:125.04;display:inline;stroke-width:0.264583"
       x="30.149519"
       y="50.103973"
       id="text48182"
       transform="translate(18.371135,448.28514)"><tspan
         x="30.149519"
         y="50.103973"
         id="tspan6290"><tspan
           style="font-family:interval;-inkscape-font-specification:interval"
           id="tspan6288">circle at var(--verlag-four-languages),</tspan></tspan></text>
    <text
       xml:space="preserve"
       style="font-size:4.23333px;line-height:1.25;font-family:sans-serif;letter-spacing:0px;word-spacing:0px;stroke-width:0.264583"
       x="10.962157"
       y="490.11456"
       id="text48188"><tspan
         sodipodi:role="line"
         id="tspan48186"
         style="font-style:normal;font-variant:normal;font-weight:normal;font-stretch:normal;font-size:4.23333px;font-family:interval;-inkscape-font-specification:interval;stroke-width:0.264583"
         x="10.962157"
         y="490.11456"><tspan
           style="font-style:italic;font-variant:normal;font-weight:normal;font-stretch:normal;font-family:C059;-inkscape-font-specification:'C059 Italic'"
           id="tspan48184">four</tspan></tspan></text>
    <text
       xml:space="preserve"
       style="font-size:4.23333px;line-height:1.25;font-family:sans-serif;letter-spacing:0px;word-spacing:0px;stroke-width:0.264583"
       x="83.81765"
       y="121.66784"
       id="text48192"><tspan
         sodipodi:role="line"
         id="tspan48190"
         style="font-style:normal;font-variant:normal;font-weight:normal;font-stretch:normal;font-size:4.23333px;font-family:interval;-inkscape-font-specification:interval;stroke-width:0.264583"
         x="83.81765"
         y="121.66784">language (position)</tspan></text>
    <text
       xml:space="preserve"
       style="font-size:4.23333px;line-height:1.25;font-family:sans-serif;letter-spacing:0px;word-spacing:0px;stroke-width:0.264583"
       x="83.81765"
       y="129.07619"
       id="text48196"><tspan
         sodipodi:role="line"
         id="tspan48194"
         style="font-style:normal;font-variant:normal;font-weight:normal;font-stretch:normal;font-size:4.23333px;font-family:interval;-inkscape-font-specification:interval;stroke-width:0.264583"
         x="83.81765"
         y="129.07619">color + thickness (files number)</tspan></text>
    <text
       xml:space="preserve"
       style="font-size:4.23333px;line-height:1.25;font-family:sans-serif;letter-spacing:0px;word-spacing:0px;stroke-width:0.264583"
       x="60.867435"
       y="165.40445"
       id="text48200"><tspan
         sodipodi:role="line"
         id="tspan48198"
         style="font-style:normal;font-variant:normal;font-weight:normal;font-stretch:normal;font-size:4.23333px;font-family:interval;-inkscape-font-specification:interval;stroke-width:0.264583"
         x="60.867435"
         y="165.40445">density (license)</tspan></text>
    <text
       xml:space="preserve"
       style="font-size:10.5833px;line-height:1.25;font-family:sans-serif;letter-spacing:0px;word-spacing:0px;stroke-width:0.264583"
       x="3.9714601"
       y="68.634033"
       id="text48204"><tspan
         sodipodi:role="line"
         id="tspan48202"
         style="stroke-width:0.264583"
         x="3.9714601"
         y="68.634033">1.</tspan></text>
    <text
       xml:space="preserve"
       style="font-size:10.5833px;line-height:1.25;font-family:sans-serif;letter-spacing:0px;word-spacing:0px;stroke-width:0.264583"
       x="4.5264206"
       y="190.78716"
       id="text48208"><tspan
         sodipodi:role="line"
         id="tspan48206"
         style="stroke-width:0.264583"
         x="4.5264206"
         y="190.78716">2.</tspan></text>
    <path
       style="fill:none;stroke:#000000;stroke-width:0.236245px;stroke-linecap:butt;stroke-linejoin:miter;stroke-opacity:1"
       d="M 57.866065,120.96906 H 82.057704"
       id="path48212" />
    <path
       style="fill:none;stroke:#000000;stroke-width:0.282587px;stroke-linecap:butt;stroke-linejoin:miter;stroke-opacity:1"
       d="M 60.7387,127.18314 H 80.595694"
       id="path48214" />
    <path
       style="fill:none;stroke:#000000;stroke-width:0.264583px;stroke-linecap:butt;stroke-linejoin:miter;stroke-opacity:1"
       d="m 37.846989,164.28985 h 20.31156"
       id="path48216" />
    <path
       style="fill:none;stroke:#000000;stroke-width:0.146033;stroke-linecap:butt;stroke-linejoin:miter;stroke-dasharray:none;stroke-opacity:1"
       d="M 169.69035,109.38872 H 5.6909546 v 32.81364 H 169.40669"
       id="path48270"
       sodipodi:nodetypes="cccc" />
    <text
       xml:space="preserve"
       style="font-size:4.23333px;line-height:1.25;font-family:sans-serif;letter-spacing:0px;word-spacing:0px;stroke-width:0.264583"
       x="18.186527"
       y="341.51123"
       id="text48274"><tspan
         sodipodi:role="line"
         id="tspan48272"
         style="font-style:normal;font-variant:normal;font-weight:normal;font-stretch:normal;font-size:4.23333px;font-family:interval;-inkscape-font-specification:interval;stroke-width:0.264583"
         x="18.186527"
         y="341.51123">files number</tspan></text>
    <text
       xml:space="preserve"
       style="font-size:10.5833px;line-height:1.25;font-family:sans-serif;letter-spacing:0px;word-spacing:0px;stroke-width:0.264583"
       x="4.5264206"
       y="341.84375"
       id="text48278"><tspan
         sodipodi:role="line"
         id="tspan48276"
         style="stroke-width:0.264583"
         x="4.5264206"
         y="341.84375">3.</tspan></text>
    <text
       xml:space="preserve"
       style="font-size:4.23333px;line-height:1.25;font-family:sans-serif;letter-spacing:0px;word-spacing:0px;stroke-width:0.264583"
       x="18.186527"
       y="406.96271"
       id="text48282"><tspan
         sodipodi:role="line"
         id="tspan48280"
         style="font-style:normal;font-variant:normal;font-weight:normal;font-stretch:normal;font-size:4.23333px;font-family:interval;-inkscape-font-specification:interval;stroke-width:0.264583"
         x="18.186527"
         y="406.96271">languages number (rotation)</tspan></text>
    <text
       xml:space="preserve"
       style="font-size:10.5833px;line-height:1.25;font-family:sans-serif;letter-spacing:0px;word-spacing:0px;stroke-width:0.264583"
       x="4.5264206"
       y="407.2952"
       id="text48286"><tspan
         sodipodi:role="line"
         id="tspan48284"
         style="stroke-width:0.264583"
         x="4.5264206"
         y="407.2952">4.</tspan></text>
    <text
       xml:space="preserve"
       style="font-size:4.23333px;line-height:1.25;font-family:sans-serif;letter-spacing:0px;word-spacing:0px;stroke-width:0.264583"
       x="23.586161"
       y="150.60779"
       id="text48339"><tspan
         sodipodi:role="line"
         id="tspan48337"
         style="font-style:normal;font-variant:normal;font-weight:normal;font-stretch:normal;font-size:4.23333px;font-family:interval;-inkscape-font-specification:interval;stroke-width:0.264583"
         x="23.586161"
         y="150.60779">one language</tspan></text>
    <path
       style="fill:none;stroke:#000000;stroke-width:0.165;stroke-linecap:butt;stroke-linejoin:miter;stroke-dasharray:none;stroke-opacity:1;marker-end:url(#Arrow1)"
       d="m 15.537424,142.20562 v 7.29388 h 6.607338"
       id="path48341" />
    <text
       xml:space="preserve"
       style="font-size:4.23333px;line-height:1.25;font-family:sans-serif;letter-spacing:0px;word-spacing:0px;white-space:pre;inline-size:125.04;display:inline;stroke-width:0.264583"
       x="30.149519"
       y="50.103973"
       id="text48562"
       transform="translate(18.347453,392.45485)"><tspan
         x="30.149519"
         y="50.103973"
         id="tspan6294"><tspan
           style="font-family:interval;-inkscape-font-specification:interval"
           id="tspan6292">1+1 radial-gradient</tspan></tspan></text>
    <text
       xml:space="preserve"
       style="font-size:4.23333px;line-height:1.25;font-family:sans-serif;letter-spacing:0px;word-spacing:0px;white-space:pre;inline-size:125.04;display:inline;stroke-width:0.264583"
       x="30.149519"
       y="50.103973"
       id="text49335"
       transform="translate(18.347453,377.54145)"><tspan
         x="30.149519"
         y="50.103973"
         id="tspan6298"><tspan
           style="font-family:interval;-inkscape-font-specification:interval"
           id="tspan6296">circle at var(--verlag-one-language),</tspan></tspan></text>
    <text
       xml:space="preserve"
       style="font-size:4.23333px;line-height:1.25;font-family:sans-serif;letter-spacing:0px;word-spacing:0px;white-space:pre;inline-size:125.04;display:inline;stroke-width:0.264583"
       x="30.149519"
       y="50.103973"
       id="text50137"
       transform="translate(18.347453,417.32372)"><tspan
         x="30.149519"
         y="50.103973"
         id="tspan6302"><tspan
           style="font-family:interval;-inkscape-font-specification:interval"
           id="tspan6300">2+1 radial-gradient</tspan></tspan></text>
    <text
       xml:space="preserve"
       style="font-size:4.23333px;line-height:1.25;font-family:sans-serif;letter-spacing:0px;word-spacing:0px;white-space:pre;inline-size:125.04;display:inline;stroke-width:0.264583"
       x="30.149519"
       y="50.103973"
       id="text50143"
       transform="translate(18.347453,439.69509)"><tspan
         x="30.149519"
         y="50.103973"
         id="tspan6306"><tspan
           style="font-family:interval;-inkscape-font-specification:interval"
           id="tspan6304">3+1 radial-gradient</tspan></tspan></text>
    <text
       xml:space="preserve"
       style="font-size:4.23333px;line-height:1.25;font-family:sans-serif;letter-spacing:0px;word-spacing:0px;white-space:pre;inline-size:125.04;display:inline;stroke-width:0.264583"
       x="30.149519"
       y="50.103973"
       id="text50155"
       transform="translate(18.371135,470.34358)"><tspan
         x="30.149519"
         y="50.103973"
         id="tspan6310"><tspan
           style="font-family:interval;-inkscape-font-specification:interval"
           id="tspan6308">circle at var(--verlag-five-languages),</tspan></tspan></text>
    <text
       xml:space="preserve"
       style="font-size:4.23333px;line-height:1.25;font-family:sans-serif;letter-spacing:0px;word-spacing:0px;stroke-width:0.264583"
       x="10.962157"
       y="512.70215"
       id="text50161"><tspan
         sodipodi:role="line"
         id="tspan50159"
         style="font-style:normal;font-variant:normal;font-weight:normal;font-stretch:normal;font-size:4.23333px;font-family:interval;-inkscape-font-specification:interval;stroke-width:0.264583"
         x="10.962157"
         y="512.70215"><tspan
           style="font-style:italic;font-variant:normal;font-weight:normal;font-stretch:normal;font-family:C059;-inkscape-font-specification:'C059 Italic'"
           id="tspan50157">five</tspan></tspan></text>
    <text
       xml:space="preserve"
       style="font-size:4.23333px;line-height:1.25;font-family:sans-serif;letter-spacing:0px;word-spacing:0px;white-space:pre;inline-size:125.04;display:inline;stroke-width:0.264583"
       x="30.149519"
       y="50.103973"
       id="text50165"
       transform="translate(18.347453,462.28268)"><tspan
         x="30.149519"
         y="50.103973"
         id="tspan6314"><tspan
           style="font-family:interval;-inkscape-font-specification:interval"
           id="tspan6312">4+1 radial-gradient</tspan></tspan></text>
    <text
       xml:space="preserve"
       style="font-size:4.23333px;line-height:1.25;font-family:sans-serif;letter-spacing:0px;word-spacing:0px;white-space:pre;inline-size:125.04;display:inline;stroke-width:0.264583"
       x="30.149519"
       y="50.103973"
       id="text50171"
       transform="translate(18.347453,370.83505)"><tspan
         x="30.149519"
         y="50.103973"
         id="tspan6318"><tspan
           style="font-family:interval;-inkscape-font-specification:interval"
           id="tspan6316">1 radial-gradient</tspan></tspan></text>
    <text
       xml:space="preserve"
       style="font-size:4.23333px;line-height:1.25;font-family:sans-serif;letter-spacing:0px;word-spacing:0px;stroke-width:0.264583"
       x="18.186527"
       y="545.01215"
       id="text50177"><tspan
         sodipodi:role="line"
         id="tspan50175"
         style="font-style:normal;font-variant:normal;font-weight:normal;font-stretch:normal;font-size:4.23333px;font-family:interval;-inkscape-font-specification:interval;stroke-width:0.264583"
         x="18.186527"
         y="545.01215">languages </tspan></text>
    <text
       xml:space="preserve"
       style="font-size:10.5833px;line-height:1.25;font-family:sans-serif;letter-spacing:0px;word-spacing:0px;stroke-width:0.264583"
       x="4.5264206"
       y="545.34467"
       id="text50181"><tspan
         sodipodi:role="line"
         id="tspan50179"
         style="stroke-width:0.264583"
         x="4.5264206"
         y="545.34467">4.</tspan></text>
    <text
       xml:space="preserve"
       style="font-size:4.23333px;line-height:1.25;font-family:sans-serif;letter-spacing:0px;word-spacing:0px;stroke-width:0.264583"
       x="11.003858"
       y="562.0271"
       id="text50187"><tspan
         sodipodi:role="line"
         id="tspan50185"
         style="font-style:normal;font-variant:normal;font-weight:normal;font-stretch:normal;font-size:4.23333px;font-family:interval;-inkscape-font-specification:interval;stroke-width:0.264583"
         x="11.003858"
         y="562.0271"><tspan
           style="font-style:italic;font-variant:normal;font-weight:normal;font-stretch:normal;font-family:C059;-inkscape-font-specification:'C059 Italic'"
           id="tspan50183">english</tspan></tspan></text>
    <text
       xml:space="preserve"
       style="font-size:4.23333px;line-height:1.25;font-family:sans-serif;letter-spacing:0px;word-spacing:0px;stroke-width:0.264583"
       x="11.01944"
       y="572.74359"
       id="text50193"><tspan
         sodipodi:role="line"
         id="tspan50191"
         style="font-style:normal;font-variant:normal;font-weight:normal;font-stretch:normal;font-size:4.23333px;font-family:interval;-inkscape-font-specification:interval;stroke-width:0.264583"
         x="11.01944"
         y="572.74359"><tspan
           style="font-style:italic;font-variant:normal;font-weight:normal;font-stretch:normal;font-family:C059;-inkscape-font-specification:'C059 Italic'"
           id="tspan50189">dutch</tspan></tspan></text>
    <text
       xml:space="preserve"
       style="font-size:4.23333px;line-height:1.25;font-family:sans-serif;letter-spacing:0px;word-spacing:0px;stroke-width:0.264583"
       x="11.079527"
       y="581.98364"
       id="text50199"><tspan
         sodipodi:role="line"
         id="tspan50197"
         style="font-style:normal;font-variant:normal;font-weight:normal;font-stretch:normal;font-size:4.23333px;font-family:interval;-inkscape-font-specification:interval;stroke-width:0.264583"
         x="11.079527"
         y="581.98364"><tspan
           style="font-style:italic;font-variant:normal;font-weight:normal;font-stretch:normal;font-family:C059;-inkscape-font-specification:'C059 Italic'"
           id="tspan50195">german</tspan></tspan></text>
    <text
       xml:space="preserve"
       style="font-size:4.23333px;line-height:1.25;font-family:sans-serif;letter-spacing:0px;word-spacing:0px;stroke-width:0.264583"
       x="10.962157"
       y="591.82623"
       id="text50205"><tspan
         sodipodi:role="line"
         id="tspan50203"
         style="font-style:normal;font-variant:normal;font-weight:normal;font-stretch:normal;font-size:4.23333px;font-family:interval;-inkscape-font-specification:interval;stroke-width:0.264583"
         x="10.962157"
         y="591.82623"><tspan
           style="font-style:italic;font-variant:normal;font-weight:normal;font-stretch:normal;font-family:C059;-inkscape-font-specification:'C059 Italic'"
           id="tspan50201">spanish</tspan></tspan></text>
    <text
       xml:space="preserve"
       style="font-size:4.23333px;line-height:1.25;font-family:sans-serif;letter-spacing:0px;word-spacing:0px;stroke-width:0.264583"
       x="10.962157"
       y="601.42926"
       id="text50211"><tspan
         sodipodi:role="line"
         id="tspan50209"
         style="font-style:normal;font-variant:normal;font-weight:normal;font-stretch:normal;font-size:4.23333px;font-family:interval;-inkscape-font-specification:interval;stroke-width:0.264583"
         x="10.962157"
         y="601.42926"><tspan
           style="font-style:italic;font-variant:normal;font-weight:normal;font-stretch:normal;font-family:C059;-inkscape-font-specification:'C059 Italic'"
           id="tspan50207">french</tspan></tspan></text>
    <text
       xml:space="preserve"
       style="font-size:4.23333px;line-height:1.25;font-family:sans-serif;letter-spacing:0px;word-spacing:0px;white-space:pre;inline-size:125.04;display:inline;stroke-width:0.264583"
       x="30.149519"
       y="50.103973"
       id="text50969"
       transform="translate(17.289116,512.04256)"><tspan
         x="30.149519"
         y="50.103973"
         id="tspan6326"><tspan
           style="font-family:interval;-inkscape-font-specification:interval"
           id="tspan6320">var(</tspan><tspan
           style="fill:#000080"
           id="tspan6322">--english</tspan><tspan
           style="font-family:interval;-inkscape-font-specification:interval"
           id="tspan6324">)</tspan></tspan></text>
    <text
       xml:space="preserve"
       style="font-size:4.23333px;line-height:1.25;font-family:sans-serif;letter-spacing:0px;word-spacing:0px;white-space:pre;inline-size:125.04;display:inline;stroke-width:0.264583"
       x="30.149519"
       y="50.103973"
       id="text50979"
       transform="translate(17.289116,522.7999)"><tspan
         x="30.149519"
         y="50.103973"
         id="tspan6334"><tspan
           style="font-family:interval;-inkscape-font-specification:interval"
           id="tspan6328">var(</tspan><tspan
           style="fill:#000080"
           id="tspan6330">--dutch</tspan><tspan
           style="font-family:interval;-inkscape-font-specification:interval"
           id="tspan6332">)</tspan></tspan></text>
    <text
       xml:space="preserve"
       style="font-size:4.23333px;line-height:1.25;font-family:sans-serif;letter-spacing:0px;word-spacing:0px;white-space:pre;inline-size:125.04;display:inline;stroke-width:0.264583"
       x="30.149519"
       y="50.103973"
       id="text50987"
       transform="translate(17.289116,531.86042)"><tspan
         x="30.149519"
         y="50.103973"
         id="tspan6342"><tspan
           style="font-family:interval;-inkscape-font-specification:interval"
           id="tspan6336">var(</tspan><tspan
           style="fill:#000080"
           id="tspan6338">--german</tspan><tspan
           style="font-family:interval;-inkscape-font-specification:interval"
           id="tspan6340">)</tspan></tspan></text>
    <text
       xml:space="preserve"
       style="font-size:4.23333px;line-height:1.25;font-family:sans-serif;letter-spacing:0px;word-spacing:0px;white-space:pre;inline-size:125.04;display:inline;stroke-width:0.264583"
       x="30.149519"
       y="50.103973"
       id="text50993"
       transform="translate(17.289116,541.93036)"><tspan
         x="30.149519"
         y="50.103973"
         id="tspan6350"><tspan
           style="font-family:interval;-inkscape-font-specification:interval"
           id="tspan6344">var(</tspan><tspan
           style="fill:#000080"
           id="tspan6346">--spanish</tspan><tspan
           style="font-family:interval;-inkscape-font-specification:interval"
           id="tspan6348">)</tspan></tspan></text>
    <text
       xml:space="preserve"
       style="font-size:4.23333px;line-height:1.25;font-family:sans-serif;letter-spacing:0px;word-spacing:0px;white-space:pre;inline-size:125.04;display:inline;stroke-width:0.264583"
       x="30.149519"
       y="50.103973"
       id="text51001"
       transform="translate(17.289116,550.9013)"><tspan
         x="30.149519"
         y="50.103973"
         id="tspan6358"><tspan
           style="font-family:interval;-inkscape-font-specification:interval"
           id="tspan6352">var(</tspan><tspan
           style="fill:#000080"
           id="tspan6354">--french</tspan><tspan
           style="font-family:interval;-inkscape-font-specification:interval"
           id="tspan6356">)</tspan></tspan></text>
    <path
       style="fill:none;stroke:#000000;stroke-width:0.09855;stroke-dasharray:none;stroke-opacity:1"
       id="path51504"
       d="m 79.368451,27.15231 c 1.8937,0 3.7874,0 5.6811,0 2.630946,0 5.261893,0 7.892839,0 0.186229,0 0.372458,0 0.558687,0 0,0 0.09923,-1.115704 0.09923,-1.115704 v 0 c -0.186229,0 -0.372458,0 -0.558688,0 -2.630946,0 -5.261892,0 -7.892839,0 -1.8937,0 -3.7874,0 -5.681099,0 0,0 -0.09923,1.115704 -0.09923,1.115704 z" />
    <path
       style="fill:none;stroke:#000000;stroke-width:0.09855;stroke-dasharray:none;stroke-opacity:1"
       id="path51510"
       d="m 80.076561,29.652823 c 1.964135,0 3.928268,0 5.892401,0 0,0 0.09922,-1.115703 0.09922,-1.115703 v 0 c -1.964132,0 -3.928264,0 -5.892399,0 0,0 -0.09923,1.115703 -0.09923,1.115703 z" />
    <text
       xml:space="preserve"
       style="font-size:4.23333px;line-height:1.25;font-family:sans-serif;letter-spacing:0px;word-spacing:0px;stroke-width:0.264583"
       x="11.527267"
       y="241.77295"
       id="text39147-6"><tspan
         sodipodi:role="line"
         id="tspan39145-1"
         style="font-style:normal;font-variant:normal;font-weight:normal;font-stretch:normal;font-size:4.23333px;font-family:interval;-inkscape-font-specification:interval;stroke-width:0.264583"
         x="11.527267"
         y="241.77295"><tspan
           style="font-style:italic;font-variant:normal;font-weight:normal;font-stretch:normal;font-family:C059;-inkscape-font-specification:'C059 Italic'"
           id="tspan39143-0">GNU GPL  </tspan></tspan></text>
    <text
       xml:space="preserve"
       style="font-size:4.23333px;line-height:1.25;font-family:sans-serif;letter-spacing:0px;word-spacing:0px;stroke-width:0.264583"
       x="11.21207"
       y="251.98538"
       id="text42152-5"><tspan
         sodipodi:role="line"
         id="tspan42150-4"
         style="font-style:normal;font-variant:normal;font-weight:normal;font-stretch:normal;font-size:4.23333px;font-family:interval;-inkscape-font-specification:interval;stroke-width:0.264583"
         x="11.21207"
         y="251.98538"><tspan
           style="font-style:italic;font-variant:normal;font-weight:normal;font-stretch:normal;font-family:C059;-inkscape-font-specification:'C059 Italic'"
           id="tspan42148-7">CC BY-SA  </tspan></tspan></text>
    <text
       xml:space="preserve"
       style="font-size:4.23333px;line-height:1.25;font-family:sans-serif;letter-spacing:0px;word-spacing:0px;stroke-width:0.264583"
       x="11.153754"
       y="261.77875"
       id="text42908-6"><tspan
         sodipodi:role="line"
         id="tspan42906-9"
         style="font-style:normal;font-variant:normal;font-weight:normal;font-stretch:normal;font-size:4.23333px;font-family:interval;-inkscape-font-specification:interval;stroke-width:0.264583"
         x="11.153754"
         y="261.77875"><tspan
           style="font-style:italic;font-variant:normal;font-weight:normal;font-stretch:normal;font-family:C059;-inkscape-font-specification:'C059 Italic'"
           id="tspan42904-3">free art license  </tspan></tspan></text>
    <rect
       style="fill:#ffff00;stroke:none;stroke-width:0.32865;stroke-opacity:1"
       id="rect47444"
       width="87.911339"
       height="6.9006214"
       x="47.271965"
       y="247.12402" />
    <text
       xml:space="preserve"
       style="font-style:normal;font-variant:normal;font-weight:normal;font-stretch:normal;font-size:4.23333px;line-height:1.25;font-family:Interval;-inkscape-font-specification:'Interval, Normal';font-variant-ligatures:normal;font-variant-caps:normal;font-variant-numeric:normal;font-variant-east-asian:normal;letter-spacing:0px;word-spacing:0px;stroke-width:0.264583"
       x="48.025078"
       y="252.06448"
       id="text47448"><tspan
         sodipodi:role="line"
         id="tspan47446"
         style="font-style:normal;font-variant:normal;font-weight:normal;font-stretch:normal;font-size:4.23333px;font-family:Interval;-inkscape-font-specification:'Interval, Normal';font-variant-ligatures:normal;font-variant-caps:normal;font-variant-numeric:normal;font-variant-east-asian:normal;stroke-width:0.264583"
         x="48.025078"
         y="252.06448">var(--white) var(--verlag-cc-by-sa);</tspan></text>
    <rect
       style="fill:#ffff00;stroke:none;stroke-width:0.327412;stroke-opacity:1"
       id="rect48058"
       width="87.249985"
       height="6.9006214"
       x="47.295708"
       y="236.93199" />
    <text
       xml:space="preserve"
       style="font-style:normal;font-variant:normal;font-weight:normal;font-stretch:normal;font-size:4.23333px;line-height:1.25;font-family:Interval;-inkscape-font-specification:'Interval, Normal';font-variant-ligatures:normal;font-variant-caps:normal;font-variant-numeric:normal;font-variant-east-asian:normal;letter-spacing:0px;word-spacing:0px;stroke-width:0.264583"
       x="48.04882"
       y="241.8725"
       id="text48062"><tspan
         sodipodi:role="line"
         id="tspan48060"
         style="font-style:normal;font-variant:normal;font-weight:normal;font-stretch:normal;font-size:4.23333px;font-family:Interval;-inkscape-font-specification:'Interval, Normal';font-variant-ligatures:normal;font-variant-caps:normal;font-variant-numeric:normal;font-variant-east-asian:normal;stroke-width:0.264583"
         x="48.04882"
         y="241.8725">var(--white) var(--verlag-gnu-gpl);</tspan></text>
    <rect
       style="fill:#ffff00;stroke:none;stroke-width:0.305912;stroke-opacity:1"
       id="rect48064"
       width="76.167725"
       height="6.9006214"
       x="46.901146"
       y="257.01175" />
    <text
       xml:space="preserve"
       style="font-style:normal;font-variant:normal;font-weight:normal;font-stretch:normal;font-size:4.23333px;line-height:1.25;font-family:Interval;-inkscape-font-specification:'Interval, Normal';font-variant-ligatures:normal;font-variant-caps:normal;font-variant-numeric:normal;font-variant-east-asian:normal;letter-spacing:0px;word-spacing:0px;stroke-width:0.264583"
       x="47.654259"
       y="261.95224"
       id="text48068"><tspan
         sodipodi:role="line"
         id="tspan48066"
         style="font-style:normal;font-variant:normal;font-weight:normal;font-stretch:normal;font-size:4.23333px;font-family:Interval;-inkscape-font-specification:'Interval, Normal';font-variant-ligatures:normal;font-variant-caps:normal;font-variant-numeric:normal;font-variant-east-asian:normal;stroke-width:0.264583"
         x="47.654259"
         y="261.95224">var(--white) var(--verlag-fal);</tspan></text>
    <text
       xml:space="preserve"
       style="font-size:4.23333px;line-height:1.25;font-family:sans-serif;letter-spacing:0px;word-spacing:0px;stroke-width:0.264583"
       x="11.527267"
       y="211.95346"
       id="text634"><tspan
         sodipodi:role="line"
         id="tspan632"
         style="font-style:normal;font-variant:normal;font-weight:normal;font-stretch:normal;font-size:4.23333px;font-family:interval;-inkscape-font-specification:interval;stroke-width:0.264583"
         x="11.527267"
         y="211.95346"><tspan
           style="font-style:italic;font-variant:normal;font-weight:normal;font-stretch:normal;font-family:C059;-inkscape-font-specification:'C059 Italic'"
           id="tspan630">CC 0  </tspan></tspan></text>
    <text
       xml:space="preserve"
       style="font-size:4.23333px;line-height:1.25;font-family:sans-serif;letter-spacing:0px;word-spacing:0px;stroke-width:0.264583"
       x="11.21207"
       y="222.16589"
       id="text640"><tspan
         sodipodi:role="line"
         id="tspan638"
         style="font-style:normal;font-variant:normal;font-weight:normal;font-stretch:normal;font-size:4.23333px;font-family:interval;-inkscape-font-specification:interval;stroke-width:0.264583"
         x="11.21207"
         y="222.16589"><tspan
           style="font-style:italic;font-variant:normal;font-weight:normal;font-stretch:normal;font-family:C059;-inkscape-font-specification:'C059 Italic'"
           id="tspan636">CC BY  </tspan></tspan></text>
    <text
       xml:space="preserve"
       style="font-size:4.23333px;line-height:1.25;font-family:sans-serif;letter-spacing:0px;word-spacing:0px;stroke-width:0.264583"
       x="11.153754"
       y="231.95926"
       id="text646"><tspan
         sodipodi:role="line"
         id="tspan644"
         style="font-style:normal;font-variant:normal;font-weight:normal;font-stretch:normal;font-size:4.23333px;font-family:interval;-inkscape-font-specification:interval;stroke-width:0.264583"
         x="11.153754"
         y="231.95926"><tspan
           style="font-style:italic;font-variant:normal;font-weight:normal;font-stretch:normal;font-family:C059;-inkscape-font-specification:'C059 Italic'"
           id="tspan642">cc4r  </tspan></tspan></text>
    <rect
       style="fill:#ffff00;stroke:none;stroke-width:0.307962;stroke-opacity:1"
       id="rect648"
       width="77.191879"
       height="6.9006214"
       x="47.271965"
       y="217.30452" />
    <text
       xml:space="preserve"
       style="font-style:normal;font-variant:normal;font-weight:normal;font-stretch:normal;font-size:4.23333px;line-height:1.25;font-family:Interval;-inkscape-font-specification:'Interval, Normal';font-variant-ligatures:normal;font-variant-caps:normal;font-variant-numeric:normal;font-variant-east-asian:normal;letter-spacing:0px;word-spacing:0px;stroke-width:0.264583"
       x="48.025078"
       y="222.245"
       id="text652"><tspan
         sodipodi:role="line"
         id="tspan650"
         style="font-style:normal;font-variant:normal;font-weight:normal;font-stretch:normal;font-size:4.23333px;font-family:Interval;-inkscape-font-specification:'Interval, Normal';font-variant-ligatures:normal;font-variant-caps:normal;font-variant-numeric:normal;font-variant-east-asian:normal;stroke-width:0.264583"
         x="48.025078"
         y="222.245">var(--white) var(--verlag-cc-by);</tspan></text>
    <rect
       style="fill:#ffff00;stroke:none;stroke-width:0.311973;stroke-opacity:1"
       id="rect654"
       width="79.215584"
       height="6.9006214"
       x="47.295708"
       y="207.1125" />
    <text
       xml:space="preserve"
       style="font-style:normal;font-variant:normal;font-weight:normal;font-stretch:normal;font-size:4.23333px;line-height:1.25;font-family:Interval;-inkscape-font-specification:'Interval, Normal';font-variant-ligatures:normal;font-variant-caps:normal;font-variant-numeric:normal;font-variant-east-asian:normal;letter-spacing:0px;word-spacing:0px;stroke-width:0.264583"
       x="48.04882"
       y="212.05299"
       id="text658"><tspan
         sodipodi:role="line"
         id="tspan656"
         style="font-style:normal;font-variant:normal;font-weight:normal;font-stretch:normal;font-size:4.23333px;font-family:Interval;-inkscape-font-specification:'Interval, Normal';font-variant-ligatures:normal;font-variant-caps:normal;font-variant-numeric:normal;font-variant-east-asian:normal;stroke-width:0.264583"
         x="48.04882"
         y="212.05299">var(--white) var(--verlag-cc-0);</tspan></text>
    <rect
       style="fill:#ffff00;stroke:none;stroke-width:0.310024;stroke-opacity:1"
       id="rect660"
       width="78.22908"
       height="6.9006214"
       x="46.901146"
       y="227.19226" />
    <text
       xml:space="preserve"
       style="font-style:normal;font-variant:normal;font-weight:normal;font-stretch:normal;font-size:4.23333px;line-height:1.25;font-family:Interval;-inkscape-font-specification:'Interval, Normal';font-variant-ligatures:normal;font-variant-caps:normal;font-variant-numeric:normal;font-variant-east-asian:normal;letter-spacing:0px;word-spacing:0px;stroke-width:0.264583"
       x="47.654259"
       y="232.13274"
       id="text664"><tspan
         sodipodi:role="line"
         id="tspan662"
         style="font-style:normal;font-variant:normal;font-weight:normal;font-stretch:normal;font-size:4.23333px;font-family:Interval;-inkscape-font-specification:'Interval, Normal';font-variant-ligatures:normal;font-variant-caps:normal;font-variant-numeric:normal;font-variant-east-asian:normal;stroke-width:0.264583"
         x="47.654259"
         y="232.13274">var(--white) var(--verlag-cc4r);</tspan></text>
    <text
       xml:space="preserve"
       style="font-size:4.23333px;line-height:1.25;font-family:sans-serif;letter-spacing:0px;word-spacing:0px;stroke-width:0.264583"
       x="11.527267"
       y="301.55954"
       id="text670"><tspan
         sodipodi:role="line"
         id="tspan668"
         style="font-style:normal;font-variant:normal;font-weight:normal;font-stretch:normal;font-size:4.23333px;font-family:interval;-inkscape-font-specification:interval;stroke-width:0.264583"
         x="11.527267"
         y="301.55954"><tspan
           style="font-style:italic;font-variant:normal;font-weight:normal;font-stretch:normal;font-family:C059;-inkscape-font-specification:'C059 Italic'"
           id="tspan666">CC BY-ND  </tspan></tspan></text>
    <text
       xml:space="preserve"
       style="font-size:4.23333px;line-height:1.25;font-family:sans-serif;letter-spacing:0px;word-spacing:0px;stroke-width:0.264583"
       x="11.21207"
       y="311.77197"
       id="text676"><tspan
         sodipodi:role="line"
         id="tspan674"
         style="font-style:normal;font-variant:normal;font-weight:normal;font-stretch:normal;font-size:4.23333px;font-family:interval;-inkscape-font-specification:interval;stroke-width:0.264583"
         x="11.21207"
         y="311.77197"><tspan
           style="font-style:italic;font-variant:normal;font-weight:normal;font-stretch:normal;font-family:C059;-inkscape-font-specification:'C059 Italic'"
           id="tspan672">copyright  </tspan></tspan></text>
    <rect
       style="fill:#ffff00;stroke:none;stroke-width:0.342761;stroke-opacity:1"
       id="rect684"
       width="95.622452"
       height="6.9006214"
       x="47.271965"
       y="306.91058" />
    <text
       xml:space="preserve"
       style="font-style:normal;font-variant:normal;font-weight:normal;font-stretch:normal;font-size:4.23333px;line-height:1.25;font-family:Interval;-inkscape-font-specification:'Interval, Normal';font-variant-ligatures:normal;font-variant-caps:normal;font-variant-numeric:normal;font-variant-east-asian:normal;letter-spacing:0px;word-spacing:0px;stroke-width:0.264583"
       x="48.025078"
       y="311.85107"
       id="text688"><tspan
         sodipodi:role="line"
         id="tspan686"
         style="font-style:normal;font-variant:normal;font-weight:normal;font-stretch:normal;font-size:4.23333px;font-family:Interval;-inkscape-font-specification:'Interval, Normal';font-variant-ligatures:normal;font-variant-caps:normal;font-variant-numeric:normal;font-variant-east-asian:normal;stroke-width:0.264583"
         x="48.025078"
         y="311.85107">var(--white) var(--verlag-copyright);</tspan></text>
    <rect
       style="fill:#ffff00;stroke:none;stroke-width:0.327412;stroke-opacity:1"
       id="rect690"
       width="87.249985"
       height="6.9006214"
       x="47.295708"
       y="296.71857" />
    <text
       xml:space="preserve"
       style="font-style:normal;font-variant:normal;font-weight:normal;font-stretch:normal;font-size:4.23333px;line-height:1.25;font-family:Interval;-inkscape-font-specification:'Interval, Normal';font-variant-ligatures:normal;font-variant-caps:normal;font-variant-numeric:normal;font-variant-east-asian:normal;letter-spacing:0px;word-spacing:0px;stroke-width:0.264583"
       x="48.04882"
       y="301.65906"
       id="text694"><tspan
         sodipodi:role="line"
         id="tspan692"
         style="font-style:normal;font-variant:normal;font-weight:normal;font-stretch:normal;font-size:4.23333px;font-family:Interval;-inkscape-font-specification:'Interval, Normal';font-variant-ligatures:normal;font-variant-caps:normal;font-variant-numeric:normal;font-variant-east-asian:normal;stroke-width:0.264583"
         x="48.04882"
         y="301.65906">var(--white) var(--verlag-cc-by-nd);</tspan></text>
    <text
       xml:space="preserve"
       style="font-size:4.23333px;line-height:1.25;font-family:sans-serif;letter-spacing:0px;word-spacing:0px;stroke-width:0.264583"
       x="11.527267"
       y="271.74005"
       id="text706"><tspan
         sodipodi:role="line"
         id="tspan704"
         style="font-style:normal;font-variant:normal;font-weight:normal;font-stretch:normal;font-size:4.23333px;font-family:interval;-inkscape-font-specification:interval;stroke-width:0.264583"
         x="11.527267"
         y="271.74005"><tspan
           style="font-style:italic;font-variant:normal;font-weight:normal;font-stretch:normal;font-family:C059;-inkscape-font-specification:'C059 Italic'"
           id="tspan702">CC BY-NC  </tspan></tspan></text>
    <text
       xml:space="preserve"
       style="font-size:4.23333px;line-height:1.25;font-family:sans-serif;letter-spacing:0px;word-spacing:0px;stroke-width:0.264583"
       x="11.21207"
       y="281.95248"
       id="text712"><tspan
         sodipodi:role="line"
         id="tspan710"
         style="font-style:normal;font-variant:normal;font-weight:normal;font-stretch:normal;font-size:4.23333px;font-family:interval;-inkscape-font-specification:interval;stroke-width:0.264583"
         x="11.21207"
         y="281.95248"><tspan
           style="font-style:italic;font-variant:normal;font-weight:normal;font-stretch:normal;font-family:C059;-inkscape-font-specification:'C059 Italic'"
           id="tspan708">CC BY-NC-SA  </tspan></tspan></text>
    <text
       xml:space="preserve"
       style="font-size:4.23333px;line-height:1.25;font-family:sans-serif;letter-spacing:0px;word-spacing:0px;stroke-width:0.264583"
       x="11.153754"
       y="291.74585"
       id="text718"><tspan
         sodipodi:role="line"
         id="tspan716"
         style="font-style:normal;font-variant:normal;font-weight:normal;font-stretch:normal;font-size:4.23333px;font-family:interval;-inkscape-font-specification:interval;stroke-width:0.264583"
         x="11.153754"
         y="291.74585"><tspan
           style="font-style:italic;font-variant:normal;font-weight:normal;font-stretch:normal;font-family:C059;-inkscape-font-specification:'C059 Italic'"
           id="tspan714">CC BY-NC-ND </tspan></tspan></text>
    <rect
       style="fill:#ffff00;stroke:none;stroke-width:0.343808;stroke-opacity:1"
       id="rect720"
       width="96.207703"
       height="6.9006214"
       x="47.271965"
       y="277.09109" />
    <text
       xml:space="preserve"
       style="font-style:normal;font-variant:normal;font-weight:normal;font-stretch:normal;font-size:4.23333px;line-height:1.25;font-family:Interval;-inkscape-font-specification:'Interval, Normal';font-variant-ligatures:normal;font-variant-caps:normal;font-variant-numeric:normal;font-variant-east-asian:normal;letter-spacing:0px;word-spacing:0px;stroke-width:0.264583"
       x="48.025078"
       y="282.03159"
       id="text724"><tspan
         sodipodi:role="line"
         id="tspan722"
         style="font-style:normal;font-variant:normal;font-weight:normal;font-stretch:normal;font-size:4.23333px;font-family:Interval;-inkscape-font-specification:'Interval, Normal';font-variant-ligatures:normal;font-variant-caps:normal;font-variant-numeric:normal;font-variant-east-asian:normal;stroke-width:0.264583"
         x="48.025078"
         y="282.03159">var(--white) var(--verlag-cc-by-nc-sa);</tspan></text>
    <rect
       style="fill:#ffff00;stroke:none;stroke-width:0.330618;stroke-opacity:1"
       id="rect726"
       width="88.967262"
       height="6.9006214"
       x="47.295708"
       y="266.89908" />
    <text
       xml:space="preserve"
       style="font-style:normal;font-variant:normal;font-weight:normal;font-stretch:normal;font-size:4.23333px;line-height:1.25;font-family:Interval;-inkscape-font-specification:'Interval, Normal';font-variant-ligatures:normal;font-variant-caps:normal;font-variant-numeric:normal;font-variant-east-asian:normal;letter-spacing:0px;word-spacing:0px;stroke-width:0.264583"
       x="48.04882"
       y="271.83957"
       id="text730"><tspan
         sodipodi:role="line"
         id="tspan728"
         style="font-style:normal;font-variant:normal;font-weight:normal;font-stretch:normal;font-size:4.23333px;font-family:Interval;-inkscape-font-specification:'Interval, Normal';font-variant-ligatures:normal;font-variant-caps:normal;font-variant-numeric:normal;font-variant-east-asian:normal;stroke-width:0.264583"
         x="48.04882"
         y="271.83957">var(--white) var(--verlag-cc-by-nc);</tspan></text>
    <rect
       style="fill:#ffff00;stroke:none;stroke-width:0.340311;stroke-opacity:1"
       id="rect732"
       width="94.26046"
       height="6.9006214"
       x="46.901146"
       y="286.97885" />
    <text
       xml:space="preserve"
       style="font-style:normal;font-variant:normal;font-weight:normal;font-stretch:normal;font-size:4.23333px;line-height:1.25;font-family:Interval;-inkscape-font-specification:'Interval, Normal';font-variant-ligatures:normal;font-variant-caps:normal;font-variant-numeric:normal;font-variant-east-asian:normal;letter-spacing:0px;word-spacing:0px;stroke-width:0.264583"
       x="47.654259"
       y="291.91931"
       id="text736"><tspan
         sodipodi:role="line"
         id="tspan734"
         style="font-style:normal;font-variant:normal;font-weight:normal;font-stretch:normal;font-size:4.23333px;font-family:Interval;-inkscape-font-specification:'Interval, Normal';font-variant-ligatures:normal;font-variant-caps:normal;font-variant-numeric:normal;font-variant-east-asian:normal;stroke-width:0.264583"
         x="47.654259"
         y="291.91931">var(--white) var(--verlag-cc-by-nc-nd);</tspan></text>
  </g>
</svg>
